# Blender v2.76 (sub 0) OBJ File: 'Wheel.blend'
# www.blender.org
o 1SmallWheel_SmallWheel
v -0.431762 -0.000000 0.559221
v 0.126416 0.000000 0.559221
v -0.431762 -0.213606 0.516732
v 0.126416 -0.213606 0.516732
v -0.431762 -0.394692 0.395734
v 0.126416 -0.394692 0.395734
v -0.431762 -0.515690 0.214648
v 0.126416 -0.515690 0.214648
v -0.431762 -0.558179 0.001042
v 0.126416 -0.558179 0.001042
v -0.431762 -0.515690 -0.212564
v 0.126417 -0.515690 -0.212564
v -0.431762 -0.394692 -0.393650
v 0.126417 -0.394692 -0.393650
v -0.431762 -0.213606 -0.514648
v 0.126417 -0.213606 -0.514648
v -0.431762 -0.000000 -0.557165
v 0.126417 -0.000000 -0.557137
v -0.431762 0.213606 -0.521952
v 0.126417 0.213606 -0.514648
v -0.431762 0.394692 -0.413209
v 0.126417 0.394692 -0.393658
v -0.431762 0.515690 -0.235954
v 0.126417 0.515690 -0.212748
v -0.431762 0.558179 -0.013450
v 0.126416 0.558179 0.001042
v -0.431762 0.515690 0.211888
v 0.126416 0.515690 0.214648
v -0.431762 0.394692 0.395734
v 0.126416 0.394692 0.395734
v -0.431762 0.213605 0.516732
v 0.126416 0.213606 0.516732
v 0.182187 0.000000 0.482297
v 0.182187 -0.184168 0.445664
v 0.182187 -0.340299 0.341341
v 0.182187 -0.444622 0.185210
v 0.182187 -0.481255 0.001042
v 0.182187 -0.444622 -0.183127
v 0.182187 -0.340299 -0.339257
v 0.182187 -0.184168 -0.443580
v 0.182187 -0.000000 -0.480214
v 0.182187 0.184168 -0.443580
v 0.182187 0.340299 -0.339257
v 0.182187 0.444622 -0.183127
v 0.182187 0.481255 0.001042
v 0.182187 0.444622 0.185210
v 0.182187 0.340299 0.341341
v 0.182187 0.184168 0.445664
v 0.150142 0.000000 0.403700
v 0.150142 -0.154090 0.373049
v 0.150142 -0.284722 0.285764
v 0.150142 -0.372007 0.155132
v 0.150142 -0.402658 0.001042
v 0.150142 -0.372007 -0.153048
v 0.150142 -0.284722 -0.283680
v 0.150142 -0.154090 -0.370966
v 0.150142 -0.000000 -0.401616
v 0.150142 0.154090 -0.370965
v 0.150142 0.284722 -0.283680
v 0.150142 0.372007 -0.153049
v 0.150142 0.402658 0.001042
v 0.150142 0.372007 0.155132
v 0.150142 0.284722 0.285764
v 0.150142 0.154090 0.373049
v -0.431762 -0.000000 0.001042
vt 0.496119 0.999461
vt 0.620102 0.999461
vt 0.620102 0.681702
vt 0.744086 0.999461
vt 0.744086 0.681702
vt 0.868069 0.999461
vt 0.868069 0.681702
vt 0.992052 0.999461
vt 0.992052 0.681702
vt 0.868069 0.684880
vt 0.868069 1.002638
vt 0.992052 1.002638
vt 0.744085 0.684880
vt 0.744085 1.002638
vt 0.620102 0.684880
vt 0.620102 1.002638
vt 0.496119 0.684880
vt 0.496119 1.002638
vt 0.372136 0.684880
vt 0.372136 1.002639
vt 0.248153 0.684880
vt 0.248153 1.002639
vt 0.124169 0.684880
vt 0.124169 1.002639
vt 0.000186 0.684880
vt 0.000186 1.002639
vt 0.000186 0.999461
vt 0.124170 0.999461
vt 0.124170 0.681702
vt 0.248153 0.999461
vt 0.248153 0.681702
vt 0.611735 0.154046
vt 0.565363 0.185325
vt 0.606457 0.285147
vt 0.372136 0.999461
vt 0.496119 0.681702
vt 0.372136 0.681702
vt 0.558738 0.294736
vt 0.558563 0.383788
vt 0.606328 0.393130
vt 0.106145 0.184754
vt 0.182420 0.108466
vt 0.153607 0.068408
vt 0.270985 0.659630
vt 0.281151 0.610303
vt 0.181642 0.568804
vt 0.564958 0.492865
vt 0.605677 0.520878
vt 0.271118 0.019679
vt 0.282052 0.067231
vt 0.389848 0.067354
vt 0.488620 0.569180
vt 0.388968 0.610435
vt 0.398207 0.659636
vt 0.063605 0.520822
vt 0.105629 0.492285
vt 0.064654 0.392430
vt 0.520191 0.062207
vt 0.489342 0.108831
vt 0.064818 0.284461
vt 0.063698 0.158421
vt 0.654344 0.403283
vt 0.153477 0.610875
vt 0.515731 0.610902
vt 0.398324 0.019679
vt 0.015056 0.275987
vt 0.291702 0.114845
vt 0.290517 0.562645
vt 0.379309 0.562825
vt 0.112387 0.382875
vt 0.112581 0.293807
vt 0.524945 0.212376
vt 0.146045 0.465256
vt 0.462417 0.149261
vt 0.208594 0.528380
vt 0.380497 0.115017
vt 0.461423 0.528850
vt 0.209593 0.148764
vt 0.524399 0.465987
vt 0.146695 0.211602
vt 0.333816 0.340476
vt 0.511450 0.074628
vt 0.015028 0.403222
vt 0.654343 0.276020
vt 0.599664 0.162842
vt 0.992052 0.684880
vt 0.000186 0.681702
vn -0.665700 0.000000 0.746200
vn -0.665700 -0.285500 0.689400
vn 0.433000 -0.344900 0.832800
vn -0.665700 -0.527600 0.527600
vn 0.433000 -0.637300 0.637300
vn -0.665700 -0.689400 0.285500
vn 0.433000 -0.832800 0.344900
vn -0.665700 -0.746200 0.000000
vn 0.433000 -0.901400 0.000000
vn -0.665700 -0.689400 -0.285500
vn 0.433000 -0.832800 -0.344900
vn -0.665700 -0.527600 -0.527600
vn 0.433000 -0.637300 -0.637300
vn -0.665700 -0.285600 -0.689400
vn 0.433000 -0.345000 -0.832800
vn -0.668900 -0.012300 -0.743200
vn 0.435200 -0.002300 -0.900300
vn -0.664500 0.260000 -0.700600
vn 0.441600 0.340600 -0.830000
vn -0.655200 0.519700 -0.548200
vn 0.444800 0.634000 -0.632600
vn -0.658900 0.693200 -0.291900
vn 0.440200 0.830500 -0.341200
vn -0.666900 0.745100 -0.002300
vn 0.433500 0.901200 0.002500
vn -0.665700 0.691700 0.279900
vn 0.431500 0.833600 0.344900
vn -0.665000 0.529900 0.526200
vn 0.432500 0.637900 0.637200
vn 0.983900 -0.165000 -0.068300
vn 0.983900 -0.178600 0.000000
vn -0.665700 0.285500 0.689400
vn 0.433000 0.000000 0.901400
vn 0.433000 0.344900 0.832800
vn 0.976500 0.215300 0.000000
vn 0.976500 0.198900 -0.082400
vn 0.983900 -0.165000 0.068300
vn 0.983900 0.126300 -0.126300
vn 0.983900 0.068300 -0.165000
vn 0.983900 0.068300 0.165000
vn 0.983900 0.126300 0.126300
vn 0.983900 -0.126300 0.126300
vn 0.983900 0.000000 -0.178600
vn 0.983900 -0.068300 -0.165000
vn 0.983900 -0.068300 0.165000
vn 0.983900 0.000000 0.178600
vn 0.983900 0.165000 0.068300
vn 0.983900 0.178600 0.000000
vn 0.983900 -0.126300 -0.126300
vn 0.983900 0.164800 -0.068200
vn 0.976500 0.000000 0.215300
vn 0.976500 -0.082400 -0.198900
vn 0.976500 0.000000 -0.215300
vn 0.976500 -0.215300 0.000000
vn 0.976500 -0.198900 0.082400
vn 0.976500 0.198900 0.082400
vn 0.976500 -0.198900 -0.082400
vn 0.976500 0.152200 0.152200
vn 0.976500 -0.152200 -0.152200
vn 0.976500 0.082400 0.198900
vn 0.976500 0.082400 -0.198900
vn 0.976500 -0.082400 0.198900
vn 0.976500 0.152200 -0.152200
vn 0.976500 -0.152200 0.152200
vn -1.000000 0.000000 0.000000
s 1
f 1/1/1 3/2/2 4/3/3
f 3/2/2 5/4/4 6/5/5
f 5/4/4 7/6/6 8/7/7
f 9/8/8 10/9/9 8/7/7
f 11/10/10 12/11/11 10/12/9
f 13/13/12 14/14/13 12/11/11
f 15/15/14 16/16/15 14/14/13
f 17/17/16 18/18/17 16/16/15
f 19/19/18 20/20/19 18/18/17
f 21/21/20 22/22/21 20/20/19
f 23/23/22 24/24/23 22/22/21
f 23/23/22 25/25/24 26/26/25
f 25/27/24 27/28/26 28/29/27
f 27/28/26 29/30/28 30/31/29
f 12/32/11 38/33/30 37/34/31
f 31/35/32 1/1/1 2/36/33
f 29/30/28 31/35/32 32/37/34
f 53/38/35 52/39/36 36/40/37
f 43/41/38 42/42/39 20/43/19
f 32/44/34 48/45/40 47/46/41
f 36/40/37 35/47/42 6/48/5
f 18/49/17 41/50/43 40/51/44
f 34/52/45 33/53/46 2/54/33
f 28/55/27 46/56/47 45/57/48
f 14/58/13 39/59/49 38/33/30
f 44/60/50 43/41/38 22/61/21
f 2/54/33 33/53/46 48/45/40
f 37/34/31 36/40/37 8/62/7
f 42/42/39 41/50/43 18/49/17
f 30/63/29 47/46/41 46/56/47
f 35/47/42 34/52/45 4/64/3
f 16/65/15 40/51/44 39/59/49
f 45/57/48 44/60/50 24/66/23
f 57/67/51 64/68/52 49/69/53
f 61/70/54 60/71/55 44/60/50
f 38/33/30 54/72/56 53/38/35
f 46/56/47 62/73/57 61/70/54
f 39/59/49 55/74/58 54/72/56
f 47/46/41 63/75/59 62/73/57
f 40/51/44 56/76/60 55/74/58
f 48/45/40 64/68/52 63/75/59
f 41/50/43 57/67/51 56/76/60
f 50/77/61 49/69/53 33/53/46
f 33/53/46 49/69/53 64/68/52
f 58/78/62 57/67/51 41/50/43
f 51/79/63 50/77/61 34/52/45
f 59/80/64 58/78/62 42/42/39
f 52/39/36 51/79/63 35/47/42
f 60/71/55 59/80/64 43/41/38
f 5/65/4 65/81/65 7/82/6
f 15/48/14 65/81/65 17/64/16
f 1/43/1 65/81/65 3/49/2
f 25/55/24 65/81/65 27/83/26
f 11/84/10 65/81/65 13/62/12
f 21/44/20 65/81/65 23/63/22
f 31/61/32 65/81/65 1/43/1
f 7/82/6 65/81/65 9/85/8
f 17/64/16 65/81/65 19/54/18
f 27/83/26 65/81/65 29/66/28
f 3/49/2 65/81/65 5/65/4
f 13/62/12 65/81/65 15/48/14
f 23/63/22 65/81/65 25/55/24
f 9/85/8 65/81/65 11/84/10
f 19/54/18 65/81/65 21/44/20
f 29/66/28 65/81/65 31/61/32
f 2/36/33 1/1/1 4/3/3
f 4/3/3 3/2/2 6/5/5
f 6/5/5 5/4/4 8/7/7
f 7/6/6 9/8/8 8/7/7
f 9/86/8 11/10/10 10/12/9
f 11/10/10 13/13/12 12/11/11
f 13/13/12 15/15/14 14/14/13
f 15/15/14 17/17/16 16/16/15
f 17/17/16 19/19/18 18/18/17
f 19/19/18 21/21/20 20/20/19
f 21/21/20 23/23/22 22/22/21
f 24/24/23 23/23/22 26/26/25
f 26/87/25 25/27/24 28/29/27
f 28/29/27 27/28/26 30/31/29
f 10/84/9 12/32/11 37/34/31
f 32/37/34 31/35/32 2/36/33
f 30/31/29 29/30/28 32/37/34
f 37/34/31 53/38/35 36/40/37
f 22/61/21 43/41/38 20/43/19
f 30/63/29 32/44/34 47/46/41
f 8/62/7 36/40/37 6/48/5
f 16/65/15 18/49/17 40/51/44
f 4/64/3 34/52/45 2/54/33
f 26/83/25 28/55/27 45/57/48
f 12/32/11 14/58/13 38/33/30
f 24/66/23 44/60/50 22/61/21
f 32/44/34 2/54/33 48/45/40
f 10/84/9 37/34/31 8/62/7
f 20/43/19 42/42/39 18/49/17
f 28/55/27 30/63/29 46/56/47
f 6/48/5 35/47/42 4/64/3
f 14/58/13 16/65/15 39/59/49
f 26/83/25 45/57/48 24/66/23
f 49/69/53 50/77/61 56/76/60
f 51/79/63 52/39/36 54/72/56
f 53/38/35 54/72/56 52/39/36
f 55/74/58 56/76/60 50/77/61
f 57/67/51 58/78/62 64/68/52
f 59/80/64 60/71/55 62/73/57
f 61/70/54 62/73/57 60/71/55
f 63/75/59 64/68/52 58/78/62
f 50/77/61 51/79/63 55/74/58
f 54/72/56 55/74/58 51/79/63
f 58/78/62 59/80/64 63/75/59
f 62/73/57 63/75/59 59/80/64
f 49/69/53 56/76/60 57/67/51
f 45/57/48 61/70/54 44/60/50
f 37/34/31 38/33/30 53/38/35
f 45/57/48 46/56/47 61/70/54
f 38/33/30 39/59/49 54/72/56
f 46/56/47 47/46/41 62/73/57
f 39/59/49 40/51/44 55/74/58
f 47/46/41 48/45/40 63/75/59
f 40/51/44 41/50/43 56/76/60
f 34/52/45 50/77/61 33/53/46
f 48/45/40 33/53/46 64/68/52
f 42/42/39 58/78/62 41/50/43
f 35/47/42 51/79/63 34/52/45
f 43/41/38 59/80/64 42/42/39
f 36/40/37 52/39/36 35/47/42
f 44/60/50 60/71/55 43/41/38
o 2LargeWheel
v -0.731410 0.000000 -0.931137
v 0.199727 0.000000 -0.931137
v -0.731410 -0.356331 -0.860259
v 0.199727 -0.356331 -0.860259
v -0.731410 -0.658414 -0.658414
v 0.199727 -0.658413 -0.658413
v -0.731410 -0.860259 -0.356331
v 0.199727 -0.860259 -0.356331
v -0.731410 -0.931137 0.000000
v 0.199727 -0.931137 0.000000
v -0.731410 -0.860259 0.356331
v 0.199727 -0.860259 0.356331
v -0.731410 -0.658414 0.658414
v 0.199727 -0.658413 0.658414
v -0.731410 -0.356331 0.860259
v 0.199727 -0.356331 0.860259
v -0.731410 -0.000000 0.931138
v 0.199727 -0.000000 0.931138
v -0.731410 0.356331 0.860259
v 0.199727 0.356331 0.860259
v -0.731410 0.658413 0.658414
v 0.199727 0.658413 0.658414
v -0.731410 0.860259 0.356331
v 0.199727 0.860259 0.356331
v -0.731410 0.931137 -0.000000
v 0.199727 0.931137 -0.000000
v -0.731410 0.860259 -0.356331
v 0.199727 0.860259 -0.356331
v -0.731410 0.658413 -0.658414
v 0.199727 0.658413 -0.658414
v -0.731410 0.356331 -0.860259
v 0.199727 0.356331 -0.860259
v 0.292763 0.000000 -0.802816
v 0.292763 -0.307224 -0.741705
v 0.292763 -0.567676 -0.567676
v 0.292763 -0.741705 -0.307224
v 0.292763 -0.802816 -0.000000
v 0.292763 -0.741705 0.307224
v 0.292763 -0.567676 0.567676
v 0.292763 -0.307224 0.741705
v 0.292763 -0.000000 0.802816
v 0.292763 0.307224 0.741705
v 0.292763 0.567676 0.567677
v 0.292763 0.741705 0.307224
v 0.292763 0.802816 -0.000000
v 0.292763 0.741705 -0.307224
v 0.292763 0.567676 -0.567677
v 0.292763 0.307224 -0.741705
v 0.239306 0.000000 -0.671702
v 0.239306 -0.257049 -0.620571
v 0.239306 -0.474965 -0.474965
v 0.239306 -0.620571 -0.257049
v 0.239306 -0.671702 -0.000000
v 0.239306 -0.620571 0.257049
v 0.239306 -0.474965 0.474965
v 0.239306 -0.257049 0.620572
v 0.239306 -0.000000 0.671702
v 0.239306 0.257049 0.620572
v 0.239306 0.474965 0.474965
v 0.239306 0.620572 0.257049
v 0.239306 0.671702 -0.000000
v 0.239306 0.620571 -0.257049
v 0.239306 0.474965 -0.474965
v 0.239306 0.257049 -0.620572
v -0.731410 -0.000000 0.000000
v 0.042663 -0.244106 -0.589325
v 0.042663 0.000000 -0.637880
v 0.042663 -0.451050 -0.451050
v 0.042663 -0.589325 -0.244106
v 0.042663 -0.637880 0.000000
v 0.042663 -0.589325 0.244107
v 0.042663 -0.451050 0.451050
v 0.042663 -0.244106 0.589325
v 0.042663 -0.000000 0.637881
v 0.042663 0.244106 0.589325
v 0.042663 0.451049 0.451050
v 0.042663 0.589325 0.244107
v 0.042663 0.637881 -0.000000
v 0.042663 0.589325 -0.244106
v 0.042663 0.451049 -0.451050
v 0.042663 0.244106 -0.589325
v 0.042663 -0.000000 0.000000
vt 0.496119 0.681702
vt 0.620102 0.681702
vt 0.620102 0.999461
vt 0.744086 0.681702
vt 0.744086 0.999461
vt 0.868069 0.681702
vt 0.992052 0.681702
vt 0.992052 0.999461
vt 0.992052 0.684880
vt 0.992052 1.002638
vt 0.868069 1.002638
vt 0.744085 1.002638
vt 0.744085 0.684880
vt 0.620102 1.002638
vt 0.620102 0.684880
vt 0.496119 1.002638
vt 0.496119 0.684880
vt 0.372136 1.002639
vt 0.248153 1.002639
vt 0.248153 0.684880
vt 0.124169 1.002639
vt 0.124169 0.684880
vt 0.000186 1.002639
vt 0.000186 0.684880
vt 0.000186 0.999461
vt 0.000186 0.681702
vt 0.124170 0.681702
vt 0.248153 0.681702
vt 0.248153 0.999461
vt 0.611735 0.154046
vt 0.661280 0.273941
vt 0.606401 0.284730
vt 0.372136 0.681702
vt 0.496119 0.999461
vt 0.372136 0.999461
vt 0.606447 0.392654
vt 0.558574 0.383089
vt 0.558521 0.294234
vt 0.151033 0.062188
vt 0.182002 0.108857
vt 0.105851 0.185231
vt 0.270530 0.665196
vt 0.150773 0.615427
vt 0.182033 0.568910
vt 0.611690 0.523647
vt 0.565247 0.492406
vt 0.270797 0.012470
vt 0.400455 0.012470
vt 0.389371 0.067424
vt 0.400221 0.665207
vt 0.389458 0.610187
vt 0.489050 0.568800
vt 0.059241 0.523534
vt 0.009830 0.403592
vt 0.064685 0.392836
vt 0.520191 0.062207
vt 0.565146 0.185038
vt 0.059428 0.154000
vt 0.064678 0.284944
vt 0.281631 0.610229
vt 0.661284 0.403713
vt 0.281567 0.067476
vt 0.105862 0.492554
vt 0.520012 0.615480
vt 0.488957 0.108719
vt 0.009885 0.273876
vt 0.146492 0.465437
vt 0.112549 0.383354
vt 0.170353 0.372043
vt 0.112521 0.294517
vt 0.524534 0.212165
vt 0.461782 0.149358
vt 0.209228 0.528267
vt 0.379791 0.115392
vt 0.379979 0.562197
vt 0.461956 0.528116
vt 0.291224 0.562252
vt 0.291053 0.115455
vt 0.209098 0.149531
vt 0.524670 0.465217
vt 0.146413 0.212414
vt 0.854488 0.323042
vt 0.917525 0.349153
vt 0.820373 0.494552
vt 0.965771 0.591705
vt 0.917525 0.639951
vt 0.723220 0.349153
vt 0.786257 0.323042
vt 0.674973 0.591704
vt 0.648863 0.528667
vt 0.991882 0.460437
vt 0.991882 0.528667
vt 0.786257 0.666062
vt 0.723220 0.639951
vt 0.674974 0.397399
vt 0.965772 0.397400
vt 0.854488 0.666062
vt 0.648863 0.460437
vt 0.475446 0.244776
vt 0.195593 0.432837
vt 0.428886 0.198298
vt 0.242141 0.479327
vt 0.368109 0.173212
vt 0.368670 0.504298
vt 0.429371 0.478970
vt 0.302920 0.504423
vt 0.302368 0.173342
vt 0.241682 0.198666
vt 0.475778 0.432305
vt 0.195290 0.245321
vt 0.500825 0.371413
vt 0.170247 0.306200
vt 0.500707 0.305564
vt 0.335524 0.338812
vt 0.868069 0.999461
vt 0.868069 0.684880
vt 0.372136 0.684880
vt 0.124170 0.999461
vn 0.433000 0.000000 -0.901400
vn 0.433000 -0.344900 -0.832800
vn -0.665700 -0.285500 -0.689400
vn 0.433000 -0.637300 -0.637300
vn -0.665700 -0.527600 -0.527600
vn 0.433000 -0.832800 -0.344900
vn 0.433000 -0.901400 0.000000
vn -0.665700 -0.746200 0.000000
vn 0.433000 -0.832800 0.344900
vn 0.433000 -0.637300 0.637300
vn -0.665700 -0.527600 0.527600
vn 0.433000 -0.344900 0.832800
vn -0.665700 -0.285500 0.689400
vn 0.433000 0.000000 0.901400
vn -0.665700 0.000000 0.746200
vn 0.433000 0.344900 0.832800
vn 0.433000 0.637300 0.637300
vn -0.665700 0.527600 0.527600
vn 0.433000 0.832800 0.344900
vn -0.665700 0.689400 0.285500
vn 0.433000 0.901400 0.000000
vn -0.665700 0.746200 0.000000
vn 0.433000 0.832800 -0.344900
vn 0.433000 0.637300 -0.637300
vn -0.665700 0.527600 -0.527600
vn 0.983900 -0.178600 0.000000
vn 0.433000 0.344900 -0.832800
vn -0.665700 0.000000 -0.746200
vn -0.665700 0.285500 -0.689400
vn 0.983900 -0.165000 -0.068300
vn 0.657600 0.696000 0.288300
vn 0.657600 0.753300 0.000000
vn 0.983900 0.068300 0.165000
vn 0.983900 0.126300 0.126300
vn 0.983900 0.126300 -0.126300
vn 0.983900 -0.126300 -0.126300
vn 0.983900 -0.068300 0.165000
vn 0.983900 0.000000 -0.178600
vn 0.983900 -0.068300 -0.165000
vn 0.983900 0.178600 0.000000
vn 0.983900 -0.165000 0.068300
vn 0.983900 0.165000 0.068300
vn 0.983900 0.068300 -0.165000
vn 0.983900 0.000000 0.178600
vn 0.983900 0.165000 -0.068300
vn 0.983900 -0.126300 0.126300
vn 0.657600 -0.696000 0.288300
vn 0.657600 -0.753300 0.000000
vn 0.726800 -0.686800 0.000000
vn 0.657600 -0.696000 -0.288300
vn 0.657600 0.696000 -0.288300
vn 0.657600 0.532700 -0.532700
vn 0.657600 -0.532700 0.532700
vn 0.657600 0.288300 -0.696000
vn 0.657600 0.000000 0.753300
vn 0.657600 0.288300 0.696000
vn 0.657600 -0.288300 0.696000
vn 0.657600 0.000000 -0.753300
vn 0.657600 -0.288300 -0.696000
vn 0.657600 0.532700 0.532700
vn 0.657600 -0.532700 -0.532700
vn -0.665700 -0.689400 -0.285500
vn -1.000000 0.000000 0.000000
vn -0.665700 0.689400 -0.285500
vn -0.665700 -0.689400 0.285500
vn -0.665700 0.285500 0.689400
vn 0.726800 0.634600 -0.262900
vn 0.726800 -0.634600 0.262900
vn 0.726800 0.485700 -0.485700
vn 0.726800 -0.485700 0.485700
vn 0.726800 0.262900 -0.634600
vn 0.726800 0.000000 0.686800
vn 0.726800 0.262900 0.634600
vn 0.726800 -0.262900 0.634600
vn 0.726800 0.000000 -0.686800
vn 0.726800 -0.262900 -0.634600
vn 0.726800 0.485700 0.485700
vn 0.726800 -0.485700 -0.485700
vn 0.726800 0.634600 0.262900
vn 0.726800 -0.634600 -0.262900
vn 0.726800 0.686800 0.000000
vn 1.000000 0.000000 0.000000
s 1
f 67/88/66 69/89/67 68/90/68
f 69/89/67 71/91/69 70/92/70
f 70/92/70 71/91/69 73/93/71
f 73/93/71 75/94/72 74/95/73
f 74/96/73 75/97/72 77/98/74
f 77/98/74 79/99/75 78/100/76
f 78/100/76 79/99/75 81/101/77
f 80/102/78 81/101/77 83/103/79
f 82/104/80 83/103/79 85/105/81
f 85/105/81 87/106/82 86/107/83
f 87/106/82 89/108/84 88/109/85
f 89/108/84 91/110/86 90/111/87
f 90/112/87 91/113/86 93/114/88
f 93/114/88 95/115/89 94/116/90
f 77/117/74 75/118/72 102/119/91
f 97/120/92 67/88/66 66/121/93
f 95/115/89 97/120/92 96/122/94
f 101/123/95 117/124/96 118/125/97
f 85/126/81 107/127/98 108/128/99
f 97/129/92 95/130/89 112/131/100
f 71/132/69 100/133/101 101/123/95
f 83/134/79 81/135/77 105/136/102
f 67/137/66 98/138/103 99/139/104
f 93/140/88 91/141/86 110/142/105
f 79/143/75 77/117/74 103/144/106
f 87/145/82 108/128/99 109/146/107
f 67/137/66 97/129/92 113/147/108
f 73/148/71 101/123/95 102/119/91
f 83/134/79 106/149/109 107/127/98
f 95/130/89 93/140/88 111/150/110
f 69/151/67 99/139/104 100/133/101
f 81/135/77 79/143/75 104/152/111
f 89/153/84 109/146/107 110/142/105
f 127/154/112 126/155/113 143/156/114
f 109/146/107 125/157/115 126/155/113
f 103/144/106 102/119/91 118/125/97
f 111/150/110 110/142/105 126/155/113
f 104/152/111 103/144/106 119/158/116
f 112/131/100 111/150/110 127/154/112
f 105/136/102 104/152/111 120/159/117
f 113/147/108 112/131/100 128/160/118
f 106/149/109 105/136/102 121/161/119
f 98/138/103 114/162/120 115/163/121
f 98/138/103 113/147/108 129/164/122
f 106/149/109 122/165/123 123/166/124
f 99/139/104 115/163/121 116/167/125
f 107/127/98 123/166/124 124/168/126
f 100/133/101 116/167/125 117/124/96
f 108/128/99 124/168/126 125/157/115
f 70/169/70 72/170/127 130/171/128
f 80/172/78 82/173/80 130/171/128
f 66/174/93 68/175/68 130/171/128
f 90/176/87 92/177/129 130/171/128
f 76/178/130 78/179/76 130/171/128
f 86/180/83 88/181/85 130/171/128
f 96/182/94 66/174/93 130/171/128
f 72/170/127 74/183/73 130/171/128
f 82/173/80 84/184/131 130/171/128
f 92/177/129 94/185/90 130/171/128
f 68/175/68 70/169/70 130/171/128
f 78/179/76 80/172/78 130/171/128
f 88/181/85 90/176/87 130/171/128
f 74/183/73 76/178/130 130/171/128
f 84/184/131 86/180/83 130/171/128
f 94/185/90 96/182/94 130/171/128
f 120/159/117 119/158/116 136/186/132
f 128/160/118 127/154/112 144/187/133
f 121/161/119 120/159/117 137/188/134
f 129/164/122 128/160/118 145/189/135
f 122/165/123 121/161/119 138/190/136
f 114/162/120 132/191/137 131/192/138
f 114/162/120 129/164/122 146/193/139
f 122/165/123 139/194/140 140/195/141
f 115/163/121 131/192/138 133/196/142
f 123/166/124 140/195/141 141/197/143
f 116/167/125 133/196/142 134/198/144
f 124/168/126 141/197/143 142/199/145
f 117/124/96 134/198/144 135/200/146
f 125/157/115 142/199/145 143/156/114
f 119/158/116 118/125/97 135/200/146
f 133/196/142 131/192/138 147/201/147
f 141/197/143 140/195/141 147/201/147
f 134/198/144 133/196/142 147/201/147
f 142/199/145 141/197/143 147/201/147
f 135/200/146 134/198/144 147/201/147
f 143/156/114 142/199/145 147/201/147
f 136/186/132 135/200/146 147/201/147
f 144/187/133 143/156/114 147/201/147
f 137/188/134 136/186/132 147/201/147
f 145/189/135 144/187/133 147/201/147
f 138/190/136 137/188/134 147/201/147
f 146/193/139 145/189/135 147/201/147
f 139/194/140 138/190/136 147/201/147
f 131/192/138 132/191/137 147/201/147
f 132/191/137 146/193/139 147/201/147
f 140/195/141 139/194/140 147/201/147
f 66/121/93 67/88/66 68/90/68
f 68/90/68 69/89/67 70/92/70
f 72/202/127 70/92/70 73/93/71
f 72/202/127 73/93/71 74/95/73
f 76/203/130 74/96/73 77/98/74
f 76/203/130 77/98/74 78/100/76
f 80/102/78 78/100/76 81/101/77
f 82/104/80 80/102/78 83/103/79
f 84/204/131 82/104/80 85/105/81
f 84/204/131 85/105/81 86/107/83
f 86/107/83 87/106/82 88/109/85
f 88/109/85 89/108/84 90/111/87
f 92/205/129 90/112/87 93/114/88
f 92/205/129 93/114/88 94/116/90
f 103/144/106 77/117/74 102/119/91
f 96/122/94 97/120/92 66/121/93
f 94/116/90 95/115/89 96/122/94
f 102/119/91 101/123/95 118/125/97
f 87/145/82 85/126/81 108/128/99
f 113/147/108 97/129/92 112/131/100
f 73/148/71 71/132/69 101/123/95
f 106/149/109 83/134/79 105/136/102
f 69/151/67 67/137/66 99/139/104
f 111/150/110 93/140/88 110/142/105
f 104/152/111 79/143/75 103/144/106
f 89/153/84 87/145/82 109/146/107
f 98/138/103 67/137/66 113/147/108
f 75/118/72 73/148/71 102/119/91
f 85/126/81 83/134/79 107/127/98
f 112/131/100 95/130/89 111/150/110
f 71/132/69 69/151/67 100/133/101
f 105/136/102 81/135/77 104/152/111
f 91/141/86 89/153/84 110/142/105
f 144/187/133 127/154/112 143/156/114
f 110/142/105 109/146/107 126/155/113
f 119/158/116 103/144/106 118/125/97
f 127/154/112 111/150/110 126/155/113
f 120/159/117 104/152/111 119/158/116
f 128/160/118 112/131/100 127/154/112
f 121/161/119 105/136/102 120/159/117
f 129/164/122 113/147/108 128/160/118
f 122/165/123 106/149/109 121/161/119
f 99/139/104 98/138/103 115/163/121
f 114/162/120 98/138/103 129/164/122
f 107/127/98 106/149/109 123/166/124
f 100/133/101 99/139/104 116/167/125
f 108/128/99 107/127/98 124/168/126
f 101/123/95 100/133/101 117/124/96
f 109/146/107 108/128/99 125/157/115
f 137/188/134 120/159/117 136/186/132
f 145/189/135 128/160/118 144/187/133
f 138/190/136 121/161/119 137/188/134
f 146/193/139 129/164/122 145/189/135
f 139/194/140 122/165/123 138/190/136
f 115/163/121 114/162/120 131/192/138
f 132/191/137 114/162/120 146/193/139
f 123/166/124 122/165/123 140/195/141
f 116/167/125 115/163/121 133/196/142
f 124/168/126 123/166/124 141/197/143
f 117/124/96 116/167/125 134/198/144
f 125/157/115 124/168/126 142/199/145
f 118/125/97 117/124/96 135/200/146
f 126/155/113 125/157/115 143/156/114
f 136/186/132 119/158/116 135/200/146
o 0Duck_Duck
v 0.525588 1.222155 -0.764829
v 0.525588 1.281705 -2.080552
v 0.759471 1.318548 -0.755155
v 0.759471 1.378098 -2.070878
v 0.856348 1.551262 -0.731800
v 0.856348 1.610812 -2.047523
v 0.759471 1.783976 -0.708445
v 0.759471 1.843526 -2.024168
v 0.525588 1.880369 -0.698771
v 0.525588 1.939919 -2.014494
v 0.291705 1.783975 -0.708445
v 0.291705 1.843526 -2.024168
v 0.194828 1.551262 -0.731800
v 0.194828 1.610812 -2.047523
v 0.291705 1.318548 -0.755155
v 0.291705 1.378098 -2.070878
v 0.705258 1.432040 -2.065464
v 0.525588 1.357990 -2.072896
v 0.779680 1.610812 -2.047523
v 0.705258 1.789584 -2.029582
v 0.525588 1.863634 -2.022150
v 0.345918 1.789584 -2.029582
v 0.271496 1.610812 -2.047523
v 0.345918 1.432040 -2.065464
v 0.705258 1.432040 -1.756853
v 0.525588 1.357990 -1.764284
v 0.779680 1.610812 -1.738912
v 0.705258 1.789584 -1.720970
v 0.525588 1.863634 -1.713539
v 0.345918 1.789584 -1.720970
v 0.271496 1.610812 -1.738912
v 0.345918 1.432040 -1.756853
v 0.884134 2.276607 0.306283
v 0.835588 3.176576 1.296685
v 0.868473 2.118330 1.089069
v 0.815984 2.524511 1.256263
v 0.386552 2.263416 2.736879
v 0.521431 2.308688 2.508644
v 1.060719 1.388088 1.236063
v 1.036038 1.775362 0.554170
v 0.890860 2.439104 -0.356993
v 0.807834 1.094888 1.612181
v 0.900935 0.924492 0.732893
v 0.942331 2.106005 0.436416
v 0.941202 1.996175 -0.790027
v 1.138982 1.509226 0.050596
v 0.989375 1.282430 -0.320554
v 0.936471 1.998625 0.900239
v 0.783318 1.923390 1.891495
v 0.792479 1.689431 1.808471
v 1.048967 1.937814 -0.239760
v 0.954899 2.184153 0.030481
v 0.983790 1.746160 1.333923
v 1.101546 1.289393 0.699183
v 0.657029 2.029340 -1.160272
v 0.827261 2.272318 1.219480
v 0.486859 0.896406 1.858734
v 0.669072 1.126712 -0.572582
v 0.642762 2.381512 0.213166
v 0.578557 0.676791 0.750300
v 0.818255 1.971304 1.637211
v 0.513527 3.565637 1.278927
v 0.632593 3.279819 0.602536
v 0.715050 2.360773 2.149103
v 0.632593 2.622854 0.513349
v 0.459836 3.191757 1.989165
v 0.825013 2.825331 1.250667
v 0.248294 2.238362 2.877805
v 0.285416 2.379964 2.783667
v 0.406520 2.115438 2.480932
v 0.288625 2.619960 2.495711
v 0.284971 2.146466 2.728579
v 0.449496 2.291437 2.594601
v 0.493805 1.657631 2.180502
v 0.524572 1.948891 2.169954
v 0.644444 2.610537 -0.616734
v 1.017016 1.959690 -0.405721
v 0.910738 2.037574 0.958630
v 0.992063 1.300828 1.353733
v 1.099735 1.442941 -0.059748
v 0.919022 2.159623 0.400197
v 1.048232 1.180851 0.712861
v 1.050745 1.888542 -0.012509
v 1.115090 1.586889 0.193021
v 1.060444 1.500514 1.039916
v 0.930571 2.260373 -0.085228
v 0.882022 2.232758 0.584333
v 0.887552 2.320208 0.058792
v 0.905073 2.399929 -0.712469
v 0.834012 0.857212 1.273415
v 0.789406 1.438550 1.807702
v 0.967807 1.124022 0.147301
v 0.972063 1.934025 0.802176
v 0.976789 1.529790 -0.642417
v 0.927772 1.729691 1.477110
v 0.804320 1.848639 1.770278
v 0.974518 2.014600 0.470430
v 1.088331 1.429818 0.656606
v 0.983502 2.065764 0.182125
v 1.011554 1.757426 1.104059
v 1.115465 1.659451 -0.148144
v 1.130636 1.411931 0.338644
v 0.941512 1.874738 1.194839
v 0.938383 2.077349 0.602396
v 0.948717 2.125864 0.285944
v 1.072362 1.246642 1.031486
v 1.036328 1.593111 1.333629
v 0.981457 2.166381 -0.190836
v 0.510522 0.593369 1.429458
v 0.618067 2.045711 2.179511
v 0.665926 1.438999 -0.976303
v 0.647997 2.541393 -1.061465
v 0.714674 2.394906 0.493181
v 0.646579 0.927602 0.014937
v 0.351268 3.561004 0.788732
v 0.331315 3.429940 1.770143
v 0.632593 2.953622 0.476093
v 0.453789 2.782870 2.222712
v 0.182336 2.169590 2.845479
v 0.182791 2.319945 2.880081
v 0.341859 2.446035 2.649574
v 0.342334 2.136236 2.576323
v 0.476648 1.337032 2.141706
v 0.525732 1.855484 2.104511
v 0.643617 2.453735 -0.098633
v 0.954977 2.240117 -0.348274
v 1.078124 1.622732 -0.296258
v 0.915394 2.126778 0.599864
v 0.891321 1.885887 1.374232
v 0.967651 1.547449 1.475518
v 1.008587 1.130465 1.108904
v 1.087791 1.326946 0.283380
v 0.924890 2.184914 0.220129
v 1.002546 2.065681 -0.048137
v 1.100135 1.703522 -0.026625
v 0.958193 2.024785 0.623479
v 0.971557 1.863067 1.066347
v 1.038599 1.609638 1.199411
v 1.076295 1.361018 0.936276
v 1.117741 1.459378 0.383693
v 0.965964 2.083467 0.303506
v 0.000000 2.040395 -1.283686
v -0.884134 2.276607 0.306284
v -0.000000 0.830145 1.945224
v 0.000000 1.074806 -0.656591
v 0.000000 2.650536 -0.702914
v -0.835588 3.176576 1.296686
v 0.000000 0.594224 0.756102
v -0.868473 2.118330 1.089070
v -0.117319 3.655849 1.298229
v 0.000000 3.314233 0.371153
v -0.117319 3.157342 2.300596
v 0.000000 2.666039 0.265921
v -0.815984 2.524511 1.256263
v -0.000000 2.230010 2.964589
v -0.386552 2.263416 2.736879
v -0.000000 2.106946 2.753889
v -0.000000 2.418277 2.827059
v -0.117319 2.683706 2.551857
v -0.000000 2.050484 2.508894
v -0.521431 2.308688 2.508644
v -0.000000 1.650167 2.336080
v -0.000000 1.960954 2.313011
v 0.000000 2.404650 0.183134
v -1.060719 1.388088 1.236063
v -1.036038 1.775362 0.554171
v -0.890860 2.439105 -0.356992
v -0.807834 1.094889 1.612182
v -0.900935 0.924492 0.732893
v -0.942332 2.106005 0.436416
v -0.941202 1.996175 -0.790027
v -1.138982 1.509227 0.050597
v -0.989375 1.282430 -0.320554
v -0.936471 1.998625 0.900240
v -0.783318 1.923390 1.891495
v -0.792479 1.689432 1.808471
v -1.048967 1.937814 -0.239760
v -0.954899 2.184153 0.030482
v -0.983790 1.746160 1.333923
v -1.101546 1.289393 0.699183
v 0.000000 2.588469 -1.177788
v -0.657029 2.029340 -1.160271
v 0.000000 1.408736 -1.087598
v -0.827261 2.272318 1.219480
v -0.486859 0.896406 1.858734
v -0.669072 1.126712 -0.572582
v -0.000000 2.006883 2.424585
v 0.000000 0.505421 1.481472
v -0.642762 2.381512 0.213167
v -0.578557 0.676791 0.750300
v 0.000000 2.473647 0.313946
v 0.000000 0.862128 -0.029185
v -0.818255 1.971304 1.637211
v -0.630846 3.447213 1.354343
v -0.117319 3.487019 1.934510
v -0.117319 3.644254 0.672388
v -0.632593 3.279819 0.602536
v -0.715050 2.360773 2.149104
v -0.632593 2.622854 0.513349
v -0.577155 3.073333 2.064580
v -0.117319 2.833883 2.469513
v 0.000000 2.996385 0.218796
v -0.825013 2.825331 1.250668
v -0.000000 2.146844 2.891765
v -0.248294 2.238362 2.877805
v -0.000000 2.329476 2.933686
v -0.285416 2.379964 2.783667
v -0.406520 2.115438 2.480932
v -0.405944 2.501536 2.571126
v -0.284971 2.146466 2.728580
v -0.000000 2.496762 2.699328
v -0.000000 2.083698 2.602740
v -0.449496 2.291437 2.594601
v -0.493805 1.657631 2.180502
v -0.000000 1.304241 2.272446
v -0.524572 1.948892 2.169954
v -0.000000 1.861625 2.264407
v -0.644444 2.610537 -0.616734
v 0.000000 2.467849 -0.148527
v -1.017016 1.959690 -0.405721
v -0.910738 2.037574 0.958631
v -0.992063 1.300829 1.353734
v -1.099735 1.442942 -0.059748
v -0.919022 2.159623 0.400197
v -1.048232 1.180851 0.712861
v -1.050745 1.888542 -0.012509
v -1.115091 1.586889 0.193021
v -1.060445 1.500514 1.039916
v -0.930571 2.260374 -0.085228
v -0.882021 2.232758 0.584333
v -0.887551 2.320208 0.058792
v -0.905073 2.399929 -0.712469
v -0.834012 0.857212 1.273415
v -0.789406 1.438550 1.807703
v -0.967807 1.124022 0.147302
v -0.972063 1.934025 0.802177
v -0.976789 1.529790 -0.642417
v -0.927772 1.729691 1.477110
v -0.804320 1.848639 1.770278
v -0.974518 2.014600 0.470431
v -1.088331 1.429818 0.656606
v -0.983502 2.065765 0.182126
v -1.011554 1.757426 1.104059
v -1.115464 1.659451 -0.148143
v -1.130636 1.411931 0.338644
v -0.941512 1.874739 1.194840
v -0.938383 2.077349 0.602396
v -0.948717 2.125864 0.285944
v -1.072362 1.246642 1.031486
v -1.036328 1.593111 1.333630
v -0.981457 2.166382 -0.190835
v -0.510522 0.593369 1.429458
v -0.618068 2.045712 2.179511
v -0.665926 1.438999 -0.976303
v -0.647997 2.541393 -1.061464
v -0.714674 2.394906 0.493182
v -0.646579 0.927602 0.014937
v -0.468587 3.442580 0.864148
v -0.448634 3.311516 1.845558
v -0.632593 2.953622 0.476093
v -0.571109 2.664447 2.298129
v -0.182337 2.169590 2.845479
v -0.182791 2.319945 2.880081
v -0.341859 2.446035 2.649575
v -0.342335 2.136236 2.576323
v -0.476648 1.337033 2.141706
v -0.525732 1.855484 2.104511
v -0.643616 2.453735 -0.098633
v -0.954976 2.240118 -0.348274
v -1.078124 1.622733 -0.296257
v -0.915394 2.126779 0.599865
v -0.891321 1.885887 1.374233
v -0.967651 1.547450 1.475519
v -1.008587 1.130465 1.108904
v -1.087791 1.326946 0.283381
v -0.924890 2.184915 0.220129
v -1.002546 2.065682 -0.048136
v -1.100135 1.703522 -0.026624
v -0.958193 2.024786 0.623480
v -0.971557 1.863067 1.066347
v -1.038599 1.609638 1.199411
v -1.076295 1.361018 0.936277
v -1.117740 1.459378 0.383693
v -0.965964 2.083467 0.303507
vt 0.010844 0.765177
vt 0.131831 0.765177
vt 0.131343 0.792518
vt 0.010357 0.792518
vt 0.130167 0.819830
vt 0.009180 0.819830
vt 0.128990 0.847142
vt 0.008003 0.847142
vt 0.128503 0.874482
vt 0.128990 0.901823
vt 0.008003 0.901823
vt 0.130167 0.929135
vt 0.009180 0.929135
vt 0.144200 0.953733
vt 0.158362 0.947868
vt 0.185854 0.975360
vt 0.131343 0.956447
vt 0.131831 0.983788
vt 0.010844 0.983788
vt 0.010357 0.956447
vt 0.171184 0.914063
vt 0.188859 0.909673
vt 0.193577 0.922973
vt 0.266388 0.903122
vt 0.266388 0.953733
vt 0.252227 0.947868
vt 0.144200 0.903122
vt 0.179988 0.867334
vt 0.185854 0.881495
vt 0.179988 0.989521
vt 0.224734 0.975360
vt 0.230600 0.989521
vt 0.252227 0.908987
vt 0.224734 0.881495
vt 0.158362 0.908987
vt 0.230600 0.867334
vt 0.186797 0.896994
vt 0.210400 0.906794
vt 0.214197 0.927714
vt 0.202065 0.885332
vt 0.198747 0.900984
vt 0.226354 0.895655
vt 0.241398 0.921480
vt 0.215821 0.917912
vt 0.238222 0.956980
vt 0.203238 0.956980
vt 0.205001 0.930006
vt 0.180033 0.892210
vt 0.178954 0.939533
vt 0.902039 0.045403
vt 0.997628 0.069971
vt 0.964462 0.181858
vt 0.874767 0.160430
vt 0.766621 0.144322
vt 0.747598 0.472438
vt 0.803754 0.520111
vt 0.730142 0.539502
vt 0.690741 0.485886
vt 0.659616 0.544962
vt 0.625497 0.496179
vt 0.613313 0.466366
vt 0.660903 0.465835
vt 0.701231 0.457109
vt 0.217512 0.114779
vt 0.133598 0.134167
vt 0.110421 0.051114
vt 0.200284 0.028418
vt 0.297471 0.014538
vt 0.308870 0.105884
vt 0.786634 0.026516
vt 0.676533 0.138989
vt 0.690438 0.020222
vt 0.566973 0.132472
vt 0.773275 0.961187
vt 0.764555 0.847355
vt 0.860263 0.847585
vt 0.876479 0.961612
vt 0.939812 0.845393
vt 0.328033 0.763100
vt 0.277566 0.674772
vt 0.495003 0.670685
vt 0.496772 0.749967
vt 0.682747 0.679552
vt 0.661947 0.759340
vt 0.615159 0.827506
vt 0.491903 0.827271
vt 0.369373 0.827512
vt 0.573340 0.017479
vt 0.429914 0.117283
vt 0.426679 0.013999
vt 0.483432 0.540995
vt 0.280264 0.521334
vt 0.385102 0.483783
vt 0.505453 0.498960
vt 0.435781 0.456173
vt 0.531041 0.473019
vt 0.031765 0.605981
vt 0.006689 0.476623
vt 0.108893 0.484216
vt 0.166505 0.578721
vt 0.157025 0.689657
vt 0.703021 0.743821
vt 0.705445 0.682013
vt 0.826330 0.677192
vt 0.822188 0.739375
vt 0.804116 0.813590
vt 0.718060 0.803674
vt 0.011968 0.314485
vt 0.140393 0.326319
vt 0.134399 0.419423
vt 0.004360 0.385943
vt 0.696974 0.623774
vt 0.679557 0.584476
vt 0.810572 0.584476
vt 0.817217 0.618901
vt 0.303683 0.595139
vt 0.484934 0.601338
vt 0.665800 0.602682
vt 0.282627 0.767960
vt 0.278854 0.793133
vt 0.239697 0.784694
vt 0.230818 0.767541
vt 0.240184 0.751158
vt 0.198629 0.767705
vt 0.212687 0.793379
vt 0.186579 0.809105
vt 0.169079 0.767784
vt 0.187676 0.726805
vt 0.213579 0.742661
vt 0.253334 0.849555
vt 0.267349 0.822393
vt 0.254910 0.687307
vt 0.268704 0.714644
vt 0.279652 0.743431
vt 0.102103 0.273331
vt 0.246463 0.669518
vt 0.132809 0.473042
vt 0.207993 0.544508
vt 0.244948 0.866520
vt 0.165478 0.817520
vt 0.224606 0.597087
vt 0.166460 0.717296
vt 0.081301 0.156500
vt 0.048711 0.176964
vt 0.015348 0.088869
vt 0.052888 0.072141
vt 0.263866 0.492424
vt 0.031038 0.181858
vt 0.687439 0.961620
vt 0.658595 0.833819
vt 0.707967 0.847266
vt 0.713580 0.960970
vt 0.449810 0.345066
vt 0.437848 0.387682
vt 0.406172 0.384414
vt 0.421427 0.332151
vt 0.461279 0.289689
vt 0.482926 0.309918
vt 0.506027 0.327158
vt 0.491616 0.359038
vt 0.464573 0.386849
vt 0.722859 0.374152
vt 0.744161 0.406321
vt 0.698341 0.425922
vt 0.678816 0.444103
vt 0.635585 0.436794
vt 0.603571 0.449251
vt 0.560234 0.439311
vt 0.500823 0.436704
vt 0.489256 0.414486
vt 0.563898 0.326496
vt 0.621369 0.310263
vt 0.662277 0.328792
vt 0.603133 0.390993
vt 0.711298 0.336674
vt 0.896037 0.409618
vt 0.989492 0.410644
vt 0.918207 0.477897
vt 0.838373 0.450072
vt 0.769641 0.443721
vt 0.816819 0.412982
vt 0.355309 0.297660
vt 0.331268 0.371059
vt 0.240412 0.351464
vt 0.274438 0.252136
vt 0.350399 0.171884
vt 0.411580 0.239127
vt 0.492279 0.145007
vt 0.518554 0.224052
vt 0.655791 0.149361
vt 0.642855 0.230282
vt 0.629414 0.282893
vt 0.539151 0.279096
vt 0.649108 0.455398
vt 0.813231 0.260248
vt 0.885260 0.199839
vt 0.967254 0.301335
vt 0.876052 0.331818
vt 0.802161 0.355761
vt 0.755235 0.302529
vt 0.700187 0.285248
vt 0.683805 0.305178
vt 0.729944 0.319552
vt 0.785356 0.160942
vt 0.739470 0.236341
vt 0.473425 0.445505
vt 0.542222 0.460082
vt 0.334831 0.480345
vt 0.268553 0.467762
vt 0.353027 0.459021
vt 0.339903 0.423978
vt 0.247901 0.422400
vt 0.410347 0.423014
vt 0.780414 0.413273
vt 0.769069 0.364750
vt 0.739296 0.438088
vt 0.441309 0.419897
vt 0.548394 0.301377
vt 0.961142 0.960127
vt 0.062750 0.737325
vt 0.207256 0.650841
vt 0.007516 0.874482
vt 0.013716 0.280775
vt 0.124262 0.490169
vt 0.145337 0.767230
vt 0.143041 0.451809
vt -0.002013 0.094338
vn 0.000000 -0.999000 -0.045200
vn 0.000000 -0.727900 -0.685700
vn 0.552100 -0.498200 -0.668600
vn 0.713300 -0.700100 -0.031700
vn 0.776500 0.052600 -0.627800
vn 0.999900 0.013300 0.000600
vn 0.545700 0.597100 -0.587900
vn 0.699900 0.713400 0.032300
vn 0.000000 0.820500 -0.571600
vn -0.545700 0.597100 -0.587900
vn -0.699900 0.713400 0.032300
vn -0.776500 0.052600 -0.627800
vn -0.999900 0.013300 0.000600
vn 0.593300 0.094700 -0.799300
vn 0.394200 0.487900 -0.778800
vn -0.552000 -0.498200 -0.668600
vn -0.713300 -0.700100 -0.031700
vn 0.542900 0.587000 -0.600500
vn 0.000000 0.807600 -0.589700
vn -0.394200 0.487900 -0.778800
vn 0.000000 -0.551500 -0.834200
vn 0.000000 0.636600 -0.771100
vn -0.593300 0.094700 -0.799300
vn -0.446500 -0.350600 -0.823200
vn 0.446500 -0.350600 -0.823200
vn 0.776900 0.044000 -0.628000
vn 0.000000 -0.742500 -0.669900
vn -0.776900 0.044000 -0.628000
vn 0.554500 -0.510400 -0.657200
vn -0.554500 -0.510400 -0.657200
vn -0.542900 0.587000 -0.600500
vn 0.000000 -0.050100 -0.998700
vn 0.000000 0.709500 -0.704700
vn 0.471100 0.637000 -0.610200
vn 0.502100 -0.029100 -0.864300
vn 0.446300 -0.500700 -0.741700
vn 0.694800 0.698200 0.172500
vn 0.178300 0.950700 0.253500
vn 0.227500 0.972400 0.052300
vn 0.757300 0.650000 0.062800
vn 0.656700 0.711100 -0.251100
vn 0.851400 0.519800 0.069100
vn 0.924700 0.368700 0.094200
vn 0.917100 0.390400 0.080100
vn 0.900100 0.422900 0.104700
vn 0.466000 -0.604600 0.645900
vn 0.506000 -0.300900 0.808300
vn 0.000000 -0.369800 0.929100
vn 0.000000 -0.700300 0.713900
vn 0.000000 -0.967300 0.253700
vn 0.425100 -0.871400 0.244600
vn 0.000000 -0.561200 -0.827700
vn 0.386400 -0.810500 -0.440200
vn 0.000000 -0.877800 -0.479000
vn 0.361100 -0.890100 -0.278100
vn 0.000000 0.968700 0.248300
vn 0.297000 0.953500 0.050200
vn 0.000000 0.997500 0.070000
vn 0.643800 0.496000 0.582600
vn 0.684200 0.455100 0.569800
vn 0.997600 -0.014900 0.068100
vn 0.948900 0.282100 0.141500
vn 0.718900 0.080900 -0.690400
vn 0.695300 0.485600 -0.529800
vn 0.358700 0.872100 -0.332800
vn 0.503300 0.856300 0.115300
vn 0.374200 0.816100 0.440400
vn 0.000000 -0.947700 -0.319100
vn 0.377000 -0.910400 -0.170200
vn 0.000000 -0.976200 -0.216800
vn 0.988800 0.136000 0.061300
vn 0.748600 -0.420300 0.512700
vn 0.939500 0.255000 0.228800
vn 0.965100 0.235900 0.113300
vn 0.922100 0.329500 0.202900
vn 0.924700 0.359100 0.126100
vn -0.131400 0.984500 0.116500
vn -0.117200 0.864800 0.488200
vn 0.000000 0.142300 -0.989800
vn -0.012000 0.576400 -0.817000
vn -0.216400 0.860900 -0.460400
vn -0.054100 0.530300 0.846000
vn -0.051500 0.599600 0.798600
vn 0.723800 0.091700 -0.683800
vn 0.000000 0.504500 -0.863400
vn 0.000000 -0.183400 -0.983000
vn 0.944900 0.108300 0.308800
vn 0.997500 0.064700 0.027200
vn 0.000000 -0.201500 0.979500
vn 0.000000 -0.830600 0.556800
vn 0.286400 -0.792500 0.538400
vn 0.544200 -0.194700 0.816000
vn 0.324300 0.489300 0.809600
vn 0.840900 -0.129200 0.525500
vn 0.440000 -0.831800 0.338200
vn 0.456700 -0.817500 0.350800
vn 0.851800 -0.038900 0.522400
vn 0.609700 0.620500 0.493100
vn 0.477800 0.606600 0.635400
vn 0.000000 -0.971300 0.238000
vn 0.000000 -0.973900 0.226700
vn 0.030300 0.759300 0.650000
vn 0.000000 0.806600 0.591100
vn 0.000000 0.539100 0.842200
vn 0.421900 0.619700 0.661800
vn -0.050700 0.539800 0.840200
vn 0.000000 -0.897300 0.441400
vn 0.453700 -0.751200 0.479400
vn 0.000000 -0.918000 0.396500
vn 0.791900 0.022400 0.610200
vn 0.528800 0.062000 0.846400
vn 0.577700 -0.182700 0.795500
vn 0.000000 -0.083800 0.996500
vn 0.000000 0.074700 0.997200
vn 0.410900 -0.521100 0.748000
vn 0.000000 0.991000 -0.133500
vn 0.968000 -0.103100 0.228900
vn 0.952800 0.144900 0.266800
vn 0.897200 0.016000 0.441300
vn 0.892100 -0.252800 0.374400
vn 0.889100 -0.424500 0.171100
vn 0.963000 -0.246800 0.108400
vn 0.996100 0.056900 0.067800
vn 0.991200 0.124500 0.043500
vn 0.977000 0.207100 0.050800
vn 0.962400 0.263700 0.064600
vn 0.953300 0.293800 0.070200
vn 0.944400 0.317100 0.086800
vn 0.924700 0.370500 0.087300
vn 0.945400 0.315400 0.082400
vn 0.932600 0.349600 0.089800
vn 0.941500 0.326600 0.082700
vn 0.902200 0.409300 0.135800
vn 0.952800 0.290600 0.087600
vn 0.985700 0.143500 0.088300
vn 0.976600 0.180400 0.116700
vn 0.975400 0.204900 0.081200
vn 0.969200 0.233900 0.076400
vn 0.970000 0.237100 0.053100
vn 0.860700 0.445600 -0.246300
vn 0.720100 0.682600 0.124700
vn 0.914900 0.392800 0.093200
vn 0.963700 0.265600 -0.027800
vn 0.791300 -0.387800 0.472600
vn 0.817800 -0.143700 0.557200
vn 0.766900 -0.609900 0.199400
vn 0.739600 -0.668800 -0.075600
vn 0.749700 -0.641400 -0.162800
vn 0.897600 -0.431500 -0.089900
vn 0.881300 -0.471900 -0.023600
vn 0.898500 0.428800 0.094300
vn 0.908400 0.407500 0.093800
vn 0.910800 0.401100 0.097400
vn 0.850600 -0.286300 -0.441000
vn 0.900200 0.056200 -0.431800
vn 0.967000 0.195700 -0.162900
vn 0.968800 -0.055300 -0.241300
vn 0.992300 -0.123300 0.010400
vn 0.934700 -0.310900 -0.172100
vn 0.995100 -0.082100 -0.054500
vn 0.990100 0.074700 -0.118600
vn 0.787400 -0.549500 -0.279200
vn 0.865300 0.460400 0.198400
vn 0.913500 0.389400 0.117600
vn 0.898300 -0.058000 0.435500
vn 0.927200 0.006700 0.374500
vn 0.841800 0.044600 0.537900
vn 0.893200 0.288900 0.344500
vn 0.941300 0.336900 0.018200
vn 0.966100 0.248400 -0.069600
vn 0.907200 0.407000 0.106200
vn 0.857000 0.437200 0.272600
vn 0.981400 -0.190100 0.026400
vn -0.502100 -0.029100 -0.864300
vn -0.471100 0.637000 -0.610200
vn -0.446300 -0.500700 -0.741700
vn -0.227500 0.972400 0.052300
vn -0.178300 0.950700 0.253500
vn -0.694800 0.698200 0.172500
vn -0.757300 0.650000 0.062800
vn -0.851400 0.519800 0.069100
vn -0.656700 0.711100 -0.251100
vn -0.917100 0.390400 0.080100
vn -0.924700 0.368700 0.094200
vn -0.900100 0.422900 0.104700
vn -0.506000 -0.300900 0.808300
vn -0.466000 -0.604600 0.645900
vn -0.425100 -0.871400 0.244600
vn -0.386400 -0.810500 -0.440200
vn -0.361100 -0.890100 -0.278100
vn -0.297000 0.953500 0.050200
vn -0.999800 -0.018300 0.000000
vn -0.771900 0.346000 0.533300
vn -0.729000 0.446400 0.518800
vn -0.957500 0.281700 0.062500
vn -0.656100 0.552200 -0.514400
vn -0.718900 0.080900 -0.690400
vn -0.603500 0.786500 0.131100
vn -0.465200 0.847300 -0.256200
vn -0.499100 0.754100 0.426900
vn -0.377000 -0.910400 -0.170200
vn -0.988800 0.136000 0.061300
vn -0.939500 0.255000 0.228800
vn -0.748600 -0.420300 0.512700
vn -0.965100 0.235900 0.113300
vn -0.924700 0.359100 0.126100
vn -0.922100 0.329500 0.202900
vn -0.723800 0.091700 -0.683800
vn -0.958000 0.022500 0.285700
vn -0.999100 0.042900 -0.001600
vn -0.544200 -0.194700 0.816000
vn -0.286400 -0.792500 0.538400
vn -0.324300 0.489300 0.809600
vn -0.840900 -0.129200 0.525500
vn -0.825000 -0.133700 0.549000
vn -0.456700 -0.817500 0.350800
vn -0.477800 0.606600 0.635400
vn -0.515000 0.537700 0.667500
vn -0.440000 -0.831800 0.338200
vn -0.574400 0.428400 0.697500
vn -0.453700 -0.751200 0.479400
vn -0.804900 -0.103500 0.584300
vn -0.577700 -0.182700 0.795500
vn -0.528800 0.062000 0.846400
vn -0.410900 -0.521100 0.748000
vn -0.968000 -0.103100 0.228900
vn -0.892100 -0.252800 0.374400
vn -0.897200 0.016000 0.441300
vn -0.963000 -0.246800 0.108400
vn -0.889100 -0.424500 0.171100
vn -0.991200 0.124500 0.043500
vn -0.996100 0.056900 0.067800
vn -0.952800 0.144900 0.266800
vn -0.977000 0.207100 0.050800
vn -0.944400 0.317100 0.086800
vn -0.953300 0.293800 0.070200
vn -0.962400 0.263700 0.064600
vn -0.945400 0.315400 0.082400
vn -0.924700 0.370500 0.087300
vn -0.941500 0.326600 0.082700
vn -0.932600 0.349600 0.089800
vn -0.952800 0.290600 0.087600
vn -0.902200 0.409300 0.135800
vn -0.985700 0.143500 0.088300
vn -0.975400 0.204900 0.081200
vn -0.976600 0.180400 0.116700
vn -0.969200 0.233900 0.076400
vn -0.970000 0.237100 0.053100
vn -0.860700 0.445600 -0.246300
vn -0.720100 0.682600 0.124700
vn -0.914900 0.392800 0.093200
vn -0.963700 0.265600 -0.027800
vn -0.791300 -0.387800 0.472600
vn -0.766900 -0.609900 0.199400
vn -0.817800 -0.143700 0.557200
vn -0.739600 -0.668800 -0.075600
vn -0.749700 -0.641400 -0.162800
vn -0.881300 -0.471900 -0.023600
vn -0.897600 -0.431500 -0.089900
vn -0.898400 0.428800 0.094300
vn -0.908400 0.407500 0.093800
vn -0.910800 0.401100 0.097400
vn -0.850600 -0.286300 -0.441000
vn -0.900200 0.056200 -0.431800
vn -0.967000 0.195700 -0.162900
vn -0.968800 -0.055300 -0.241300
vn -0.934700 -0.310900 -0.172100
vn -0.992300 -0.123300 0.010400
vn -0.995100 -0.082100 -0.054600
vn -0.990100 0.074700 -0.118600
vn -0.787400 -0.549500 -0.279200
vn -0.865300 0.460400 0.198400
vn -0.913500 0.389400 0.117600
vn -0.898300 -0.058000 0.435500
vn -0.927200 0.006700 0.374500
vn -0.841800 0.044600 0.537900
vn -0.893200 0.288900 0.344500
vn -0.941300 0.336900 0.018200
vn -0.966100 0.248400 -0.069600
vn -0.907200 0.407000 0.106200
vn -0.857000 0.437200 0.272600
vn -0.981400 -0.190100 0.026400
vn 0.000000 0.999000 0.045200
vn 0.000000 -0.762700 0.646700
s 1
f 148/206/148 149/207/149 151/208/150
f 150/209/151 151/208/150 153/210/152
f 152/211/153 153/210/152 155/212/154
f 154/213/155 155/212/154 157/214/156
f 157/214/156 159/215/157 158/216/158
f 159/215/157 161/217/159 160/218/160
f 161/219/159 170/220/161 171/221/162
f 163/222/163 149/223/149 148/224/148
f 161/217/159 163/222/163 162/225/164
f 171/226/162 179/227/165 173/228/166
f 153/229/152 151/230/150 164/231/167
f 159/232/157 157/233/156 168/234/168
f 163/235/163 171/221/162 165/236/169
f 151/230/150 149/237/149 165/236/169
f 153/229/152 166/238/170 167/239/171
f 161/219/159 159/232/157 169/240/172
f 155/241/154 167/239/171 168/234/168
f 178/242/173 176/243/174 174/244/175
f 169/245/172 177/246/176 178/242/173
f 168/247/168 167/248/171 175/249/177
f 166/250/170 164/251/167 172/252/178
f 170/253/161 178/242/173 179/227/165
f 168/247/168 176/243/174 177/246/176
f 167/248/171 166/250/170 174/244/175
f 164/251/167 165/254/169 173/228/166
f 289/255/179 328/256/180 259/257/181
f 289/255/179 202/258/182 258/259/183
f 235/260/184 272/261/185 206/262/186
f 180/263/187 206/262/186 260/264/188
f 234/265/189 275/266/190 228/267/191
f 180/263/187 228/267/191 280/268/192
f 204/269/193 270/270/194 362/271/195
f 291/272/196 335/273/197 256/274/198
f 330/275/199 258/259/183 205/276/200
f 292/277/201 205/276/200 261/278/202
f 366/279/203 272/280/185 223/281/204
f 293/282/205 223/281/204 259/283/181
f 213/284/206 265/285/207 214/286/208
f 181/287/209 214/286/208 264/288/210
f 210/289/211 262/290/212 209/291/213
f 209/291/213 263/292/214 213/284/206
f 339/293/215 261/278/202 207/294/216
f 295/295/217 207/294/216 256/274/198
f 234/265/189 260/264/188 203/296/218
f 203/296/218 257/297/219 208/298/220
f 182/299/221 208/298/220 276/300/222
f 182/299/221 225/301/223 275/266/190
f 297/302/224 342/303/225 263/304/214
f 297/302/224 209/305/213 262/306/212
f 210/307/211 264/308/210 349/309/226
f 298/310/227 343/311/228 262/312/212
f 348/313/229 265/314/207 213/315/206
f 299/316/230 213/315/206 263/304/214
f 212/317/231 260/318/188 338/319/232
f 300/320/233 349/309/226 264/308/210
f 211/321/234 257/297/219 203/296/218
f 183/322/235 203/296/218 260/264/188
f 212/323/231 264/288/210 214/286/208
f 183/322/235 214/286/208 265/285/207
f 302/324/236 351/325/237 266/326/238
f 302/324/236 215/327/239 267/328/240
f 184/329/241 219/330/242 269/331/243
f 184/329/241 220/332/244 268/333/245
f 216/334/246 267/328/240 215/327/239
f 215/327/239 266/326/238 219/330/242
f 359/335/247 269/331/243 219/330/242
f 304/336/248 219/330/242 266/326/238
f 216/334/246 268/333/245 358/337/249
f 305/338/250 353/339/251 267/328/240
f 218/340/252 265/314/207 348/313/229
f 306/341/253 358/337/249 268/333/245
f 334/342/254 257/297/219 217/343/255
f 307/344/256 217/345/255 269/331/243
f 185/346/257 217/343/255 257/297/219
f 185/346/257 211/321/234 265/285/207
f 218/347/252 268/333/245 220/332/244
f 220/332/244 269/331/243 217/345/255
f 221/348/258 271/349/259 364/350/260
f 309/351/261 362/271/195 270/270/194
f 222/352/262 257/297/219 334/342/254
f 364/350/260 271/349/259 222/353/262
f 338/354/232 260/355/188 206/356/186
f 311/357/263 206/356/186 272/280/185
f 186/358/264 254/359/265 277/360/266
f 226/361/267 278/362/268 253/363/269
f 186/358/264 253/363/269 286/364/270
f 232/365/271 285/366/272 254/359/265
f 230/367/273 281/368/274 246/369/275
f 246/369/275 288/370/276 244/371/277
f 244/371/277 283/372/278 240/373/279
f 240/373/279 284/374/280 247/375/281
f 247/375/281 285/366/272 232/365/271
f 232/365/271 286/364/270 245/376/282
f 245/376/282 287/377/283 231/378/284
f 187/379/285 231/378/284 282/380/286
f 236/381/287 259/382/181 223/383/204
f 188/384/288 223/383/204 272/261/185
f 235/260/184 280/268/192 233/385/289
f 188/384/288 233/385/289 273/386/290
f 189/387/291 238/388/292 270/389/194
f 204/390/193 256/391/198 237/392/293
f 189/387/291 237/392/293 278/362/268
f 226/361/267 277/360/266 238/388/292
f 237/392/293 256/391/198 207/393/216
f 190/394/294 207/393/216 261/395/202
f 239/396/295 279/397/296 229/398/297
f 190/394/294 229/398/297 278/362/268
f 252/370/298 280/268/192 228/267/191
f 191/399/299 228/267/191 275/266/190
f 251/266/300 283/372/278 244/371/277
f 191/399/299 244/371/277 288/370/276
f 241/400/301 258/401/183 202/402/182
f 202/402/182 259/382/181 236/381/287
f 192/403/302 236/381/287 273/386/290
f 192/403/302 224/404/303 274/405/304
f 249/377/305 279/397/296 227/406/306
f 193/407/307 227/406/306 274/405/304
f 248/408/308 282/380/286 231/378/284
f 193/407/307 231/378/284 287/377/283
f 239/396/295 261/395/202 205/409/200
f 194/410/309 205/409/200 258/401/183
f 241/400/301 274/405/304 227/406/306
f 194/410/309 227/406/306 279/397/296
f 251/266/300 275/266/190 225/301/223
f 225/301/223 276/300/222 250/411/310
f 195/412/311 250/411/310 284/374/280
f 195/412/311 240/373/279 283/372/278
f 196/413/312 208/298/220 257/297/219
f 196/413/312 222/352/262 271/414/259
f 243/415/313 276/300/222 208/298/220
f 197/416/314 243/415/313 271/414/259
f 221/417/258 270/389/194 238/388/292
f 197/416/314 238/388/292 277/360/266
f 242/418/315 276/300/222 243/415/313
f 248/408/308 274/405/304 224/404/303
f 224/404/303 273/386/290 255/419/316
f 198/420/317 255/419/316 281/368/274
f 198/420/317 230/367/273 282/380/286
f 255/419/316 273/386/290 233/385/289
f 199/421/318 233/385/289 280/268/192
f 252/370/298 288/370/276 246/369/275
f 199/421/318 246/369/275 281/368/274
f 250/411/310 276/300/222 242/418/315
f 242/418/315 277/360/266 254/359/265
f 200/422/319 254/359/265 285/366/272
f 200/422/319 247/375/281 284/374/280
f 253/363/269 278/362/268 229/398/297
f 201/423/320 229/398/297 279/397/296
f 249/377/305 287/377/283 245/376/282
f 201/423/320 245/376/282 286/364/270
f 289/255/179 329/258/321 402/257/322
f 289/255/179 330/275/199 401/259/323
f 336/262/324 415/261/325 378/260/326
f 290/263/327 377/265/328 403/264/329
f 371/267/330 418/266/331 377/265/328
f 290/263/327 378/260/326 423/268/332
f 362/271/195 413/270/333 332/269/334
f 291/272/196 332/269/334 399/274/335
f 333/276/336 401/259/323 330/275/199
f 292/277/201 339/293/215 404/278/337
f 365/281/338 415/280/325 366/279/203
f 293/282/205 328/424/180 402/283/322
f 350/286/339 408/285/340 347/284/341
f 294/287/342 344/289/343 407/288/344
f 341/291/345 405/290/346 344/289/343
f 347/284/341 406/292/347 341/291/345
f 337/294/348 404/278/337 339/293/215
f 295/295/217 335/273/197 399/274/335
f 331/296/349 403/264/329 377/265/328
f 340/298/350 400/297/351 331/296/349
f 296/299/352 368/301/353 419/300/354
f 296/299/352 377/265/328 418/266/331
f 297/302/224 341/305/345 406/304/347
f 297/302/224 343/425/228 405/306/346
f 349/309/226 407/308/344 344/307/343
f 298/310/227 344/307/343 405/312/346
f 347/315/341 408/314/340 348/313/229
f 299/316/230 342/303/225 406/304/347
f 338/319/232 403/318/329 346/317/355
f 300/320/233 346/317/355 407/308/344
f 331/296/349 400/297/351 345/321/356
f 301/322/357 346/323/355 403/264/329
f 350/286/339 407/288/344 346/323/355
f 301/322/357 345/321/356 408/285/340
f 302/324/236 352/327/358 409/326/359
f 302/324/236 353/339/251 410/328/360
f 303/329/361 360/332/362 412/331/363
f 303/329/361 354/334/364 411/333/365
f 352/327/358 410/328/360 354/334/364
f 357/330/366 409/326/359 352/327/358
f 357/330/366 412/331/363 359/335/247
f 304/336/248 351/325/237 409/326/359
f 358/337/249 411/333/365 354/334/364
f 305/338/250 354/334/364 410/328/360
f 348/313/229 408/314/340 356/340/367
f 306/341/253 356/347/367 411/333/365
f 355/343/368 400/297/351 334/342/254
f 307/344/256 359/335/247 412/331/363
f 308/346/369 345/321/356 400/297/351
f 308/346/369 356/426/367 408/285/340
f 360/332/362 411/333/365 356/347/367
f 355/345/368 412/331/363 360/332/362
f 364/350/260 414/349/370 361/348/371
f 309/351/261 361/348/371 413/270/333
f 334/342/254 400/297/351 363/352/372
f 363/353/372 414/349/370 364/350/260
f 336/356/324 403/355/329 338/354/232
f 311/357/263 366/279/203 415/280/325
f 312/358/373 369/361/374 420/360/375
f 396/363/376 421/362/377 369/361/374
f 312/358/373 375/365/378 429/364/379
f 397/359/380 428/366/381 375/365/378
f 389/369/382 424/368/383 373/367/384
f 387/371/385 431/370/386 389/369/382
f 383/373/387 426/372/388 387/371/385
f 390/375/389 427/374/390 383/373/387
f 375/365/378 428/366/381 390/375/389
f 388/376/391 429/364/379 375/365/378
f 374/378/392 430/377/393 388/376/391
f 313/379/394 373/367/384 425/380/395
f 365/383/338 402/382/322 379/381/396
f 314/384/397 378/260/326 415/261/325
f 376/385/398 423/268/332 378/260/326
f 314/384/397 379/381/396 416/386/399
f 315/387/400 332/390/334 413/389/333
f 380/392/401 399/391/335 332/390/334
f 315/387/400 369/361/374 421/362/377
f 381/388/402 420/360/375 369/361/374
f 337/393/348 399/391/335 380/392/401
f 316/394/403 382/396/404 404/395/337
f 372/398/405 422/397/406 382/396/404
f 316/394/403 380/392/401 421/362/377
f 371/267/330 423/268/332 395/370/407
f 317/399/408 394/266/409 418/266/331
f 387/371/385 426/372/388 394/266/409
f 317/399/408 395/370/407 431/370/386
f 329/402/321 401/401/323 384/400/410
f 379/381/396 402/382/322 329/402/321
f 318/403/411 367/404/412 416/386/399
f 318/403/411 384/400/410 417/405/413
f 370/406/414 422/397/406 392/377/415
f 319/407/416 391/408/417 417/405/413
f 374/378/392 425/380/395 391/408/417
f 319/407/416 392/377/415 430/377/393
f 333/409/336 404/395/337 382/396/404
f 320/410/418 384/400/410 401/401/323
f 370/406/414 417/405/413 384/400/410
f 320/410/418 382/396/404 422/397/406
f 368/301/353 418/266/331 394/266/409
f 393/411/419 419/300/354 368/301/353
f 321/412/420 383/373/387 427/374/390
f 321/412/420 394/266/409 426/372/388
f 322/413/421 363/352/372 400/297/351
f 322/413/421 386/415/422 414/414/370
f 340/298/350 419/300/354 386/415/422
f 323/416/423 361/417/371 414/414/370
f 381/388/402 413/389/333 361/417/371
f 323/416/423 385/418/424 420/360/375
f 386/415/422 419/300/354 385/418/424
f 367/404/412 417/405/413 391/408/417
f 398/419/425 416/386/399 367/404/412
f 324/420/426 373/367/384 424/368/383
f 324/420/426 391/408/417 425/380/395
f 376/385/398 416/386/399 398/419/425
f 325/421/427 395/370/407 423/268/332
f 389/369/382 431/370/386 395/370/407
f 325/421/427 398/419/425 424/368/383
f 385/418/424 419/300/354 393/411/419
f 397/359/380 420/360/375 385/418/424
f 326/422/428 390/375/389 428/366/381
f 326/422/428 393/411/419 427/374/390
f 372/398/405 421/362/377 396/363/376
f 327/423/429 392/377/415 422/397/406
f 388/376/391 430/377/393 392/377/415
f 327/423/429 396/363/376 429/364/379
f 150/209/151 148/206/148 151/208/150
f 152/211/153 150/209/151 153/210/152
f 154/213/155 152/211/153 155/212/154
f 156/427/430 154/213/155 157/214/156
f 156/427/430 157/214/156 158/216/158
f 158/216/158 159/215/157 160/218/160
f 163/235/163 161/219/159 171/221/162
f 162/225/164 163/222/163 148/224/148
f 160/218/160 161/217/159 162/225/164
f 165/254/169 171/226/162 173/228/166
f 166/238/170 153/229/152 164/231/167
f 169/240/172 159/232/157 168/234/168
f 149/237/149 163/235/163 165/236/169
f 164/231/167 151/230/150 165/236/169
f 155/241/154 153/229/152 167/239/171
f 170/220/161 161/219/159 169/240/172
f 157/233/156 155/241/154 168/234/168
f 174/244/175 172/252/178 173/228/166
f 173/228/166 179/227/165 178/242/173
f 178/242/173 177/246/176 176/243/174
f 176/243/174 175/249/177 174/244/175
f 174/244/175 173/228/166 178/242/173
f 170/253/161 169/245/172 178/242/173
f 176/243/174 168/247/168 175/249/177
f 174/244/175 166/250/170 172/252/178
f 171/226/162 170/253/161 179/227/165
f 169/245/172 168/247/168 177/246/176
f 175/249/177 167/248/171 174/244/175
f 172/252/178 164/251/167 173/228/166
f 202/258/182 289/255/179 259/257/181
f 330/275/199 289/255/179 258/259/183
f 180/263/187 235/260/184 206/262/186
f 234/265/189 180/263/187 260/264/188
f 180/263/187 234/265/189 228/267/191
f 235/260/184 180/263/187 280/268/192
f 291/272/196 204/269/193 362/271/195
f 204/269/193 291/272/196 256/274/198
f 292/277/201 330/275/199 205/276/200
f 339/293/215 292/277/201 261/278/202
f 293/282/205 366/279/203 223/281/204
f 328/424/180 293/282/205 259/283/181
f 181/287/209 213/284/206 214/286/208
f 210/289/211 181/287/209 264/288/210
f 181/287/209 210/289/211 209/291/213
f 181/287/209 209/291/213 213/284/206
f 295/295/217 339/293/215 207/294/216
f 335/273/197 295/295/217 256/274/198
f 182/299/221 234/265/189 203/296/218
f 182/299/221 203/296/218 208/298/220
f 225/301/223 182/299/221 276/300/222
f 234/265/189 182/299/221 275/266/190
f 209/305/213 297/302/224 263/304/214
f 343/425/228 297/302/224 262/306/212
f 298/310/227 210/307/211 349/309/226
f 210/307/211 298/310/227 262/312/212
f 299/316/230 348/313/229 213/315/206
f 342/303/225 299/316/230 263/304/214
f 300/320/233 212/317/231 338/319/232
f 212/317/231 300/320/233 264/308/210
f 183/322/235 211/321/234 203/296/218
f 212/323/231 183/322/235 260/264/188
f 183/322/235 212/323/231 214/286/208
f 211/321/234 183/322/235 265/285/207
f 215/327/239 302/324/236 266/326/238
f 353/339/251 302/324/236 267/328/240
f 220/332/244 184/329/241 269/331/243
f 216/334/246 184/329/241 268/333/245
f 184/329/241 216/334/246 215/327/239
f 184/329/241 215/327/239 219/330/242
f 304/336/248 359/335/247 219/330/242
f 351/325/237 304/336/248 266/326/238
f 305/338/250 216/334/246 358/337/249
f 216/334/246 305/338/250 267/328/240
f 306/428/253 218/340/252 348/313/229
f 218/347/252 306/341/253 268/333/245
f 307/429/256 334/342/254 217/343/255
f 359/335/247 307/344/256 269/331/243
f 211/321/234 185/346/257 257/297/219
f 218/426/252 185/346/257 265/285/207
f 185/430/257 218/347/252 220/332/244
f 185/430/257 220/332/244 217/345/255
f 309/351/261 221/348/258 364/350/260
f 221/348/258 309/351/261 270/270/194
f 310/431/431 222/352/262 334/342/254
f 310/432/431 364/350/260 222/353/262
f 311/357/263 338/354/232 206/356/186
f 366/279/203 311/357/263 272/280/185
f 226/361/267 186/358/264 277/360/266
f 186/358/264 226/361/267 253/363/269
f 232/365/271 186/358/264 286/364/270
f 186/358/264 232/365/271 254/359/265
f 187/379/285 230/367/273 246/369/275
f 187/379/285 246/369/275 244/371/277
f 187/379/285 244/371/277 240/373/279
f 187/379/285 240/373/279 247/375/281
f 187/379/285 247/375/281 232/365/271
f 187/379/285 232/365/271 245/376/282
f 187/379/285 245/376/282 231/378/284
f 230/367/273 187/379/285 282/380/286
f 188/384/288 236/381/287 223/383/204
f 235/260/184 188/384/288 272/261/185
f 188/384/288 235/260/184 233/385/289
f 236/381/287 188/384/288 273/386/290
f 204/390/193 189/387/291 270/389/194
f 189/387/291 204/390/193 237/392/293
f 226/361/267 189/387/291 278/362/268
f 189/387/291 226/361/267 238/388/292
f 190/394/294 237/392/293 207/393/216
f 239/396/295 190/394/294 261/395/202
f 190/394/294 239/396/295 229/398/297
f 237/392/293 190/394/294 278/362/268
f 191/399/299 252/370/298 228/267/191
f 251/266/300 191/399/299 275/266/190
f 191/399/299 251/266/300 244/371/277
f 252/370/298 191/399/299 288/370/276
f 192/403/302 241/400/301 202/402/182
f 192/403/302 202/402/182 236/381/287
f 224/404/303 192/403/302 273/386/290
f 241/400/301 192/403/302 274/405/304
f 193/407/307 249/377/305 227/406/306
f 248/408/308 193/407/307 274/405/304
f 193/407/307 248/408/308 231/378/284
f 249/377/305 193/407/307 287/377/283
f 194/410/309 239/396/295 205/409/200
f 241/400/301 194/410/309 258/401/183
f 194/410/309 241/400/301 227/406/306
f 239/396/295 194/410/309 279/397/296
f 195/412/311 251/266/300 225/301/223
f 195/412/311 225/301/223 250/411/310
f 240/373/279 195/412/311 284/374/280
f 251/266/300 195/412/311 283/372/278
f 222/352/262 196/413/312 257/297/219
f 243/415/313 196/413/312 271/414/259
f 196/413/312 243/415/313 208/298/220
f 221/417/258 197/416/314 271/414/259
f 197/416/314 221/417/258 238/388/292
f 242/418/315 197/416/314 277/360/266
f 197/416/314 242/418/315 243/415/313
f 198/420/317 248/408/308 224/404/303
f 198/420/317 224/404/303 255/419/316
f 230/367/273 198/420/317 281/368/274
f 248/408/308 198/420/317 282/380/286
f 199/421/318 255/419/316 233/385/289
f 252/370/298 199/421/318 280/268/192
f 199/421/318 252/370/298 246/369/275
f 255/419/316 199/421/318 281/368/274
f 200/422/319 250/411/310 242/418/315
f 200/422/319 242/418/315 254/359/265
f 247/375/281 200/422/319 285/366/272
f 250/411/310 200/422/319 284/374/280
f 201/423/320 253/363/269 229/398/297
f 249/377/305 201/423/320 279/397/296
f 201/423/320 249/377/305 245/376/282
f 253/363/269 201/423/320 286/364/270
f 328/256/180 289/255/179 402/257/322
f 329/258/321 289/255/179 401/259/323
f 290/263/327 336/262/324 378/260/326
f 336/262/324 290/263/327 403/264/329
f 290/263/327 371/267/330 377/265/328
f 371/267/330 290/263/327 423/268/332
f 291/272/196 362/271/195 332/269/334
f 335/273/197 291/272/196 399/274/335
f 292/277/201 333/276/336 330/275/199
f 333/276/336 292/277/201 404/278/337
f 293/282/205 365/281/338 366/279/203
f 365/281/338 293/282/205 402/283/322
f 294/287/342 350/286/339 347/284/341
f 350/286/339 294/287/342 407/288/344
f 294/287/342 341/291/345 344/289/343
f 294/287/342 347/284/341 341/291/345
f 295/295/217 337/294/348 339/293/215
f 337/294/348 295/295/217 399/274/335
f 296/299/352 331/296/349 377/265/328
f 296/299/352 340/298/350 331/296/349
f 340/298/350 296/299/352 419/300/354
f 368/301/353 296/299/352 418/266/331
f 342/303/225 297/302/224 406/304/347
f 341/305/345 297/302/224 405/306/346
f 298/310/227 349/309/226 344/307/343
f 343/311/228 298/310/227 405/312/346
f 299/316/230 347/315/341 348/313/229
f 347/315/341 299/316/230 406/304/347
f 300/320/233 338/319/232 346/317/355
f 349/309/226 300/320/233 407/308/344
f 301/322/357 331/296/349 345/321/356
f 331/296/349 301/322/357 403/264/329
f 301/322/357 350/286/339 346/323/355
f 350/286/339 301/322/357 408/285/340
f 351/325/237 302/324/236 409/326/359
f 352/327/358 302/324/236 410/328/360
f 357/330/366 303/329/361 412/331/363
f 360/332/362 303/329/361 411/333/365
f 303/329/361 352/327/358 354/334/364
f 303/329/361 357/330/366 352/327/358
f 304/336/248 357/330/366 359/335/247
f 357/330/366 304/336/248 409/326/359
f 305/338/250 358/337/249 354/334/364
f 353/339/251 305/338/250 410/328/360
f 306/428/253 348/313/229 356/340/367
f 358/337/249 306/341/253 411/333/365
f 307/429/256 355/343/368 334/342/254
f 355/345/368 307/344/256 412/331/363
f 355/343/368 308/346/369 400/297/351
f 345/321/356 308/346/369 408/285/340
f 308/430/369 360/332/362 356/347/367
f 308/430/369 355/345/368 360/332/362
f 309/351/261 364/350/260 361/348/371
f 362/271/195 309/351/261 413/270/333
f 310/431/431 334/342/254 363/352/372
f 310/432/431 363/353/372 364/350/260
f 311/357/263 336/356/324 338/354/232
f 336/356/324 311/357/263 415/280/325
f 397/359/380 312/358/373 420/360/375
f 312/358/373 396/363/376 369/361/374
f 396/363/376 312/358/373 429/364/379
f 312/358/373 397/359/380 375/365/378
f 313/379/394 389/369/382 373/367/384
f 313/379/394 387/371/385 389/369/382
f 313/379/394 383/373/387 387/371/385
f 313/379/394 390/375/389 383/373/387
f 313/379/394 375/365/378 390/375/389
f 313/379/394 388/376/391 375/365/378
f 313/379/394 374/378/392 388/376/391
f 374/378/392 313/379/394 425/380/395
f 314/384/397 365/383/338 379/381/396
f 365/383/338 314/384/397 415/261/325
f 314/384/397 376/385/398 378/260/326
f 376/385/398 314/384/397 416/386/399
f 381/388/402 315/387/400 413/389/333
f 315/387/400 380/392/401 332/390/334
f 380/392/401 315/387/400 421/362/377
f 315/387/400 381/388/402 369/361/374
f 316/394/403 337/393/348 380/392/401
f 337/393/348 316/394/403 404/395/337
f 316/394/403 372/398/405 382/396/404
f 372/398/405 316/394/403 421/362/377
f 317/399/408 371/267/330 395/370/407
f 371/267/330 317/399/408 418/266/331
f 317/399/408 387/371/385 394/266/409
f 387/371/385 317/399/408 431/370/386
f 318/403/411 329/402/321 384/400/410
f 318/403/411 379/381/396 329/402/321
f 379/381/396 318/403/411 416/386/399
f 367/404/412 318/403/411 417/405/413
f 319/407/416 370/406/414 392/377/415
f 370/406/414 319/407/416 417/405/413
f 319/407/416 374/378/392 391/408/417
f 374/378/392 319/407/416 430/377/393
f 320/410/418 333/409/336 382/396/404
f 333/409/336 320/410/418 401/401/323
f 320/410/418 370/406/414 384/400/410
f 370/406/414 320/410/418 422/397/406
f 321/412/420 368/301/353 394/266/409
f 321/412/420 393/411/419 368/301/353
f 393/411/419 321/412/420 427/374/390
f 383/373/387 321/412/420 426/372/388
f 340/298/350 322/413/421 400/297/351
f 363/352/372 322/413/421 414/414/370
f 322/413/421 340/298/350 386/415/422
f 386/415/422 323/416/423 414/414/370
f 323/416/423 381/388/402 361/417/371
f 381/388/402 323/416/423 420/360/375
f 323/416/423 386/415/422 385/418/424
f 324/420/426 367/404/412 391/408/417
f 324/420/426 398/419/425 367/404/412
f 398/419/425 324/420/426 424/368/383
f 373/367/384 324/420/426 425/380/395
f 325/421/427 376/385/398 398/419/425
f 376/385/398 325/421/427 423/268/332
f 325/421/427 389/369/382 395/370/407
f 389/369/382 325/421/427 424/368/383
f 326/422/428 385/418/424 393/411/419
f 326/422/428 397/359/380 385/418/424
f 397/359/380 326/422/428 428/366/381
f 390/375/389 326/422/428 427/374/390
f 327/423/429 372/398/405 396/363/376
f 372/398/405 327/423/429 422/397/406
f 327/423/429 388/376/391 392/377/415
f 388/376/391 327/423/429 429/364/379
