# Blender v2.76 (sub 0) OBJ File: 'Debugging.blend'
# www.blender.org
o Track
v 0.000000 0.000000 0.000000
v -3.020440 0.000000 -0.090905
v -3.020440 -0.000000 2.448842
v 0.000000 -0.000000 2.539748
v -3.020440 0.296830 3.211520
v 0.000000 0.000000 -2.539748
v 3.315160 0.000000 -2.288351
v 3.413674 0.296832 -3.050804
v -3.020440 0.000000 -2.630653
v 0.000000 0.296832 -3.308539
v 2.664270 -0.000000 2.749270
v 0.000000 0.296830 3.302426
v 2.989715 -0.000000 0.230460
v 3.488235 -0.002092 -3.627878
v -3.020440 -0.002095 3.793391
v -3.020440 0.296832 -3.399444
v 0.000000 -0.002092 -3.890409
v 2.566540 0.296830 3.505661
v 0.000000 -0.002095 3.884296
v 5.960979 -0.000000 0.649762
v 5.682606 -0.000001 3.174208
v 6.239353 0.000000 -1.874684
v 8.632967 0.000000 -1.841764
v 8.536071 0.296831 -2.604424
v 6.323617 0.296831 -2.638843
v 9.273169 -0.000001 3.197226
v 5.599011 0.296830 3.932290
v 8.953068 -0.000000 0.677731
v 8.462734 -0.002092 -3.181655
v 2.491979 -0.002095 4.082734
v 6.387394 -0.002092 -3.217208
v 9.369294 0.296829 3.953822
v 5.535234 -0.002094 4.510654
v 12.814908 0.002517 2.197383
v 13.110346 0.299485 2.900457
v 10.838140 0.001584 -2.481684
v 13.053192 0.037980 -3.663513
v 12.618783 0.332413 -4.298923
v 10.537580 0.298270 -3.189349
v 15.882500 0.053296 0.555025
v 14.467846 0.045638 -1.554244
v 11.826524 0.002051 -0.142150
v 12.300910 0.031815 -4.785263
v 9.442631 -0.002095 4.531052
v 13.338171 0.000670 3.435933
v 10.312517 -0.000757 -3.725873
v 16.301126 0.352346 1.191505
v 18.603996 0.135303 -1.776323
v 16.357750 0.090334 -7.223009
v 15.702402 0.380678 -7.629662
v 14.305580 0.383619 -5.745268
v 14.874942 0.093207 -5.225041
v 19.158945 0.438408 -1.256760
v 21.348831 0.435753 -4.191687
v 16.739470 0.114255 -3.500682
v 20.696152 0.132650 -4.581461
v 18.526951 0.111492 -5.902235
v 15.204142 0.076989 -7.925361
v 13.883405 0.079920 -6.142083
v 16.631464 0.055258 1.671655
v 19.591118 0.144354 -0.863456
v 21.844521 0.141759 -3.882192
v 22.215515 0.012626 -7.483298
v 22.910677 0.319379 -7.179261
v 17.613014 -0.057477 -9.631164
v 18.693033 -0.442554 -12.148597
v 17.955595 -0.209377 -12.433135
v 16.920519 0.228141 -9.974708
v 23.471426 -0.035101 -10.474614
v 21.082230 -0.238828 -11.311605
v 19.914265 -0.022426 -8.557231
v 17.422537 -0.552977 -12.593497
v 16.389158 -0.078207 -10.202160
v 23.433775 0.029093 -6.914626
v 24.736372 0.070673 -10.031289
v 21.763462 -0.541414 -14.206051
v 24.275333 -0.200337 -14.049547
v 24.174675 0.320923 -10.254446
v 19.251591 -0.882491 -14.362555
v 19.059288 -1.362093 -16.147444
v 18.298265 -1.190323 -15.881948
v 18.454023 -0.693824 -14.448803
v 23.689785 -0.585374 -18.085608
v 24.992424 0.193999 -14.041424
v 21.374537 -0.973734 -17.116526
v 17.828442 -1.570667 -15.631882
v 17.916018 -1.065937 -14.445511
v 25.605385 -0.021829 -13.966419
v 24.915907 -0.381816 -18.598444
v 21.562569 -1.141690 -21.348633
v 24.324860 -0.179424 -18.404465
v 17.986000 -1.826849 -17.807449
v 16.351671 -2.212935 -19.013189
v 15.978711 -1.987830 -18.313635
v 17.380112 -1.640971 -17.280668
v 18.457716 -1.772123 -23.614443
v 22.035017 -0.749236 -21.889521
v 17.404694 -1.992529 -21.313816
v 19.774284 -1.484269 -19.578041
v 15.792048 -2.332207 -17.789717
v 17.035429 -2.011078 -16.865767
v 22.509747 -0.962369 -22.285925
v 19.015570 -1.657497 -24.832422
v 14.679829 -2.305598 -24.566053
v 18.719727 -1.414113 -24.302168
v 14.417297 -2.539179 -19.498728
v 12.357132 -2.774893 -19.245554
v 12.567617 -2.498219 -18.498363
v 14.340519 -2.280253 -18.720133
v 10.853083 -2.646907 -24.095579
v 14.682204 -1.976246 -25.315258
v 14.548563 -2.422388 -22.032391
v 11.605107 -2.710899 -21.670567
v 12.757186 -2.811012 -17.956003
v 14.347750 -2.603365 -18.151384
v 14.749582 -2.245844 -25.907463
v 10.455081 -2.615117 -25.379478
v 9.175934 -2.785227 -20.061863
v 7.071750 -2.868814 -21.481632
v 10.610099 -2.331646 -24.810669
v 10.608128 -2.342873 -16.636116
v 11.332243 -1.982265 -16.478745
v 11.914430 -2.379829 -18.225880
v 11.280118 -2.701640 -18.642094
v 6.437238 -2.597404 -21.921539
v 4.955618 -2.552297 -18.127552
v 5.708685 -2.780854 -17.902969
v 8.158406 -2.561864 -17.269543
v 11.911034 -2.228488 -16.299011
v 12.399160 -2.659279 -17.886951
v 5.957809 -2.915155 -22.233166
v 4.411921 -2.898864 -18.238064
v 4.984402 -2.746668 -15.918675
v 4.332647 -2.599222 -16.391180
v 9.115401 -1.794129 -13.120679
v 6.508715 -1.457209 -10.556711
v 6.962582 -0.987665 -10.054037
v 9.709144 -1.359491 -12.749588
v 3.318398 -2.658957 -14.322206
v 4.913556 -2.058083 -12.439459
v 7.049901 -2.270399 -14.519677
v 7.357239 -1.139688 -9.554974
v 3.891144 -3.000855 -16.658939
v 10.214075 -1.542892 -12.376308
v 2.810384 -2.551740 -14.954830
v 1.398505 -2.530990 -13.040697
v 1.077817 -2.448520 -13.789124
v 3.426911 -1.178303 -8.584570
v -0.625689 -0.994151 -7.875751
v -0.653411 -0.483615 -7.229429
v 3.717787 -0.687997 -7.989474
v -0.389926 -2.493680 -12.723133
v -0.507808 -1.743915 -10.299442
v 2.412708 -1.854646 -10.812634
v -0.688436 -0.597419 -6.586195
v 2.474122 -2.979089 -15.318465
v 0.861698 -2.891062 -14.219680
v 3.966387 -0.820631 -7.399106
v -0.346566 -2.435253 -13.538297
v -2.151358 -2.405814 -13.230479
v -4.590682 -1.199878 -8.941344
v -7.546904 -1.647384 -11.365519
v -8.104972 -1.243760 -10.912973
v -4.939420 -0.729459 -8.361486
v -3.741022 -2.378703 -14.649069
v -1.764640 -2.298984 -13.943797
v -5.643963 -2.013043 -13.007294
v -3.371020 -1.802846 -11.085912
v -8.559032 -1.454989 -10.492094
v -5.239453 -0.881245 -7.800354
v -0.327575 -2.892606 -14.005625
v -1.505810 -2.727057 -14.365330
v -2.733727 -2.574348 -15.517916
v -7.433587 -2.178853 -15.406628
v -5.341529 -2.342263 -16.837332
v -3.151615 -2.195572 -15.186516
v -9.525644 -2.015444 -13.975924
v -10.998720 -2.224184 -15.726684
v -11.502636 -1.908906 -15.155880
v -10.147434 -1.669860 -13.559875
v -7.744179 -2.351583 -19.624506
v -4.701809 -2.095215 -17.283997
v -9.371449 -2.287883 -17.675594
v -11.864037 -2.192396 -14.690100
v -4.234071 -2.430861 -17.594627
v -10.638300 -1.930630 -13.214943
v -6.882619 -2.387393 -20.656128
v -11.110917 -2.543216 -21.528183
v -7.266851 -2.074715 -20.228897
v -12.812764 -2.494341 -16.742516
v -15.026416 -2.631757 -17.159004
v -15.056664 -2.352913 -16.384100
v -13.086625 -2.190691 -16.027014
v -14.762099 -2.514581 -22.230267
v -10.871671 -2.254301 -22.255558
v -11.961841 -2.518778 -19.135349
v -14.894258 -2.573170 -19.694635
v -15.096767 -2.665007 -15.810586
v -13.265178 -2.483434 -15.469923
v -10.660322 -2.558241 -22.794891
v -14.692204 -2.485656 -23.572685
v -17.872154 -2.347126 -19.512726
v -18.316156 -2.237300 -22.010948
v -14.712656 -2.200408 -22.984344
v -17.428152 -2.456951 -17.014503
v -19.476309 -2.149330 -16.314833
v -19.063068 -1.921183 -15.639312
v -17.259684 -2.195407 -16.251377
v -21.856676 -1.727009 -20.782133
v -18.415419 -1.909532 -22.754253
v -20.666492 -1.938170 -18.548483
v -18.843731 -2.263688 -15.126953
v -18.551451 -2.181238 -23.333563
v -17.192268 -2.517436 -15.685973
v -22.161118 -1.371531 -21.453503
v -24.771978 -1.123391 -18.502607
v -25.248489 -0.734715 -19.042656
v -22.650442 -1.337865 -13.029837
v -21.949574 -1.150233 -12.639038
v -20.595179 -1.585312 -14.424429
v -21.196634 -1.776942 -14.954219
v -27.488598 -0.262036 -16.136915
v -22.984306 -1.450166 -16.728413
v -26.906321 -0.655423 -15.717411
v -24.778381 -0.996644 -14.373624
v -21.519184 -1.521380 -12.315086
v -22.487137 -1.617279 -21.964628
v -25.718801 -0.952444 -19.441818
v -20.246359 -1.952773 -14.010635
v -25.943176 -0.576016 -11.653830
v -29.059391 0.127611 -12.541655
v -23.646368 -0.511949 -8.921625
v -22.854801 -0.305655 -9.021678
v -22.729694 -0.696564 -10.821040
v -23.511482 -0.892641 -10.992818
v -28.374870 -0.259391 -12.314841
v -29.397839 0.443321 -8.445022
v -28.673674 0.063523 -8.478556
v -26.160021 -0.224213 -8.700090
v -22.309801 -0.667037 -9.039207
v -28.033257 -0.476832 -16.428701
v -22.218609 -1.063084 -10.641086
v -29.662535 -0.093828 -12.664583
v -27.792271 0.251613 -4.896408
v -28.482613 0.614438 -4.648276
v -21.960190 -0.001715 -4.702960
v -21.332958 0.258062 -5.170127
v -22.343271 0.027364 -7.029175
v -23.075142 -0.199463 -6.725759
v -26.633667 0.573770 -1.232150
v -23.996574 0.119572 -3.190099
v -25.433706 0.026075 -5.811083
v -20.877298 -0.068307 -5.507449
v -30.004623 0.213781 -8.361041
v -21.820965 -0.321487 -7.212004
v -29.041023 0.368931 -4.411990
v -21.855438 0.074414 -1.112625
v -26.032959 0.240857 -1.677238
v -23.691597 0.337690 1.635707
v -18.759548 0.200214 -2.569245
v -18.660463 0.554961 -3.306459
v -20.006176 0.404624 -3.852283
v -20.439602 0.100129 -3.220957
v -23.271275 0.048700 0.995708
v -19.507944 0.050227 3.232221
v -19.085127 0.005949 -0.057955
v -18.586407 0.301440 -3.904934
v -27.111101 0.302976 -0.876261
v -19.686682 0.111711 -4.342237
v -24.020855 0.032994 2.111815
v -19.410706 -0.187769 2.453832
v -15.878989 -0.190349 2.637349
v -16.013844 0.247496 -2.559089
v -12.048626 0.248357 -2.674648
v -12.074241 0.633126 -3.402872
v -16.031013 0.621645 -3.293115
v -11.844894 -0.061034 2.707850
v -15.855506 0.045868 3.465291
v -11.947112 -0.048782 -0.154489
v -15.946335 -0.012997 -0.033676
v -12.102395 0.404407 -4.014957
v -19.583071 -0.292361 3.784075
v -16.049833 0.384026 -3.902235
v -11.808962 0.212784 3.597433
v -15.843423 -0.303079 4.027500
v -7.433044 -0.090737 -0.123046
v -7.282330 -0.076912 2.596601
v -7.583320 0.241439 -2.641707
v -7.620900 0.636286 -3.365242
v -7.229052 0.214667 3.445931
v -11.790499 -0.124457 4.173590
v -7.663087 0.416096 -3.981248
v -3.020440 -0.002092 -3.981314
v -7.202449 -0.122430 4.003324
vn 0.000000 1.000000 0.000000
vn -0.009900 1.000000 -0.000400
vn -0.009300 0.983400 -0.181000
vn 0.009700 0.983300 -0.181700
vn -0.007100 0.999100 0.041800
vn -0.009900 0.982600 0.185700
vn -0.020100 0.982400 0.185800
vn 0.006400 0.998100 -0.061200
vn 0.010300 0.980800 0.194600
vn 0.003400 0.998300 -0.058900
vn 0.019800 0.983500 -0.180000
vn -0.002200 0.999000 0.045300
vn 0.049400 0.889400 -0.454400
vn -0.003100 0.888000 0.459900
vn 0.036800 0.998000 -0.051700
vn 0.023800 0.889200 -0.456800
vn -0.005000 0.999000 0.043500
vn -0.025300 0.889200 0.456800
vn 0.013700 0.981400 -0.191700
vn -0.013900 0.984400 0.175700
vn 0.021800 0.986100 0.165000
vn -0.001900 0.999900 -0.014100
vn 0.003500 0.999300 -0.036700
vn -0.027300 0.979700 -0.198400
vn -0.004300 0.997600 0.069000
vn -0.000300 1.000000 0.000000
vn -0.061800 0.889700 -0.452400
vn -0.049800 0.889400 0.454300
vn 0.035500 0.889400 -0.455800
vn 0.011800 0.996100 0.087200
vn -0.033800 0.889300 0.456000
vn -0.080300 0.980400 -0.179700
vn 0.022300 0.996800 0.077200
vn 0.057800 0.985200 0.161500
vn 0.079100 0.985700 0.148900
vn -0.031000 0.999400 -0.012400
vn -0.017500 0.999600 -0.021500
vn -0.128200 0.979700 -0.154400
vn -0.017400 0.999800 0.008000
vn -0.007100 1.000000 0.002800
vn -0.273500 0.887900 -0.370000
vn 0.060700 0.889500 0.452900
vn 0.164800 0.889400 0.426300
vn -0.178700 0.889400 -0.420700
vn 0.028000 0.996900 0.073800
vn -0.157400 0.978600 -0.132300
vn 0.153700 0.986000 0.065500
vn -0.020100 0.998700 -0.045900
vn -0.031100 0.999400 -0.013700
vn 0.111500 0.986600 0.118800
vn 0.044800 0.997300 0.057400
vn 0.062500 0.997900 0.019400
vn -0.013600 0.999900 0.002500
vn -0.161900 0.979100 -0.123200
vn 0.003200 0.999700 -0.023400
vn -0.380700 0.884700 -0.268900
vn -0.346300 0.885700 -0.309300
vn 0.242400 0.890800 0.384400
vn 0.321800 0.893200 0.314200
vn 0.388500 0.893200 0.226400
vn -0.174500 0.977400 -0.119600
vn 0.048700 0.998800 0.003200
vn 0.190100 0.981500 -0.022000
vn 0.146600 0.981900 -0.119800
vn -0.035200 0.976000 -0.214800
vn -0.003500 0.992400 -0.123000
vn -0.253100 0.960700 -0.113900
vn -0.049300 0.993000 -0.107100
vn 0.009700 0.997500 -0.070600
vn -0.447500 0.829200 -0.334900
vn -0.386900 0.874700 -0.291800
vn 0.406700 0.895600 0.180000
vn 0.372500 0.921600 0.108800
vn -0.128000 0.983500 -0.128100
vn -0.333200 0.939400 -0.080600
vn -0.003100 0.999800 -0.019300
vn 0.048800 0.974800 -0.217600
vn -0.074000 0.975400 -0.207900
vn -0.224100 0.947200 -0.229100
vn -0.107700 0.953100 -0.283000
vn -0.372600 0.927700 0.022800
vn -0.034300 0.997400 -0.062800
vn -0.193400 0.977900 -0.079800
vn -0.651300 0.757200 -0.049200
vn -0.564400 0.774300 -0.286100
vn 0.339500 0.939900 -0.037100
vn 0.257900 0.943400 -0.208500
vn -0.343000 0.931400 0.121700
vn -0.087100 0.992500 -0.086200
vn -0.127500 0.976900 -0.171500
vn -0.124400 0.982400 -0.139100
vn -0.205000 0.978800 0.000600
vn -0.254500 0.964500 -0.070700
vn -0.253400 0.946400 0.200500
vn -0.131800 0.987900 -0.081900
vn -0.178300 0.983900 0.012600
vn -0.218700 0.975000 -0.038200
vn -0.372600 0.829700 0.415700
vn -0.554400 0.793400 0.251200
vn 0.144800 0.932500 -0.331000
vn 0.035800 0.915400 -0.400800
vn -0.126000 0.962300 0.241200
vn -0.129900 0.988600 -0.075800
vn -0.129800 0.984200 -0.120300
vn -0.060600 0.988700 -0.136800
vn 0.044300 0.998900 0.016400
vn -0.149800 0.987900 0.040900
vn 0.021500 0.971600 0.235800
vn -0.108200 0.992400 -0.059300
vn -0.124800 0.991400 0.038900
vn -0.050700 0.998100 0.034200
vn 0.157000 0.878300 0.451600
vn -0.161200 0.856100 0.491000
vn -0.075400 0.904000 -0.420700
vn -0.214800 0.895400 -0.390000
vn -0.025900 0.999300 -0.028100
vn 0.132300 0.982500 0.131100
vn -0.103600 0.992700 -0.062000
vn -0.215200 0.946000 -0.242600
vn 0.033500 0.981900 -0.186500
vn 0.038200 0.982600 -0.181700
vn -0.091900 0.980900 -0.171300
vn -0.138200 0.986700 -0.085800
vn -0.140200 0.989300 -0.040100
vn 0.098400 0.995000 0.016400
vn -0.057800 0.991600 -0.115600
vn 0.403600 0.913100 -0.057200
vn 0.425600 0.887400 0.177300
vn -0.399400 0.874000 -0.276700
vn -0.506300 0.848300 -0.155000
vn 0.010300 0.998500 -0.053300
vn -0.138500 0.984500 -0.108000
vn -0.251900 0.916900 -0.309600
vn -0.205500 0.904000 -0.374900
vn -0.033000 0.983600 -0.177500
vn 0.003900 0.987900 -0.154900
vn -0.005600 0.997100 -0.076100
vn -0.098000 0.969600 -0.224000
vn -0.095800 0.978300 -0.183600
vn 0.212000 0.968800 0.128800
vn -0.507400 0.795200 -0.331900
vn 0.304400 0.950900 0.055400
vn -0.143200 0.962900 -0.228600
vn 0.001200 0.992900 -0.119200
vn -0.070100 0.963400 -0.258800
vn -0.113700 0.886100 -0.449400
vn 0.019500 0.876000 -0.481900
vn 0.003500 0.982200 -0.187800
vn -0.003400 0.984000 -0.178200
vn 0.040400 0.989800 -0.136500
vn 0.025700 0.957700 -0.286700
vn -0.046600 0.961600 -0.270300
vn -0.013300 0.984400 0.175700
vn -0.393000 0.755400 -0.524300
vn -0.231000 0.733500 -0.639300
vn 0.132400 0.977600 0.163900
vn 0.058300 0.959400 -0.276100
vn 0.045400 0.996400 -0.071200
vn 0.126400 0.897500 -0.422500
vn 0.172700 0.933500 -0.314400
vn -0.037000 0.989600 -0.138900
vn -0.019100 0.986500 -0.162400
vn -0.017800 0.999500 0.027500
vn 0.166600 0.973800 -0.155000
vn 0.063300 0.986900 -0.148100
vn 0.054900 0.969600 -0.238300
vn -0.318100 0.938500 0.134200
vn -0.189600 0.968100 0.163800
vn 0.083800 0.713900 -0.695200
vn 0.381300 0.747300 -0.544300
vn 0.466900 0.807900 -0.359600
vn 0.028400 0.996600 -0.077000
vn -0.094700 0.992000 0.084000
vn 0.149200 0.986000 -0.074300
vn 0.139200 0.962900 -0.231400
vn 0.045200 0.978200 -0.202600
vn -0.085500 0.991300 -0.100200
vn -0.056900 0.991900 -0.113900
vn -0.131100 0.983700 0.122700
vn 0.108300 0.992300 -0.060700
vn -0.018300 0.998600 -0.049000
vn -0.369300 0.893000 0.257200
vn 0.420200 0.854700 -0.304700
vn -0.382700 0.912400 0.145100
vn 0.294300 0.876800 -0.380300
vn -0.086400 0.981800 0.169200
vn 0.058900 0.992800 -0.104600
vn -0.029200 0.982300 -0.185100
vn 0.014500 0.989400 -0.144600
vn -0.005800 0.999200 0.039500
vn -0.107700 0.993100 -0.045300
vn 0.026200 0.975600 0.218100
vn 0.021400 0.994700 -0.100900
vn -0.041200 0.998800 -0.026300
vn 0.023300 0.999500 0.020000
vn -0.040300 0.878800 0.475400
vn -0.260900 0.884400 0.387000
vn 0.150500 0.884500 -0.441600
vn 0.069700 0.897900 -0.434700
vn 0.114600 0.993200 0.022600
vn 0.150400 0.964400 0.217400
vn 0.050500 0.997000 -0.059000
vn 0.082000 0.986400 -0.142300
vn 0.096700 0.984700 -0.144900
vn 0.182000 0.983300 0.006700
vn 0.118000 0.992100 0.041600
vn 0.261400 0.948300 0.180000
vn 0.096400 0.993400 -0.062300
vn 0.172400 0.985000 0.001200
vn 0.370800 0.837800 0.400800
vn 0.014100 0.903900 -0.427600
vn 0.188200 0.863100 0.468700
vn 0.126100 0.988700 -0.080700
vn 0.326100 0.936700 0.127600
vn 0.133700 0.988300 -0.073000
vn 0.071400 0.981000 -0.180200
vn 0.235200 0.966900 -0.099000
vn 0.229800 0.972900 -0.026000
vn 0.086600 0.984500 -0.152800
vn 0.105300 0.992000 -0.069800
vn 0.197500 0.980100 -0.021900
vn 0.342600 0.937300 0.064300
vn 0.194400 0.978800 -0.064900
vn 0.589900 0.796200 0.134800
vn -0.061300 0.914300 -0.400500
vn -0.146700 0.930200 -0.336500
vn 0.512800 0.809300 0.286400
vn 0.150700 0.985100 -0.082800
vn 0.054600 0.995500 -0.077400
vn -0.070000 0.986300 -0.149600
vn 0.098900 0.975800 -0.195100
vn 0.175200 0.968000 -0.179600
vn 0.008000 0.984200 -0.177100
vn 0.335400 0.942000 -0.009100
vn 0.016800 0.997900 -0.063200
vn 0.307500 0.947100 -0.091600
vn 0.105000 0.988400 -0.109800
vn 0.542300 0.811900 -0.216300
vn -0.233000 0.937100 -0.259800
vn 0.600300 0.797900 -0.054400
vn -0.313200 0.936000 -0.160500
vn 0.254600 0.958300 -0.129800
vn -0.000900 0.999800 -0.018200
vn -0.122700 0.992300 0.015900
vn -0.011800 0.994400 -0.104600
vn 0.046600 0.985900 -0.160600
vn -0.114100 0.990300 -0.078900
vn -0.011600 0.998600 0.052100
vn 0.032700 0.998900 -0.033600
vn 0.057800 0.993700 -0.095700
vn 0.345300 0.859300 -0.377400
vn -0.358600 0.933200 -0.024200
vn 0.455500 0.833400 -0.312900
vn -0.356700 0.925800 0.125300
vn 0.011400 0.999700 0.022100
vn 0.207800 0.969700 -0.128100
vn -0.007900 0.991600 0.129200
vn -0.064300 0.974200 0.216500
vn -0.078800 0.994900 0.062300
vn -0.085300 0.996000 -0.027200
vn -0.122300 0.986800 0.106100
vn 0.146000 0.980200 -0.134000
vn -0.006800 0.985900 0.166900
vn 0.007800 0.997400 0.071300
vn 0.016200 0.916100 -0.400700
vn -0.310400 0.908700 0.279100
vn 0.161900 0.885500 -0.435500
vn -0.203100 0.881400 0.426400
vn 0.056600 0.991200 -0.119900
vn -0.002700 0.993600 -0.112900
vn -0.007100 0.959600 0.281100
vn 0.004700 0.954500 0.298100
vn -0.000900 0.998200 0.059400
vn -0.015900 0.998400 0.053400
vn -0.014700 0.988800 -0.148400
vn -0.025900 0.989500 0.142400
vn 0.002100 0.997700 0.068300
vn 0.004100 0.996600 0.082600
vn -0.006400 0.936500 -0.350500
vn -0.078300 0.851600 0.518300
vn -0.022700 0.931600 -0.362700
vn -0.020300 0.992200 0.123100
vn -0.042600 0.849200 0.526400
vn 0.006000 0.998600 0.052500
vn -0.015700 0.985900 -0.166400
vn 0.031200 0.952000 0.304500
vn 0.036700 0.996300 0.077100
vn -0.007400 0.994100 0.108200
vn -0.019400 0.862300 0.506100
vn 0.033900 0.938300 -0.344300
vn 0.046700 0.888500 -0.456500
vn 0.010100 0.855900 0.517100
s 1
f 1//1 2//2 3//3
f 4//4 3//3 5//5
f 6//6 7//7 8//8
f 9//9 6//6 10//10
f 11//11 4//4 12//12
f 13//1 1//1 4//4
f 7//7 6//6 1//1
f 6//6 9//9 2//2
f 10//10 8//8 14//13
f 12//12 5//5 15//14
f 16//15 10//10 17//16
f 18//17 12//12 19//18
f 20//1 13//1 11//11
f 21//19 11//11 18//17
f 22//20 23//21 24//22
f 7//7 22//20 25//23
f 26//24 21//19 27//25
f 28//26 20//1 21//19
f 23//21 22//20 20//1
f 22//20 7//7 13//1
f 25//23 24//22 29//27
f 27//25 18//17 30//28
f 8//8 25//23 31//29
f 32//30 27//25 33//31
f 28//26 26//24 34//32
f 26//24 32//30 35//33
f 36//34 37//35 38//36
f 36//34 39//37 24//22
f 40//38 34//32 35//33
f 41//39 42//40 34//32
f 37//35 36//34 42//40
f 23//21 28//26 42//40
f 39//37 38//36 43//41
f 32//30 44//42 45//43
f 39//37 46//44 29//27
f 47//45 35//33 45//43
f 41//39 40//38 48//46
f 48//46 40//38 47//45
f 49//47 50//48 51//49
f 52//50 51//49 38//36
f 48//46 53//51 54//52
f 55//53 48//46 56//54
f 52//50 55//53 57//55
f 37//35 41//39 55//53
f 50//48 58//56 59//57
f 47//45 60//58 61//59
f 38//36 51//49 59//57
f 53//51 61//59 62//60
f 57//55 56//54 63//61
f 56//54 54//52 64//62
f 65//63 66//64 67//65
f 65//63 68//66 50//48
f 69//67 63//61 64//62
f 70//68 71//69 63//61
f 66//64 65//63 71//69
f 49//47 57//55 71//69
f 67//65 72//70 73//71
f 54//52 62//60 74//72
f 68//66 73//71 58//56
f 64//62 74//72 75//73
f 76//74 70//68 69//67
f 77//75 69//67 78//76
f 79//77 80//78 81//79
f 66//64 79//77 82//80
f 83//81 77//75 84//82
f 85//83 76//74 77//75
f 80//78 79//77 76//74
f 79//77 66//64 70//68
f 81//79 86//84 87//85
f 78//76 75//73 88//86
f 82//80 87//85 72//70
f 84//82 88//86 89//87
f 85//83 83//81 90//88
f 90//88 83//81 91//89
f 92//90 93//91 94//92
f 80//78 92//90 95//93
f 96//94 90//88 97//95
f 98//96 99//97 90//88
f 93//91 92//90 99//97
f 80//78 85//83 99//97
f 94//92 100//98 101//99
f 91//89 89//87 102//100
f 95//93 101//99 86//84
f 97//95 102//100 103//101
f 98//96 96//94 104//102
f 104//102 96//94 105//103
f 106//104 107//105 108//106
f 93//91 106//104 109//107
f 110//108 104//102 111//109
f 112//110 104//102 110//108
f 106//104 112//110 113//111
f 93//91 98//96 112//110
f 108//106 114//112 115//113
f 105//103 103//101 116//114
f 109//107 115//113 100//98
f 111//109 116//114 117//115
f 118//116 113//111 110//108
f 119//117 110//108 120//118
f 121//119 122//120 123//121
f 107//105 124//122 123//121
f 119//117 125//123 126//124
f 118//116 119//117 127//125
f 124//122 118//116 128//126
f 124//122 107//105 113//111
f 122//120 129//127 130//128
f 125//123 120//118 117//115
f 108//106 123//121 130//128
f 125//123 131//129 132//130
f 128//126 127//125 133//131
f 127//125 126//124 134//132
f 135//133 136//134 137//135
f 135//133 138//136 122//120
f 139//137 133//131 134//132
f 140//138 141//139 133//131
f 136//134 135//133 141//139
f 121//119 128//126 141//139
f 138//136 137//135 142//140
f 126//124 132//130 143//141
f 138//136 144//142 129//127
f 145//143 134//132 143//141
f 140//138 139//137 146//144
f 139//137 145//143 147//145
f 148//146 149//147 150//148
f 148//146 151//149 137//135
f 152//150 146//144 147//145
f 153//151 154//152 146//144
f 149//147 148//146 154//152
f 136//134 140//138 154//152
f 151//149 150//148 155//153
f 145//143 156//154 157//155
f 151//149 158//156 142//140
f 159//157 147//145 157//155
f 153//151 152//150 160//158
f 160//158 152//150 159//157
f 161//159 162//160 163//161
f 149//147 161//159 164//162
f 165//163 160//158 166//164
f 167//165 168//166 160//158
f 162//160 161//159 168//166
f 149//147 153//151 168//166
f 163//161 169//167 170//168
f 159//157 171//169 172//170
f 164//162 170//168 155//153
f 166//164 172//170 173//171
f 174//172 167//165 165//163
f 175//173 165//163 176//174
f 177//175 178//176 179//177
f 162//160 177//175 180//178
f 181//179 175//173 182//180
f 183//181 174//172 175//173
f 178//176 177//175 174//172
f 177//175 162//160 167//165
f 180//178 179//177 184//182
f 176//174 173//171 185//183
f 180//178 186//184 169//167
f 182//180 185//183 187//185
f 183//181 181//179 188//186
f 188//186 181//179 189//187
f 190//188 191//189 192//190
f 178//176 190//188 193//191
f 194//192 188//186 195//193
f 196//194 188//186 194//192
f 190//188 196//194 197//195
f 178//176 183//181 196//194
f 192//190 198//196 199//197
f 189//187 187//185 200//198
f 193//191 199//197 184//182
f 195//193 200//198 201//199
f 202//200 197//195 194//192
f 203//201 194//192 204//202
f 205//203 206//204 207//205
f 191//189 205//203 208//206
f 209//207 203//201 210//208
f 211//209 202//200 203//201
f 206//204 205//203 202//200
f 205//203 191//189 197//195
f 208//206 207//205 212//210
f 204//202 201//199 213//211
f 192//190 208//206 214//212
f 215//213 210//208 213//211
f 211//209 209//207 216//214
f 209//207 215//213 217//215
f 218//216 219//217 220//218
f 221//219 220//218 207//205
f 216//214 217//215 222//220
f 223//221 216//214 224//222
f 221//219 223//221 225//223
f 206//204 211//209 223//221
f 220//218 219//217 226//224
f 215//213 227//225 228//226
f 220//218 229//227 212//210
f 222//220 217//215 228//226
f 230//228 225//223 224//222
f 224//222 222//220 231//229
f 232//230 233//231 234//232
f 235//233 234//232 219//217
f 236//234 231//229 237//235
f 230//228 236//234 238//236
f 235//233 230//228 239//237
f 235//233 218//216 225//223
f 234//232 233//231 240//238
f 231//229 222//220 241//239
f 219//217 234//232 242//240
f 237//235 231//229 243//241
f 239//237 238//236 244//242
f 238//236 237//235 245//243
f 246//244 247//245 248//246
f 249//247 248//246 233//231
f 244//242 245//243 250//248
f 251//249 252//250 244//242
f 246//244 249//247 252//250
f 232//230 239//237 252//250
f 248//246 247//245 253//251
f 245//243 237//235 254//252
f 233//231 248//246 255//253
f 250//248 245//243 256//254
f 257//255 251//249 258//256
f 258//256 250//248 259//257
f 260//258 261//259 262//260
f 263//261 262//260 247//245
f 264//262 259//257 265//263
f 266//264 257//255 264//262
f 260//258 263//261 257//255
f 263//261 246//244 251//249
f 262//260 261//259 267//265
f 259//257 250//248 268//266
f 247//245 262//260 269//267
f 265//263 259//257 270//268
f 266//264 271//269 272//270
f 272//270 271//269 265//263
f 273//271 274//272 275//273
f 273//271 276//274 261//259
f 277//275 272//270 278//276
f 279//277 280//278 272//270
f 274//272 273//271 280//278
f 260//258 266//264 280//278
f 276//274 275//273 281//279
f 278//276 265//263 282//280
f 276//274 283//281 267//265
f 284//282 278//276 285//283
f 286//284 279//277 277//275
f 287//285 277//275 284//282
f 288//286 9//9 16//15
f 274//272 288//286 289//287
f 287//285 290//288 5//5
f 9//9 288//286 286//284
f 288//286 274//272 279//277
f 2//2 286//284 287//285
f 290//288 284//282 291//289
f 275//273 289//287 292//290
f 16//15 293//291 292//290
f 290//288 294//292 15//14
f 4//4 1//1 3//3
f 12//12 4//4 5//5
f 10//10 6//6 8//8
f 16//15 9//9 10//10
f 18//17 11//11 12//12
f 11//11 13//1 4//4
f 13//1 7//7 1//1
f 1//1 6//6 2//2
f 17//16 10//10 14//13
f 19//18 12//12 15//14
f 293//291 16//15 17//16
f 30//28 18//17 19//18
f 21//19 20//1 11//11
f 27//25 21//19 18//17
f 25//23 22//20 24//22
f 8//8 7//7 25//23
f 32//30 26//24 27//25
f 26//24 28//26 21//19
f 28//26 23//21 20//1
f 20//1 22//20 13//1
f 31//29 25//23 29//27
f 33//31 27//25 30//28
f 14//13 8//8 31//29
f 44//42 32//30 33//31
f 42//40 28//26 34//32
f 34//32 26//24 35//33
f 39//37 36//34 38//36
f 23//21 36//34 24//22
f 47//45 40//38 35//33
f 40//38 41//39 34//32
f 41//39 37//35 42//40
f 36//34 23//21 42//40
f 46//44 39//37 43//41
f 35//33 32//30 45//43
f 24//22 39//37 29//27
f 60//58 47//45 45//43
f 55//53 41//39 48//46
f 53//51 48//46 47//45
f 52//50 49//47 51//49
f 37//35 52//50 38//36
f 56//54 48//46 54//52
f 57//55 55//53 56//54
f 49//47 52//50 57//55
f 52//50 37//35 55//53
f 51//49 50//48 59//57
f 53//51 47//45 61//59
f 43//41 38//36 59//57
f 54//52 53//51 62//60
f 71//69 57//55 63//61
f 63//61 56//54 64//62
f 68//66 65//63 67//65
f 49//47 65//63 50//48
f 78//76 69//67 64//62
f 69//67 70//68 63//61
f 70//68 66//64 71//69
f 65//63 49//47 71//69
f 68//66 67//65 73//71
f 64//62 54//52 74//72
f 50//48 68//66 58//56
f 78//76 64//62 75//73
f 77//75 76//74 69//67
f 84//82 77//75 78//76
f 82//80 79//77 81//79
f 67//65 66//64 82//80
f 91//89 83//81 84//82
f 83//81 85//83 77//75
f 85//83 80//78 76//74
f 76//74 79//77 70//68
f 82//80 81//79 87//85
f 84//82 78//76 88//86
f 67//65 82//80 72//70
f 91//89 84//82 89//87
f 99//97 85//83 90//88
f 97//95 90//88 91//89
f 95//93 92//90 94//92
f 81//79 80//78 95//93
f 105//103 96//94 97//95
f 96//94 98//96 90//88
f 98//96 93//91 99//97
f 92//90 80//78 99//97
f 95//93 94//92 101//99
f 97//95 91//89 102//100
f 81//79 95//93 86//84
f 105//103 97//95 103//101
f 112//110 98//96 104//102
f 111//109 104//102 105//103
f 109//107 106//104 108//106
f 94//92 93//91 109//107
f 120//118 110//108 111//109
f 113//111 112//110 110//108
f 107//105 106//104 113//111
f 106//104 93//91 112//110
f 109//107 108//106 115//113
f 111//109 105//103 116//114
f 94//92 109//107 100//98
f 120//118 111//109 117//115
f 119//117 118//116 110//108
f 125//123 119//117 120//118
f 124//122 121//119 123//121
f 108//106 107//105 123//121
f 127//125 119//117 126//124
f 128//126 118//116 127//125
f 121//119 124//122 128//126
f 118//116 124//122 113//111
f 123//121 122//120 130//128
f 131//129 125//123 117//115
f 114//112 108//106 130//128
f 126//124 125//123 132//130
f 141//139 128//126 133//131
f 133//131 127//125 134//132
f 138//136 135//133 137//135
f 121//119 135//133 122//120
f 145//143 139//137 134//132
f 139//137 140//138 133//131
f 140//138 136//134 141//139
f 135//133 121//119 141//139
f 144//142 138//136 142//140
f 134//132 126//124 143//141
f 122//120 138//136 129//127
f 156//154 145//143 143//141
f 154//152 140//138 146//144
f 146//144 139//137 147//145
f 151//149 148//146 150//148
f 136//134 148//146 137//135
f 159//157 152//150 147//145
f 152//150 153//151 146//144
f 153//151 149//147 154//152
f 148//146 136//134 154//152
f 158//156 151//149 155//153
f 147//145 145//143 157//155
f 137//135 151//149 142//140
f 171//169 159//157 157//155
f 168//166 153//151 160//158
f 166//164 160//158 159//157
f 164//162 161//159 163//161
f 150//148 149//147 164//162
f 176//174 165//163 166//164
f 165//163 167//165 160//158
f 167//165 162//160 168//166
f 161//159 149//147 168//166
f 164//162 163//161 170//168
f 166//164 159//157 172//170
f 150//148 164//162 155//153
f 176//174 166//164 173//171
f 175//173 174//172 165//163
f 182//180 175//173 176//174
f 180//178 177//175 179//177
f 163//161 162//160 180//178
f 189//187 181//179 182//180
f 181//179 183//181 175//173
f 183//181 178//176 174//172
f 174//172 177//175 167//165
f 186//184 180//178 184//182
f 182//180 176//174 185//183
f 163//161 180//178 169//167
f 189//187 182//180 187//185
f 196//194 183//181 188//186
f 195//193 188//186 189//187
f 193//191 190//188 192//190
f 179//177 178//176 193//191
f 204//202 194//192 195//193
f 197//195 196//194 194//192
f 191//189 190//188 197//195
f 190//188 178//176 196//194
f 193//191 192//190 199//197
f 195//193 189//187 200//198
f 179//177 193//191 184//182
f 204//202 195//193 201//199
f 203//201 202//200 194//192
f 210//208 203//201 204//202
f 208//206 205//203 207//205
f 192//190 191//189 208//206
f 215//213 209//207 210//208
f 209//207 211//209 203//201
f 211//209 206//204 202//200
f 202//200 205//203 197//195
f 214//212 208//206 212//210
f 210//208 204//202 213//211
f 198//196 192//190 214//212
f 227//225 215//213 213//211
f 223//221 211//209 216//214
f 216//214 209//207 217//215
f 221//219 218//216 220//218
f 206//204 221//219 207//205
f 224//222 216//214 222//220
f 225//223 223//221 224//222
f 218//216 221//219 225//223
f 221//219 206//204 223//221
f 229//227 220//218 226//224
f 217//215 215//213 228//226
f 207//205 220//218 212//210
f 241//239 222//220 228//226
f 236//234 230//228 224//222
f 236//234 224//222 231//229
f 235//233 232//230 234//232
f 218//216 235//233 219//217
f 238//236 236//234 237//235
f 239//237 230//228 238//236
f 232//230 235//233 239//237
f 230//228 235//233 225//223
f 242//240 234//232 240//238
f 243//241 231//229 241//239
f 226//224 219//217 242//240
f 254//252 237//235 243//241
f 252//250 239//237 244//242
f 244//242 238//236 245//243
f 249//247 246//244 248//246
f 232//230 249//247 233//231
f 258//256 244//242 250//248
f 258//256 251//249 244//242
f 251//249 246//244 252//250
f 249//247 232//230 252//250
f 255//253 248//246 253//251
f 256//254 245//243 254//252
f 240//238 233//231 255//253
f 268//266 250//248 256//254
f 264//262 257//255 258//256
f 264//262 258//256 259//257
f 263//261 260//258 262//260
f 246//244 263//261 247//245
f 271//269 264//262 265//263
f 271//269 266//264 264//262
f 266//264 260//258 257//255
f 257//255 263//261 251//249
f 269//267 262//260 267//265
f 270//268 259//257 268//266
f 253//251 247//245 269//267
f 282//280 265//263 270//268
f 280//278 266//264 272//270
f 278//276 272//270 265//263
f 276//274 273//271 275//273
f 260//258 273//271 261//259
f 284//282 277//275 278//276
f 277//275 279//277 272//270
f 279//277 274//272 280//278
f 273//271 260//258 280//278
f 283//281 276//274 281//279
f 285//283 278//276 282//280
f 261//259 276//274 267//265
f 291//289 284//282 285//283
f 287//285 286//284 277//275
f 290//288 287//285 284//282
f 289//287 288//286 16//15
f 275//273 274//272 289//287
f 3//3 287//285 5//5
f 2//2 9//9 286//284
f 286//284 288//286 279//277
f 3//3 2//2 287//285
f 294//292 290//288 291//289
f 281//279 275//273 292//290
f 289//287 16//15 292//290
f 5//5 290//288 15//14
