# Blender v2.76 (sub 0) OBJ File: 'Mine.blend'
# www.blender.org
o Mine_Cylinder
v 0.382683 -0.007273 -0.923880
v 0.382683 0.342442 -0.923880
v 0.923880 -0.007273 -0.382684
v 0.923880 0.342442 -0.382684
v 0.923880 -0.007273 0.382683
v 0.923880 0.342442 0.382683
v 0.382684 -0.007273 0.923880
v 0.382684 0.342442 0.923880
v -0.382683 -0.007273 0.923880
v -0.382683 0.342442 0.923880
v -0.923880 -0.007273 0.382683
v -0.923880 0.342442 0.382683
v -0.923880 -0.007273 -0.382683
v -0.923880 0.342442 -0.382683
v -0.382684 -0.007273 -0.923879
v -0.382684 0.342442 -0.923879
v 0.234377 -0.013540 -1.641197
v 1.641197 -0.013540 -0.234377
v 1.641197 -0.013540 0.234377
v 0.234377 -0.013540 1.641197
v -0.234377 -0.013540 1.641197
v -1.641197 -0.013540 0.234377
v -1.641197 -0.013540 -0.234377
v -0.234378 -0.013540 -1.641197
v 0.532361 0.342442 -0.220511
v 0.220511 0.342442 -0.532361
v 0.532361 0.342442 0.220511
v 0.220511 0.342442 0.532361
v -0.220511 0.342442 0.532361
v -0.532361 0.342442 0.220511
v -0.532361 0.342442 -0.220511
v -0.220511 0.342442 -0.532361
v 0.482144 0.505289 -0.199711
v 0.199710 0.505289 -0.482144
v 0.482144 0.505289 0.199710
v 0.199711 0.505289 0.482144
v -0.199711 0.505289 0.482144
v -0.482144 0.505289 0.199710
v -0.482144 0.505289 -0.199710
v -0.199711 0.505289 -0.482144
v 0.273955 0.623055 -0.113476
v 0.113476 0.623055 -0.273955
v 0.273955 0.623055 0.113476
v 0.113476 0.623055 0.273955
v -0.113476 0.623055 0.273955
v -0.273955 0.623055 0.113476
v -0.273955 0.623055 -0.113476
v -0.113476 0.623055 -0.273955
vt 0.736215 0.591234
vt 0.736215 0.784289
vt 0.648003 0.784289
vt 0.976575 0.590894
vt 0.976575 0.783950
vt 0.888363 0.783950
vt 0.852228 0.590895
vt 0.852228 0.783950
vt 0.764016 0.783950
vt 0.315077 0.925671
vt 0.414799 0.825950
vt 0.488940 0.938738
vt 0.184923 0.085201
vt 0.219732 0.169238
vt 0.169238 0.219732
vt 0.626051 0.591234
vt 0.626051 0.784289
vt 0.537839 0.784289
vt 0.174050 0.925671
vt 0.074329 0.825950
vt 0.315077 0.585201
vt 0.427865 0.511060
vt 0.488940 0.572135
vt 0.074329 0.684923
vt 0.000188 0.572135
vt 0.061263 0.511060
vt 0.061263 0.999813
vt 0.000188 0.938738
vt 0.425671 0.325950
vt 0.510685 0.449610
vt 0.449610 0.510685
vt 0.764016 0.590895
vt 0.762435 0.406132
vt 0.325950 0.085201
vt 0.449610 0.000188
vt 0.510685 0.061263
vt 0.888363 0.590894
vt 0.886783 0.406132
vt 0.536259 0.969052
vt 0.762435 0.968712
vt 0.085201 0.325950
vt 0.184923 0.425671
vt 0.061263 0.510685
vt 0.886783 0.968712
vt 0.648003 0.591234
vt 0.646422 0.406471
vt 0.085201 0.184923
vt 0.000188 0.061263
vt 0.646422 0.969051
vt 0.537839 0.591234
vt 0.536259 0.406471
vt 0.794439 0.376884
vt 0.768560 0.321553
vt 0.841087 0.252126
vt 0.425671 0.184923
vt 0.341635 0.219732
vt 0.325950 0.425671
vt 0.291141 0.341635
vt 0.291141 0.169238
vt 0.169238 0.291141
vt 0.219732 0.341635
vt 0.341635 0.291141
vt 0.174050 0.585201
vt 0.543133 0.273196
vt 0.598342 0.247184
vt 0.668042 0.319451
vt 0.542790 0.126187
vt 0.646861 0.022176
vt 0.672740 0.077507
vt 0.898168 0.125865
vt 0.842958 0.151876
vt 0.773258 0.079610
vt 0.898511 0.272873
vt 0.647322 0.376884
vt 0.600213 0.146934
vt 0.793979 0.022176
vt 0.744092 0.263383
vt 0.782812 0.228630
vt 0.656225 0.222365
vt 0.691714 0.260826
vt 0.697209 0.135677
vt 0.658489 0.170430
vt 0.785075 0.176695
vt 0.749587 0.138234
vt 0.427865 0.999813
vt 0.414799 0.684923
vt 0.000188 0.449610
vt 0.061263 0.000188
vn 0.707100 0.000000 -0.707100
vn 0.707100 0.000000 0.707100
vn -0.707100 0.000000 0.707100
vn -0.008700 -1.000000 0.000000
vn 0.000000 1.000000 0.000000
vn -0.707100 0.000000 -0.707100
vn 0.000000 -1.000000 0.000000
vn 0.000000 -1.000000 0.008700
vn 0.008700 -1.000000 0.000000
vn 0.000000 -1.000000 -0.008700
vn 0.444500 0.895800 0.000000
vn -0.979300 0.000000 0.202500
vn 0.000000 0.895800 0.444500
vn 0.202500 0.000000 0.979300
vn -0.979300 0.000000 -0.202500
vn -0.202500 0.000000 0.979300
vn 0.000000 0.895800 -0.444500
vn 0.979300 0.000000 0.202500
vn 0.979300 0.000000 -0.202500
vn -0.444500 0.895800 -0.000000
vn 0.202500 0.000000 -0.979300
vn -0.202500 0.000000 -0.979300
vn -0.436000 0.881600 -0.180600
vn -0.734500 0.606500 -0.304200
vn -0.304200 0.606500 -0.734500
vn -0.180600 0.881600 0.436000
vn -0.304200 0.606500 0.734500
vn -0.734500 0.606500 0.304200
vn 0.180600 0.881600 0.436000
vn 0.436000 0.881600 0.180600
vn 0.734500 0.606500 0.304200
vn 0.180600 0.881600 -0.436000
vn 0.304200 0.606500 -0.734500
vn 0.734500 0.606500 -0.304200
vn -0.180600 0.881600 -0.436000
vn -0.436000 0.881600 0.180600
vn 0.304200 0.606500 0.734500
vn 0.436000 0.881600 -0.180600
vn -0.270600 0.956100 -0.112100
vn -0.112100 0.956100 -0.270600
vn -0.112100 0.956100 0.270600
vn -0.270600 0.956100 0.112100
vn 0.270600 0.956100 0.112100
vn 0.112100 0.956100 0.270600
vn 0.112100 0.956100 -0.270600
vn 0.270600 0.956100 -0.112100
s off
f 2/1/1 4/2/1 3/3/1
f 6/4/2 8/5/2 7/6/2
f 10/7/3 12/8/3 11/9/3
f 5/10/4 3/11/4 18/12/4
f 12/13/5 30/14/5 31/15/5
f 14/16/6 16/17/6 15/18/6
f 5/10/7 7/19/7 9/20/7
f 15/21/8 24/22/8 17/23/8
f 11/24/9 22/25/9 23/26/9
f 7/19/10 20/27/10 21/28/10
f 6/29/11 19/30/11 18/31/11
f 10/7/12 9/32/12 21/33/12
f 10/34/13 21/35/13 20/36/13
f 6/4/14 5/37/14 19/38/14
f 15/18/15 16/17/15 24/39/15
f 11/9/16 12/8/16 22/40/16
f 16/41/17 2/42/17 17/43/17
f 7/6/18 8/5/18 20/44/18
f 2/1/19 1/45/19 17/46/19
f 12/13/20 14/47/20 23/48/20
f 3/3/21 4/2/21 18/49/21
f 14/16/22 13/50/22 23/51/22
s 1
f 31/52/23 39/53/24 40/54/25
s off
f 10/34/5 8/55/5 28/56/5
f 16/41/5 14/47/5 31/15/5
f 6/29/5 4/57/5 25/58/5
f 10/34/5 29/59/5 30/14/5
f 16/41/5 32/60/5 26/61/5
f 2/42/5 26/61/5 25/58/5
f 6/29/5 27/62/5 28/56/5
f 5/10/7 11/24/7 13/63/7
f 3/11/7 13/63/7 15/21/7
s 1
f 29/64/26 37/65/27 38/66/28
f 28/67/29 27/68/30 35/69/31
f 26/70/32 34/71/33 33/72/34
f 32/73/35 40/54/25 34/71/33
f 30/74/36 38/66/28 39/53/24
f 28/67/29 36/75/37 37/65/27
f 25/76/38 33/72/34 35/69/31
f 39/53/24 47/77/39 48/78/40
f 37/65/27 45/79/41 46/80/42
f 35/69/31 43/81/43 44/82/44
f 34/71/33 42/83/45 41/84/46
f 40/54/25 48/78/40 42/83/45
f 39/53/24 38/66/28 46/80/42
f 37/65/27 36/75/37 44/82/44
f 33/72/34 41/84/46 43/81/43
f 43/81/43 46/80/42 45/79/41
f 42/83/45 48/78/40 47/77/39
f 41/84/46 47/77/39 46/80/42
s off
f 1/45/1 2/1/1 3/3/1
f 5/37/2 6/4/2 7/6/2
f 9/32/3 10/7/3 11/9/3
f 19/85/4 5/10/4 18/12/4
f 14/47/5 12/13/5 31/15/5
f 13/50/6 14/16/6 15/18/6
f 11/24/7 5/10/7 9/20/7
f 1/86/8 15/21/8 17/23/8
f 13/63/9 11/24/9 23/26/9
f 9/20/10 7/19/10 21/28/10
f 4/57/11 6/29/11 18/31/11
f 8/55/13 10/34/13 20/36/13
f 24/87/17 16/41/17 17/43/17
f 22/88/20 12/13/20 23/48/20
s 1
f 32/73/35 31/52/23 40/54/25
s off
f 29/59/5 10/34/5 28/56/5
f 32/60/5 16/41/5 31/15/5
f 27/62/5 6/29/5 25/58/5
f 12/13/5 10/34/5 30/14/5
f 2/42/5 16/41/5 26/61/5
f 4/57/5 2/42/5 25/58/5
f 8/55/5 6/29/5 28/56/5
f 3/11/7 5/10/7 13/63/7
f 1/86/7 3/11/7 15/21/7
s 1
f 30/74/36 29/64/26 38/66/28
f 36/75/37 28/67/29 35/69/31
f 25/76/38 26/70/32 33/72/34
f 26/70/32 32/73/35 34/71/33
f 31/52/23 30/74/36 39/53/24
f 29/64/26 28/67/29 37/65/27
f 27/68/30 25/76/38 35/69/31
f 40/54/25 39/53/24 48/78/40
f 38/66/28 37/65/27 46/80/42
f 36/75/37 35/69/31 44/82/44
f 33/72/34 34/71/33 41/84/46
f 34/71/33 40/54/25 42/83/45
f 47/77/39 39/53/24 46/80/42
f 45/79/41 37/65/27 44/82/44
f 35/69/31 33/72/34 43/81/43
f 44/82/44 43/81/43 45/79/41
f 41/84/46 42/83/45 47/77/39
f 43/81/43 41/84/46 46/80/42
