# Blender v2.76 (sub 0) OBJ File: 'Missile.blend'
# www.blender.org
o Fire_Cylinder.001
v 0.283160 0.283160 -1.338665
v 0.376532 0.149890 -1.338562
v 0.121511 0.376180 -1.338776
v 0.354274 0.354274 -1.552512
v 0.471030 0.187508 -1.552484
v 0.152051 0.470725 -1.552541
v 0.368293 0.368293 -2.116256
v 0.489623 0.194910 -2.116256
v 0.158083 0.489400 -2.116256
v 0.209067 0.209067 -2.684194
v 0.277942 0.110643 -2.684194
v 0.089738 0.277815 -2.684194
v 0.283160 0.283160 -0.710746
v 0.376532 0.149890 -0.710642
v 0.121511 0.376180 -0.710857
v -0.283160 0.283160 -1.338665
v -0.376532 0.149890 -1.338562
v -0.121511 0.376180 -1.338776
v -0.354273 0.354274 -1.552512
v -0.471029 0.187508 -1.552485
v -0.152050 0.470725 -1.552541
v -0.368292 0.368293 -2.116256
v -0.489623 0.194910 -2.116256
v -0.158082 0.489400 -2.116256
v 0.000000 0.400449 -1.338665
v 0.000000 0.501019 -1.552512
v 0.000000 0.520844 -2.116256
v -0.209066 0.209067 -2.684194
v -0.277942 0.110643 -2.684194
v -0.089738 0.277815 -2.684194
v 0.000000 0.295665 -2.684194
v -0.283160 0.283160 -0.710746
v -0.376532 0.149890 -0.710642
v -0.121511 0.376180 -0.710857
v 0.000000 0.400449 -0.710746
v 0.283160 -0.283160 -1.338665
v 0.376532 -0.149890 -1.338562
v 0.121511 -0.376179 -1.338776
v 0.354274 -0.354273 -1.552512
v 0.471030 -0.187507 -1.552484
v 0.152051 -0.470724 -1.552541
v 0.368293 -0.368292 -2.116256
v 0.489623 -0.194909 -2.116256
v 0.158083 -0.489399 -2.116256
v 0.400449 0.000000 -1.338665
v 0.501019 0.000000 -1.552512
v 0.520845 0.000000 -2.116256
v 0.209067 -0.209067 -2.684194
v 0.277942 -0.110643 -2.684194
v 0.089738 -0.277815 -2.684194
v 0.295666 0.000000 -2.684194
v 0.283160 -0.283160 -0.710746
v 0.376532 -0.149890 -0.710642
v 0.121511 -0.376179 -0.710857
v 0.400449 0.000000 -0.710746
v -0.283160 -0.283160 -1.338665
v -0.376532 -0.149890 -1.338562
v -0.121511 -0.376179 -1.338776
v -0.354273 -0.354273 -1.552512
v -0.471029 -0.187507 -1.552485
v -0.152050 -0.470724 -1.552541
v -0.368292 -0.368292 -2.116256
v -0.489623 -0.194909 -2.116256
v -0.158082 -0.489399 -2.116256
v 0.000000 -0.400449 -1.338665
v 0.000000 -0.501018 -1.552512
v 0.000000 -0.520844 -2.116256
v -0.400449 0.000000 -1.338666
v -0.501018 0.000000 -1.552512
v -0.520844 0.000000 -2.116256
v -0.209066 -0.209067 -2.684194
v -0.277942 -0.110643 -2.684194
v -0.089738 -0.277815 -2.684194
v 0.000000 -0.295665 -2.684194
v -0.295665 0.000000 -2.684194
v 0.000000 0.000000 -3.053962
v -0.283160 -0.283160 -0.710746
v -0.376532 -0.149890 -0.710642
v -0.121511 -0.376179 -0.710857
v 0.000000 -0.400449 -0.710746
v -0.400449 0.000000 -0.710746
vt 0.362497 0.366519
vt 0.256226 0.363311
vt 0.256226 0.268497
vt 0.501455 0.273358
vt 0.501455 0.368783
vt 0.748389 0.364896
vt 0.640412 0.368682
vt 0.640412 0.272933
vt 0.362497 0.582689
vt 0.256226 0.588363
vt 0.501455 0.579057
vt 0.748389 0.589525
vt 0.640412 0.581473
vt 0.748389 0.825524
vt 0.640412 0.812395
vt 0.362497 0.815170
vt 0.256226 0.824981
vt 0.501455 0.808572
vt 0.748389 0.999945
vt 0.256226 0.999945
vt 0.501455 0.999945
vt 0.256226 0.000055
vt 0.362497 0.000359
vt 0.362497 0.271313
vt 0.640412 0.000105
vt 0.748389 0.000055
vt 0.501455 0.000494
vt 0.746684 0.268497
vt 0.746684 0.363311
vt 0.640412 0.366519
vt 0.640412 0.271313
vt 0.362497 0.272933
vt 0.362497 0.368682
vt 0.254521 0.364896
vt 0.746684 0.588363
vt 0.640412 0.582689
vt 0.362497 0.581473
vt 0.254521 0.589525
vt 0.362497 0.812395
vt 0.746684 0.824981
vt 0.640412 0.815170
vt 0.254521 0.825524
vt 0.254521 0.999945
vt 0.746684 0.999945
vt 0.640412 0.000359
vt 0.746684 0.000055
vt 0.254521 0.000055
vt 0.362497 0.000105
vt 0.743774 0.731503
vt 0.743774 0.636689
vt 0.637503 0.633481
vt 0.498545 0.726642
vt 0.637503 0.728687
vt 0.359588 0.727067
vt 0.359588 0.631318
vt 0.251611 0.635104
vt 0.498545 0.631217
vt 0.743774 0.411637
vt 0.637503 0.417311
vt 0.359588 0.418527
vt 0.251611 0.410475
vt 0.498545 0.420943
vt 0.359588 0.187605
vt 0.743774 0.175019
vt 0.498545 0.191428
vt 0.637503 0.184830
vt 0.251611 0.174476
vt 0.251611 0.000055
vt 0.743774 0.000055
vt 0.498545 0.000055
vt 0.637503 0.999641
vt 0.743774 0.999945
vt 0.498545 0.999506
vt 0.251611 0.999945
vt 0.359588 0.999895
vt 0.359588 0.633481
vt 0.253316 0.636689
vt 0.253316 0.731503
vt 0.745479 0.635104
vt 0.637503 0.631318
vt 0.637503 0.727067
vt 0.359588 0.417311
vt 0.253316 0.411637
vt 0.745479 0.410475
vt 0.637503 0.418527
vt 0.745479 0.174476
vt 0.637503 0.187605
vt 0.359588 0.184830
vt 0.253316 0.175019
vt 0.745479 0.000055
vt 0.253316 0.000055
vt 0.253316 0.999945
vt 0.359588 0.999641
vt 0.359588 0.728687
vt 0.637503 0.999895
vt 0.745479 0.999945
vt 0.748389 0.269582
vt 0.254521 0.269582
vt 0.251611 0.730418
vt 0.745479 0.730418
vn 0.341900 0.911600 0.227900
vn 0.000000 0.973200 0.229700
vn 0.000000 0.974500 0.224100
vn 0.656600 0.720000 0.224600
vn 0.657900 0.717400 0.228800
vn 0.973100 0.000000 0.230500
vn 0.901900 0.365000 0.231000
vn 0.902600 0.365600 0.227200
vn 0.346200 0.923600 -0.164900
vn 0.000000 0.986100 -0.166200
vn 0.666800 0.726600 -0.165600
vn 0.985900 0.000000 -0.167000
vn 0.913900 0.369900 -0.167300
vn 0.868500 0.000000 -0.495700
vn 0.804200 0.325600 -0.497200
vn 0.306400 0.815600 -0.490700
vn 0.000000 0.869300 -0.494200
vn 0.587600 0.641600 -0.493000
vn 0.000000 0.000000 -1.000000
vn 0.000000 1.000000 0.000000
vn 0.351900 0.936000 0.000000
vn 0.344300 0.912600 0.220500
vn 0.926900 0.375300 0.000000
vn 1.000000 0.000000 0.000000
vn 0.675000 0.737800 0.000000
vn -0.341900 0.911600 0.227900
vn -0.656600 0.720000 0.224600
vn -0.344300 0.912600 0.220500
vn -0.902600 0.365600 0.227200
vn -0.901900 0.365000 0.231000
vn -0.973100 0.000000 0.230500
vn -0.657900 0.717400 0.228800
vn -0.346200 0.923600 -0.164900
vn -0.913900 0.369900 -0.167300
vn -0.985900 0.000000 -0.167000
vn -0.666800 0.726600 -0.165600
vn -0.804200 0.325600 -0.497200
vn -0.587600 0.641600 -0.493000
vn -0.306400 0.815600 -0.490700
vn -0.868500 0.000000 -0.495700
vn -0.351900 0.936000 0.000000
vn -0.675000 0.737800 0.000000
vn -1.000000 0.000000 0.000000
vn -0.926900 0.375300 0.000000
vn 0.000000 -0.974500 0.224100
vn 0.000000 -0.973200 0.229700
vn 0.341900 -0.911600 0.227900
vn 0.656600 -0.720000 0.224600
vn 0.344300 -0.912600 0.220500
vn 0.902600 -0.365600 0.227200
vn 0.901900 -0.365000 0.231000
vn 0.657900 -0.717400 0.228800
vn 0.000000 -0.986100 -0.166200
vn 0.346200 -0.923600 -0.164900
vn 0.913900 -0.369900 -0.167300
vn 0.666800 -0.726600 -0.165600
vn 0.804200 -0.325600 -0.497200
vn 0.000000 -0.869300 -0.494200
vn 0.587600 -0.641600 -0.493000
vn 0.306400 -0.815600 -0.490700
vn 0.351900 -0.936000 0.000000
vn 0.000000 -1.000000 0.000000
vn 0.675000 -0.737800 0.000000
vn 0.926900 -0.375300 0.000000
vn -0.341900 -0.911600 0.227900
vn -0.656600 -0.720000 0.224600
vn -0.657900 -0.717400 0.228800
vn -0.901900 -0.365000 0.231000
vn -0.902600 -0.365600 0.227200
vn -0.346200 -0.923600 -0.164900
vn -0.666800 -0.726600 -0.165600
vn -0.913900 -0.369900 -0.167300
vn -0.804200 -0.325600 -0.497200
vn -0.306400 -0.815600 -0.490700
vn -0.587600 -0.641600 -0.493000
vn -0.351900 -0.936000 0.000000
vn -0.344300 -0.912600 0.220500
vn -0.926900 -0.375300 0.000000
vn -0.675000 -0.737800 0.000000
vn 0.974800 0.000000 0.222900
vn -0.974800 0.000000 0.222900
s 1
f 6/1/1 26/2/2 25/3/3
f 1/4/4 4/5/5 6/1/1
f 46/6/6 5/7/7 2/8/8
f 2/8/8 5/7/7 4/5/5
f 9/9/9 27/10/10 26/2/2
f 4/5/5 7/11/11 9/9/9
f 47/12/12 8/13/13 5/7/7
f 5/7/7 8/13/13 7/11/11
f 47/12/12 51/14/14 11/15/15
f 9/9/9 12/16/16 31/17/17
f 11/15/15 10/18/18 7/11/11
f 10/18/18 12/16/16 9/9/9
f 51/14/14 76/19/19 11/15/15
f 12/16/16 76/20/19 31/17/17
f 11/15/15 76/21/19 10/18/18
f 10/18/18 76/21/19 12/16/16
f 25/3/3 35/22/20 15/23/21
f 1/4/4 3/24/22 15/23/21
f 2/8/8 14/25/23 55/26/24
f 2/8/8 1/4/4 13/27/25
f 25/28/3 26/29/2 21/30/26
f 16/4/27 18/31/28 21/30/26
f 17/32/29 20/33/30 69/34/31
f 17/32/29 16/4/27 19/5/32
f 26/29/2 27/35/10 24/36/33
f 19/5/32 21/30/26 24/36/33
f 20/33/30 23/37/34 70/38/35
f 20/33/30 19/5/32 22/11/36
f 70/38/35 23/37/34 29/39/37
f 24/36/33 27/35/10 31/40/17
f 22/11/36 28/18/38 29/39/37
f 24/36/33 30/41/39 28/18/38
f 75/42/40 29/39/37 76/43/19
f 30/41/39 31/40/17 76/44/19
f 29/39/37 28/18/38 76/21/19
f 28/18/38 30/41/39 76/21/19
f 34/45/41 35/46/20 25/28/3
f 16/4/27 32/27/42 34/45/41
f 81/47/43 33/48/44 17/32/29
f 17/32/29 33/48/44 32/27/42
f 65/49/45 66/50/46 41/51/47
f 36/52/48 38/53/49 41/51/47
f 37/54/50 40/55/51 46/56/6
f 37/54/50 36/52/48 39/57/52
f 66/50/46 67/58/53 44/59/54
f 39/57/52 41/51/47 44/59/54
f 40/55/51 43/60/55 47/61/12
f 40/55/51 39/57/52 42/62/56
f 47/61/12 43/60/55 49/63/57
f 44/59/54 67/58/53 74/64/58
f 42/62/56 48/65/59 49/63/57
f 44/59/54 50/66/60 48/65/59
f 51/67/14 49/63/57 76/68/19
f 50/66/60 74/64/58 76/69/19
f 49/63/57 48/65/59 76/70/19
f 48/65/59 50/66/60 76/70/19
f 54/71/61 80/72/62 65/49/45
f 36/52/48 52/73/63 54/71/61
f 55/74/24 53/75/64 37/54/50
f 37/54/50 53/75/64 52/73/63
f 61/76/65 66/77/46 65/78/45
f 56/52/66 59/57/67 61/76/65
f 69/79/31 60/80/68 57/81/69
f 57/81/69 60/80/68 59/57/67
f 64/82/70 67/83/53 66/77/46
f 59/57/67 62/62/71 64/82/70
f 70/84/35 63/85/72 60/80/68
f 60/80/68 63/85/72 62/62/71
f 70/84/35 75/86/40 72/87/73
f 64/82/70 73/88/74 74/89/58
f 72/87/73 71/65/75 62/62/71
f 71/65/75 73/88/74 64/82/70
f 75/86/40 76/90/19 72/87/73
f 73/88/74 76/91/19 74/89/58
f 72/87/73 76/70/19 71/65/75
f 71/65/75 76/70/19 73/88/74
f 65/78/45 80/92/62 79/93/76
f 56/52/66 58/94/77 79/93/76
f 57/81/69 78/95/78 81/96/43
f 57/81/69 56/52/66 77/73/79
f 3/24/22 6/1/1 25/3/3
f 3/24/22 1/4/4 6/1/1
f 45/97/80 46/6/6 2/8/8
f 1/4/4 2/8/8 4/5/5
f 6/1/1 9/9/9 26/2/2
f 6/1/1 4/5/5 9/9/9
f 46/6/6 47/12/12 5/7/7
f 4/5/5 5/7/7 7/11/11
f 8/13/13 47/12/12 11/15/15
f 27/10/10 9/9/9 31/17/17
f 8/13/13 11/15/15 7/11/11
f 7/11/11 10/18/18 9/9/9
f 3/24/22 25/3/3 15/23/21
f 13/27/25 1/4/4 15/23/21
f 45/97/80 2/8/8 55/26/24
f 14/25/23 2/8/8 13/27/25
f 18/31/28 25/28/3 21/30/26
f 19/5/32 16/4/27 21/30/26
f 68/98/81 17/32/29 69/34/31
f 20/33/30 17/32/29 19/5/32
f 21/30/26 26/29/2 24/36/33
f 22/11/36 19/5/32 24/36/33
f 69/34/31 20/33/30 70/38/35
f 23/37/34 20/33/30 22/11/36
f 75/42/40 70/38/35 29/39/37
f 30/41/39 24/36/33 31/40/17
f 23/37/34 22/11/36 29/39/37
f 22/11/36 24/36/33 28/18/38
f 18/31/28 34/45/41 25/28/3
f 18/31/28 16/4/27 34/45/41
f 68/98/81 81/47/43 17/32/29
f 16/4/27 17/32/29 32/27/42
f 38/53/49 65/49/45 41/51/47
f 39/57/52 36/52/48 41/51/47
f 45/99/80 37/54/50 46/56/6
f 40/55/51 37/54/50 39/57/52
f 41/51/47 66/50/46 44/59/54
f 42/62/56 39/57/52 44/59/54
f 46/56/6 40/55/51 47/61/12
f 43/60/55 40/55/51 42/62/56
f 51/67/14 47/61/12 49/63/57
f 50/66/60 44/59/54 74/64/58
f 43/60/55 42/62/56 49/63/57
f 42/62/56 44/59/54 48/65/59
f 38/53/49 54/71/61 65/49/45
f 38/53/49 36/52/48 54/71/61
f 45/99/80 55/74/24 37/54/50
f 36/52/48 37/54/50 52/73/63
f 58/94/77 61/76/65 65/78/45
f 58/94/77 56/52/66 61/76/65
f 68/100/81 69/79/31 57/81/69
f 56/52/66 57/81/69 59/57/67
f 61/76/65 64/82/70 66/77/46
f 61/76/65 59/57/67 64/82/70
f 69/79/31 70/84/35 60/80/68
f 59/57/67 60/80/68 62/62/71
f 63/85/72 70/84/35 72/87/73
f 67/83/53 64/82/70 74/89/58
f 63/85/72 72/87/73 62/62/71
f 62/62/71 71/65/75 64/82/70
f 58/94/77 65/78/45 79/93/76
f 77/73/79 56/52/66 79/93/76
f 68/100/81 57/81/69 81/96/43
f 78/95/78 57/81/69 77/73/79
o Missile_Cylinder
v 0.491946 0.195834 -1.177141
v 0.370040 0.370040 -1.177141
v 0.158833 0.491722 -1.177141
v 0.224199 0.541264 1.115978
v 0.414265 0.414266 1.115978
v 0.541264 0.224199 1.115978
v 0.457147 0.189356 1.115978
v 0.349885 0.349885 1.115978
v 0.189356 0.457147 1.115978
v 0.460815 0.190876 0.921600
v 0.352692 0.352693 0.921600
v 0.190875 0.460815 0.921600
v 0.524521 0.217264 0.921600
v 0.401451 0.401451 0.921600
v 0.217263 0.524521 0.921600
v 0.531655 0.220219 1.251530
v 0.406911 0.406911 1.251530
v 0.220218 0.531655 1.251530
v 0.557292 0.230838 1.191798
v 0.426533 0.426533 1.191798
v 0.230838 0.557292 1.191797
v 0.539682 0.203043 -0.243610
v 1.092598 0.115148 -1.075114
v 0.169509 0.536500 -0.262735
v 0.117402 1.050442 -1.075114
v 0.403473 0.403473 -0.256152
v 0.380205 0.151352 -1.177141
v 0.285989 0.285989 -1.177141
v 0.122756 0.380032 -1.177141
v 0.309405 0.123168 -1.016222
v 0.232733 0.232733 -1.016222
v 0.099897 0.309264 -1.016222
v 0.370040 0.370040 -1.334206
v 0.491946 0.195834 -1.334206
v 0.158833 0.491722 -1.334206
v 0.285989 0.285989 -1.334206
v 0.380205 0.151352 -1.334206
v 0.122756 0.380032 -1.334206
v 1.090500 0.127649 -0.956849
v 0.124646 1.045525 -0.962168
v 0.138117 1.000469 -1.143636
v 1.052091 0.155491 -1.160894
v 0.550060 0.227842 0.845809
v 0.420997 0.420998 0.845809
v 0.227842 0.550060 0.845809
v 0.000000 0.523316 -1.177141
v -0.491946 0.195834 -1.177141
v -0.370040 0.370040 -1.177141
v -0.158832 0.491722 -1.177141
v -0.000000 0.585860 1.115978
v -0.224199 0.541264 1.115978
v -0.414266 0.414266 1.115978
v -0.541264 0.224199 1.115978
v -0.000000 0.494812 1.115978
v -0.457147 0.189356 1.115978
v -0.349885 0.349885 1.115978
v -0.189356 0.457147 1.115978
v -0.000000 0.498783 0.921600
v -0.460815 0.190876 0.921600
v -0.352692 0.352693 0.921600
v -0.190876 0.460815 0.921600
v -0.000000 0.567738 0.921600
v -0.524521 0.217264 0.921600
v -0.401451 0.401451 0.921600
v -0.217264 0.524521 0.921600
v -0.000000 0.575459 1.251530
v -0.531655 0.220219 1.251530
v -0.406911 0.406911 1.251530
v -0.220219 0.531655 1.251530
v -0.000000 0.603209 1.191797
v -0.557292 0.230838 1.191797
v -0.426533 0.426533 1.191797
v -0.230838 0.557292 1.191797
v -0.539682 0.203043 -0.243610
v -1.092598 0.115148 -1.075114
v 0.000000 0.569603 -0.273367
v -0.169509 0.536500 -0.262735
v -0.117401 1.050442 -1.075114
v 0.000000 1.073794 -1.075114
v -0.403473 0.403473 -0.256152
v 0.000000 0.404450 -1.177141
v -0.380205 0.151352 -1.177141
v -0.285989 0.285989 -1.177141
v -0.122755 0.380032 -1.177141
v 0.000000 0.329135 -1.016222
v -0.309405 0.123168 -1.016222
v -0.232733 0.232733 -1.016222
v -0.099896 0.309264 -1.016222
v -0.370040 0.370040 -1.334206
v -0.491946 0.195834 -1.334206
v -0.158832 0.491722 -1.334206
v 0.000000 0.523316 -1.334206
v -0.285989 0.285989 -1.334206
v -0.380205 0.151352 -1.334206
v -0.122755 0.380032 -1.334206
v 0.000000 0.404450 -1.334206
v -1.090500 0.127649 -0.956850
v -0.124646 1.045525 -0.962168
v 0.000000 1.070233 -0.963646
v 0.000000 1.027942 -1.143636
v -0.138117 1.000469 -1.143636
v -1.052091 0.155491 -1.160894
v -0.550060 0.227842 0.845809
v -0.420997 0.420998 0.845809
v -0.227842 0.550060 0.845809
v -0.000000 0.595381 0.845809
v 0.523316 0.000000 -1.177141
v 0.491946 -0.195834 -1.177141
v 0.370040 -0.370040 -1.177141
v 0.158833 -0.491722 -1.177141
v 0.224199 -0.541265 1.115978
v 0.414265 -0.414266 1.115978
v 0.541264 -0.224199 1.115978
v 0.585860 -0.000000 1.115978
v 0.494812 -0.000000 1.115978
v 0.457147 -0.189357 1.115978
v 0.349885 -0.349885 1.115978
v 0.189356 -0.457147 1.115978
v 0.498782 -0.000000 0.921600
v 0.460815 -0.190876 0.921600
v 0.352692 -0.352693 0.921600
v 0.190875 -0.460815 0.921600
v 0.567738 -0.000000 0.921600
v 0.524521 -0.217264 0.921600
v 0.401451 -0.401452 0.921600
v 0.217263 -0.524522 0.921600
v 0.531655 -0.220219 1.251530
v 0.575459 -0.000000 1.251530
v 0.406911 -0.406911 1.251530
v 0.220218 -0.531655 1.251530
v 0.603208 -0.000000 1.191798
v 0.557292 -0.230838 1.191798
v 0.426533 -0.426533 1.191798
v 0.230838 -0.557292 1.191797
v 0.572768 0.000000 -0.218557
v 0.539682 -0.203043 -0.243610
v 1.115502 0.000000 -1.075114
v 1.092598 -0.115147 -1.075114
v 0.169509 -0.536500 -0.262735
v 0.117402 -1.050442 -1.075114
v 0.403473 -0.403473 -0.256152
v 0.404450 0.000000 -1.177141
v 0.380205 -0.151352 -1.177141
v 0.285989 -0.285989 -1.177141
v 0.122756 -0.380032 -1.177141
v 0.329135 0.000000 -1.016222
v 0.309405 -0.123168 -1.016222
v 0.232733 -0.232733 -1.016222
v 0.099897 -0.309264 -1.016222
v 0.370040 -0.370040 -1.334206
v 0.491946 -0.195834 -1.334206
v 0.158833 -0.491722 -1.334206
v 0.523316 0.000000 -1.334206
v 0.285989 -0.285989 -1.334206
v 0.380205 -0.151352 -1.334206
v 0.122756 -0.380032 -1.334206
v 0.404450 0.000000 -1.334206
v 1.090500 -0.127649 -0.956849
v 1.114852 0.000000 -0.953286
v 0.124646 -1.045525 -0.962168
v 0.138117 -1.000469 -1.143636
v 1.079228 0.000000 -1.160894
v 1.052091 -0.155491 -1.160894
v 0.595380 -0.000000 0.845809
v 0.550060 -0.227842 0.845809
v 0.420997 -0.420998 0.845809
v 0.227842 -0.550060 0.845809
v 0.000000 -0.523315 -1.177141
v -0.523315 0.000000 -1.177141
v -0.491946 -0.195834 -1.177141
v -0.370040 -0.370040 -1.177141
v -0.158832 -0.491722 -1.177141
v -0.000000 -0.000000 1.958413
v -0.000000 -0.585860 1.115978
v -0.224199 -0.541265 1.115978
v -0.414266 -0.414266 1.115978
v -0.541264 -0.224199 1.115978
v -0.585860 -0.000000 1.115978
v -0.000000 -0.494812 1.115978
v -0.494812 -0.000000 1.115978
v -0.457147 -0.189357 1.115978
v -0.349885 -0.349885 1.115978
v -0.189356 -0.457147 1.115978
v -0.000000 -0.498783 0.921600
v -0.498783 -0.000000 0.921600
v -0.460815 -0.190876 0.921600
v -0.352692 -0.352693 0.921600
v -0.190876 -0.460815 0.921600
v -0.000000 -0.567738 0.921600
v -0.567738 -0.000000 0.921600
v -0.524521 -0.217264 0.921600
v -0.401451 -0.401452 0.921600
v -0.217264 -0.524522 0.921599
v -0.000000 -0.575459 1.251530
v -0.531655 -0.220219 1.251530
v -0.575459 -0.000000 1.251530
v -0.406911 -0.406911 1.251530
v -0.220219 -0.531655 1.251530
v -0.000000 -0.603209 1.191797
v -0.603209 -0.000000 1.191797
v -0.557292 -0.230838 1.191797
v -0.426533 -0.426533 1.191797
v -0.230838 -0.557292 1.191797
v -0.572767 0.000000 -0.218557
v -0.539682 -0.203043 -0.243610
v -1.115502 0.000000 -1.075114
v -1.092598 -0.115147 -1.075114
v 0.000000 -0.569603 -0.273367
v -0.169509 -0.536500 -0.262735
v -0.117401 -1.050442 -1.075114
v 0.000000 -1.073794 -1.075114
v -0.403473 -0.403473 -0.256153
v 0.000000 -0.404449 -1.177141
v -0.404449 0.000000 -1.177141
v -0.380205 -0.151352 -1.177141
v -0.285989 -0.285989 -1.177141
v -0.122755 -0.380032 -1.177141
v 0.000000 -0.329135 -1.016222
v -0.329135 0.000000 -1.016222
v -0.309405 -0.123168 -1.016222
v -0.232733 -0.232733 -1.016222
v -0.099896 -0.309264 -1.016222
v 0.000000 0.000000 -0.915039
v -0.370040 -0.370040 -1.334206
v -0.491946 -0.195834 -1.334206
v -0.158832 -0.491722 -1.334206
v -0.523315 0.000000 -1.334206
v 0.000000 -0.523315 -1.334206
v -0.285989 -0.285989 -1.334206
v -0.380205 -0.151352 -1.334206
v -0.122755 -0.380032 -1.334206
v -0.404449 0.000000 -1.334206
v 0.000000 -0.404449 -1.334206
v -1.090500 -0.127649 -0.956850
v -1.114852 0.000000 -0.953286
v -0.124646 -1.045525 -0.962168
v 0.000000 -1.070233 -0.963646
v 0.000000 -1.027942 -1.143636
v -0.138117 -1.000469 -1.143636
v -1.079227 0.000000 -1.160894
v -1.052091 -0.155491 -1.160894
v -0.595381 -0.000000 0.845809
v -0.550060 -0.227842 0.845809
v -0.420997 -0.420998 0.845809
v -0.227842 -0.550060 0.845809
v -0.000000 -0.595381 0.845809
vt 0.094770 0.524529
vt 0.020476 0.530444
vt 0.016342 0.049782
vt 0.508747 0.106642
vt 0.849058 0.019920
vt 0.487730 0.020659
vt 0.541557 0.183386
vt 0.644906 0.317060
vt 0.586753 0.252611
vt 0.483525 0.716848
vt 0.449085 0.717205
vt 0.449085 0.634761
vt 0.449085 0.556291
vt 0.483525 0.556291
vt 0.449085 0.801132
vt 0.449085 0.879307
vt 0.483525 0.804110
vt 0.369451 0.718198
vt 0.369451 0.634414
vt 0.369451 0.556291
vt 0.369451 0.800498
vt 0.369451 0.879307
vt 0.343352 0.718202
vt 0.343352 0.632239
vt 0.343352 0.556291
vt 0.343352 0.801794
vt 0.343352 0.879307
vt 0.519886 0.195226
vt 0.626107 0.336379
vt 0.485137 0.114934
vt 0.461020 0.025022
vt 0.455917 0.125568
vt 0.567028 0.267830
vt 0.543166 0.285820
vt 0.493213 0.209825
vt 0.316081 0.516474
vt 0.211054 0.520894
vt 0.211926 0.056021
vt 0.405456 0.506796
vt 0.307219 0.054270
vt 0.115633 0.054946
vt 0.896873 0.984170
vt 0.949810 0.954970
vt 0.919320 0.914232
vt 0.900458 0.981631
vt 0.877196 0.926069
vt 0.918421 0.911221
vt 0.983556 0.921118
vt 0.933214 0.883943
vt 0.876707 0.930081
vt 0.883369 0.687166
vt 0.930402 0.883671
vt 0.209705 0.920918
vt 0.103868 0.921290
vt 0.980786 0.917661
vt 0.951949 0.952122
vt 0.302020 0.921587
vt 0.387973 0.922089
vt 0.387575 0.990158
vt 0.654475 0.515724
vt 0.586574 0.528113
vt 0.586574 0.446332
vt 0.103992 0.989176
vt 0.033996 0.989303
vt 0.673387 0.566387
vt 0.717747 0.609948
vt 0.686117 0.664335
vt 0.658159 0.464626
vt 0.708462 0.477481
vt 0.704811 0.509024
vt 0.745189 0.566284
vt 0.767914 0.577700
vt 0.717444 0.540437
vt 0.788311 0.497886
vt 0.520402 0.603287
vt 0.495095 0.502670
vt 0.545683 0.503495
vt 0.565241 0.581258
vt 0.594112 0.626030
vt 0.562896 0.346251
vt 0.598083 0.382605
vt 0.558970 0.434824
vt 0.512288 0.413817
vt 0.301622 0.989655
vt 0.755395 0.626691
vt 0.740493 0.685005
vt 0.619212 0.603824
vt 0.209476 0.989116
vt 0.512719 0.976582
vt 0.521380 0.972824
vt 0.511693 0.891654
vt 0.969499 0.695199
vt 0.979175 0.692415
vt 0.403871 0.048201
vt 0.305917 0.020694
vt 0.020701 0.014413
vt 0.116961 0.020419
vt 0.483525 0.632409
vt 0.429688 0.035119
vt 0.889184 0.689011
vt 0.918463 0.531146
vt 0.990047 0.549440
vt 0.950812 0.621193
vt 0.033873 0.921417
vt 0.885852 0.671963
vt 0.798119 0.692957
vt 0.796460 0.630063
vt 0.856230 0.547718
vt 0.868159 0.518291
vt 0.856280 0.613125
vt 0.830074 0.569220
vt 0.793331 0.578586
vt 0.516811 0.883498
vt 0.211967 0.022022
vt 0.601646 0.355231
vt 0.625810 0.374579
vt 0.679442 0.418024
vt 0.720342 0.382647
vt 0.690770 0.323809
vt 0.778503 0.302815
vt 0.720392 0.448053
vt 0.746547 0.426552
vt 0.808707 0.418072
vt 0.783291 0.417186
vt 0.780162 0.365709
vt 0.836129 0.310767
vt 0.922147 0.480047
vt 0.990047 0.467659
vt 0.858875 0.385824
vt 0.890505 0.331437
vt 0.957410 0.391948
vt 0.871810 0.486748
vt 0.903235 0.429385
vt 0.831433 0.429488
vt 0.859177 0.455335
vt 0.821227 0.369081
vt 0.399316 0.014415
vt 0.483525 0.879307
vt 0.557757 0.661217
vt 0.897179 0.577748
vn 0.439900 0.892600 0.098600
vn 0.000000 0.947800 0.318900
vn 0.000000 0.987200 0.159200
vn 0.787100 0.326000 0.523600
vn 0.000000 0.000000 1.000000
vn 0.852000 0.000000 0.523600
vn 0.602400 0.602400 0.523600
vn 0.000000 0.852000 0.523600
vn 0.326000 0.787100 0.523600
vn 0.471300 0.471300 -0.745500
vn 0.470000 0.470000 -0.747100
vn 0.254400 0.614100 -0.747100
vn 0.000000 0.664700 -0.747100
vn 0.000000 0.666500 -0.745500
vn 0.614100 0.254400 -0.747100
vn 0.664700 0.000000 -0.747100
vn 0.615800 0.255000 -0.745500
vn 0.459300 0.459300 0.760300
vn 0.248500 0.600100 0.760300
vn 0.000000 0.649500 0.760300
vn 0.600100 0.248500 0.760300
vn 0.649500 0.000000 0.760300
vn 0.436700 0.436700 0.786500
vn 0.236300 0.570500 0.786500
vn 0.000000 0.617600 0.786500
vn 0.570500 0.236300 0.786500
vn 0.617600 0.000000 0.786500
vn 0.703500 0.703500 0.100800
vn 0.000000 0.994900 0.100800
vn 0.919200 0.380700 0.100800
vn 0.994900 0.000000 0.100800
vn 0.380700 0.919200 0.100800
vn 0.255000 0.615800 -0.745500
vn 0.864400 0.488000 0.120700
vn 0.680200 0.732000 -0.039500
vn 0.697900 0.698200 0.159600
vn 0.955700 0.000000 0.294200
vn 0.911900 0.377700 0.160200
vn -0.377800 0.912200 0.158700
vn -0.439900 0.892600 0.098600
vn -0.680200 0.732000 -0.039500
vn 0.951600 0.000000 0.307400
vn 0.981500 0.000000 -0.191400
vn 0.912100 0.381600 -0.149700
vn 0.000000 0.950400 0.311000
vn 0.683700 0.688900 0.240500
vn 0.541500 0.813500 -0.212000
vn 0.607100 0.000000 -0.794600
vn 0.441100 0.662100 -0.605900
vn 0.713800 0.658100 0.239600
vn 0.751600 0.613800 -0.241400
vn 0.671400 0.370500 -0.641700
vn 0.674900 0.737500 -0.025400
vn 0.583400 0.774500 -0.244500
vn 0.000000 0.539200 -0.842200
vn 0.000000 0.964000 -0.265700
vn 0.679600 0.000000 -0.733500
vn 0.739500 0.000000 -0.673200
vn -0.905700 -0.366500 -0.212900
vn -0.601200 -0.243400 -0.761100
vn -0.667600 0.000000 -0.744500
vn 0.260400 0.692900 -0.672300
vn 0.000000 0.746200 -0.665700
vn -0.660900 -0.720200 -0.210900
vn -0.343200 -0.915500 -0.210100
vn -0.234400 -0.623800 -0.745500
vn -0.977100 0.000000 -0.212600
vn -0.678200 0.000000 -0.734900
vn -0.634000 -0.256800 -0.729400
vn -0.240500 -0.638300 -0.731300
vn 0.000000 -0.683100 -0.730300
vn -0.462800 -0.506600 -0.727400
vn 0.000000 0.000000 -1.000000
vn 0.506500 0.553100 -0.661300
vn -0.439400 -0.479800 -0.759400
vn 0.000000 -0.657100 -0.753700
vn 0.696300 0.281900 -0.660000
vn 0.000000 -0.977300 -0.211600
vn 0.000000 0.685000 -0.728400
vn 0.987100 0.000000 0.159900
vn 0.377800 0.912200 0.158700
vn -0.787100 0.326000 0.523600
vn -0.852000 0.000000 0.523600
vn -0.602400 0.602400 0.523600
vn -0.326000 0.787100 0.523600
vn -0.471300 0.471300 -0.745500
vn -0.255000 0.615800 -0.745500
vn -0.254400 0.614100 -0.747100
vn -0.470000 0.470000 -0.747100
vn -0.614100 0.254400 -0.747100
vn -0.615800 0.255000 -0.745500
vn -0.664700 0.000000 -0.747100
vn -0.248500 0.600100 0.760300
vn -0.459300 0.459300 0.760300
vn -0.600100 0.248500 0.760300
vn -0.649500 0.000000 0.760300
vn -0.236300 0.570500 0.786500
vn -0.436700 0.436700 0.786500
vn -0.570500 0.236300 0.786500
vn -0.617600 0.000000 0.786500
vn -0.703500 0.703500 0.100800
vn -0.380700 0.919200 0.100800
vn -0.919200 0.380700 0.100800
vn -0.994900 0.000000 0.100800
vn -0.666500 0.000000 -0.745500
vn -0.864400 0.488000 0.120700
vn -0.911900 0.377700 0.160200
vn -0.697900 0.698200 0.159600
vn -0.955700 0.000000 0.294200
vn -0.987100 0.000000 0.159900
vn 0.377800 -0.912200 0.158700
vn 0.439900 -0.892600 0.098600
vn 0.680200 -0.732000 -0.039500
vn -0.951600 0.000000 0.307400
vn -0.713800 0.658100 0.239600
vn -0.912100 0.381600 -0.149700
vn -0.541500 0.813500 -0.212000
vn -0.607100 0.000000 -0.794600
vn -0.981500 0.000000 -0.191400
vn -0.441100 0.662100 -0.605900
vn -0.751600 0.613800 -0.241400
vn -0.683700 0.688900 0.240500
vn -0.671400 0.370500 -0.641700
vn -0.583400 0.774500 -0.244500
vn -0.674900 0.737500 -0.025400
vn -0.696300 0.281900 -0.660000
vn -0.739500 0.000000 -0.673200
vn 0.977100 0.000000 -0.212600
vn 0.667600 0.000000 -0.744500
vn 0.601200 -0.243400 -0.761100
vn -0.260400 0.692900 -0.672300
vn 0.439400 -0.479800 -0.759400
vn 0.234400 -0.623800 -0.745500
vn 0.343200 -0.915500 -0.210100
vn 0.634000 -0.256800 -0.729400
vn 0.678200 0.000000 -0.734900
vn 0.660900 -0.720200 -0.210900
vn 0.462800 -0.506600 -0.727400
vn 0.240500 -0.638300 -0.731300
vn -0.506500 0.553100 -0.661300
vn -0.679600 0.000000 -0.733500
vn 0.000000 -0.987200 0.159200
vn 0.000000 -0.947800 0.318900
vn 0.787100 -0.326000 0.523600
vn 0.602400 -0.602400 0.523600
vn 0.000000 -0.852000 0.523600
vn 0.326000 -0.787100 0.523600
vn 0.255000 -0.615800 -0.745500
vn 0.254400 -0.614100 -0.747100
vn 0.470000 -0.470000 -0.747100
vn 0.000000 -0.666500 -0.745500
vn 0.000000 -0.664700 -0.747100
vn 0.471300 -0.471300 -0.745500
vn 0.614100 -0.254400 -0.747100
vn 0.615800 -0.255000 -0.745500
vn 0.248500 -0.600100 0.760300
vn 0.459300 -0.459300 0.760300
vn 0.000000 -0.649500 0.760300
vn 0.600100 -0.248500 0.760300
vn 0.236300 -0.570500 0.786500
vn 0.436700 -0.436700 0.786500
vn 0.000000 -0.617600 0.786500
vn 0.570500 -0.236300 0.786500
vn 0.703500 -0.703500 0.100800
vn 0.000000 -0.994900 0.100800
vn 0.380700 -0.919200 0.100800
vn 0.919200 -0.380700 0.100800
vn 0.666500 0.000000 -0.745500
vn 0.864400 -0.488000 0.120700
vn 0.911900 -0.377700 0.160200
vn 0.697900 -0.698200 0.159600
vn -0.680200 -0.732000 -0.039500
vn -0.439900 -0.892600 0.098600
vn -0.377800 -0.912200 0.158700
vn 0.713800 -0.658100 0.239600
vn 0.912100 -0.381600 -0.149700
vn 0.000000 -0.950400 0.311000
vn 0.000000 -0.964000 -0.265700
vn 0.541500 -0.813500 -0.212000
vn 0.441100 -0.662100 -0.605900
vn 0.751600 -0.613800 -0.241400
vn 0.683700 -0.688900 0.240500
vn 0.671400 -0.370500 -0.641700
vn 0.583400 -0.774500 -0.244500
vn 0.674900 -0.737500 -0.025400
vn 0.000000 -0.539200 -0.842200
vn 0.696300 -0.281900 -0.660000
vn -0.601200 0.243400 -0.761100
vn -0.905700 0.366500 -0.212900
vn 0.000000 -0.746200 -0.665700
vn 0.260400 -0.692900 -0.672300
vn -0.660900 0.720200 -0.210900
vn -0.439400 0.479800 -0.759400
vn -0.234400 0.623800 -0.745500
vn -0.634000 0.256800 -0.729400
vn -0.462800 0.506600 -0.727400
vn 0.000000 0.683100 -0.730300
vn -0.240500 0.638300 -0.731300
vn -0.343200 0.915500 -0.210100
vn 0.000000 0.657100 -0.753700
vn 0.506500 -0.553100 -0.661300
vn 0.000000 -0.685000 -0.728400
vn -0.787100 -0.326000 0.523600
vn -0.602400 -0.602400 0.523600
vn -0.326000 -0.787100 0.523600
vn -0.470000 -0.470000 -0.747100
vn -0.254400 -0.614100 -0.747100
vn -0.255000 -0.615800 -0.745500
vn -0.614100 -0.254400 -0.747100
vn -0.471300 -0.471300 -0.745500
vn -0.615800 -0.255000 -0.745500
vn -0.459300 -0.459300 0.760300
vn -0.248500 -0.600100 0.760300
vn -0.600100 -0.248500 0.760300
vn -0.436700 -0.436700 0.786500
vn -0.236300 -0.570500 0.786500
vn -0.570500 -0.236300 0.786500
vn -0.703500 -0.703500 0.100800
vn -0.380700 -0.919200 0.100800
vn -0.919200 -0.380700 0.100800
vn -0.864400 -0.488000 0.120700
vn -0.697900 -0.698200 0.159600
vn -0.911900 -0.377700 0.160200
vn -0.912100 -0.381600 -0.149700
vn -0.683700 -0.688900 0.240500
vn -0.541500 -0.813500 -0.212000
vn -0.441100 -0.662100 -0.605900
vn -0.713800 -0.658100 0.239600
vn -0.751600 -0.613800 -0.241400
vn -0.671400 -0.370500 -0.641700
vn -0.674900 -0.737500 -0.025400
vn -0.583400 -0.774500 -0.244500
vn -0.696300 -0.281900 -0.660000
vn 0.905700 0.366500 -0.212900
vn 0.601200 0.243400 -0.761100
vn -0.260400 -0.692900 -0.672300
vn 0.343200 0.915500 -0.210100
vn 0.234400 0.623800 -0.745500
vn 0.439400 0.479800 -0.759400
vn 0.634000 0.256800 -0.729400
vn 0.660900 0.720200 -0.210900
vn 0.240500 0.638300 -0.731300
vn 0.462800 0.506600 -0.727400
vn -0.506500 -0.553100 -0.661300
vn 0.000000 0.977300 -0.211600
vn 0.905700 -0.366500 -0.212900
s 1
f 105/101/82 157/102/83 187/103/84
f 97/104/85 254/105/86 209/106/87
f 98/107/88 254/105/86 97/104/85
f 147/108/89 254/105/86 99/109/90
f 99/109/90 254/105/86 98/107/88
f 86/110/91 89/111/92 90/112/93
f 90/112/93 135/113/94 131/114/95
f 88/115/96 89/111/92 86/110/91
f 196/116/97 88/115/96 87/117/98
f 92/118/99 93/119/100 90/112/93
f 93/119/100 139/120/101 135/113/94
f 91/121/102 92/118/99 89/111/92
f 200/122/103 91/121/102 88/115/96
f 95/123/104 96/124/105 93/119/100
f 96/124/105 143/125/106 139/120/101
f 91/121/102 94/126/107 95/123/104
f 200/122/103 204/127/108 94/126/107
f 99/109/90 98/107/88 101/128/109
f 151/129/110 147/108/89 99/109/90
f 98/107/88 97/104/85 100/130/111
f 97/104/85 209/106/87 212/131/112
f 87/132/98 100/130/111 212/131/112
f 101/128/109 100/130/111 87/132/98
f 151/129/110 102/133/113 85/134/114
f 102/133/113 101/128/109 86/135/91
f 103/136/115 107/137/116 125/138/117
f 216/139/118 103/136/115 124/140/119
f 186/141/120 158/101/121 161/137/122
f 240/142/123 218/143/124 104/144/125
f 180/145/126 121/146/127 106/147/128
f 243/148/129 123/149/130 104/144/125
f 120/150/131 123/149/130 82/151/132
f 122/152/133 106/147/128 121/146/127
f 83/153/134 84/154/135 105/101/82
f 181/155/136 160/156/137 106/147/128
f 82/157/132 83/153/134 107/137/116
f 82/157/132 188/158/138 234/159/139
f 108/160/140 118/161/141 238/162/142
f 84/154/135 116/163/143 173/164/144
f 109/165/145 110/166/146 119/167/147
f 223/168/148 227/169/149 111/170/150
f 109/165/145 108/160/140 111/170/150
f 110/166/146 113/171/151 166/172/152
f 110/166/146 109/165/145 112/173/153
f 111/170/150 227/169/149 304/174/154
f 112/173/153 111/170/150 304/174/154
f 166/172/152 113/171/151 304/174/154
f 113/171/151 112/173/153 304/174/154
f 116/175/143 114/176/155 117/177/156
f 116/175/143 119/178/147 177/179/157
f 234/180/139 238/181/142 118/182/141
f 114/176/155 115/183/158 118/182/141
f 83/153/134 82/157/132 115/184/158
f 110/166/146 162/185/159 177/186/157
f 108/160/140 109/165/145 117/187/156
f 83/153/134 114/188/155 116/163/143
f 216/189/118 240/142/123 120/150/131
f 157/190/83 105/191/82 121/146/127
f 127/192/160 181/155/136 122/152/133
f 188/193/138 82/151/132 123/149/130
f 245/194/161 124/140/119 94/195/107
f 94/195/107 124/140/119 125/138/117
f 126/141/162 187/103/84 143/196/106
f 125/138/117 126/141/162 96/197/105
f 187/103/84 157/102/83 158/101/121
f 148/104/163 277/106/164 254/105/86
f 149/107/165 148/104/163 254/105/86
f 147/108/89 150/109/166 254/105/86
f 150/109/166 149/107/165 254/105/86
f 133/110/167 132/198/168 138/112/169
f 131/114/95 135/113/94 138/112/169
f 133/110/167 137/111/170 136/115/171
f 134/117/172 136/115/171 261/116/173
f 138/112/169 142/119/174 141/118/175
f 135/113/94 139/120/101 142/119/174
f 136/115/171 137/111/170 141/118/175
f 136/115/171 140/121/176 266/122/177
f 142/119/174 146/124/178 145/123/179
f 139/120/101 143/125/106 146/124/178
f 141/118/175 145/123/179 144/126/180
f 140/121/176 144/126/180 271/127/181
f 153/128/182 149/107/165 150/109/166
f 154/133/183 150/109/166 147/108/89
f 152/130/184 148/104/163 149/107/165
f 281/131/185 277/106/164 148/104/163
f 134/132/172 259/199/186 281/131/185
f 134/132/172 152/130/184 153/128/182
f 132/134/168 154/133/183 151/129/110
f 132/134/168 133/135/167 153/128/182
f 155/136/187 184/140/188 185/138/189
f 285/139/190 323/194/191 184/140/188
f 248/141/192 220/101/193 222/137/194
f 316/142/195 178/150/196 156/144/197
f 180/145/126 160/156/137 159/147/198
f 321/148/199 287/143/200 156/144/197
f 183/149/201 178/150/196 128/151/202
f 179/146/203 182/152/204 130/200/205
f 158/101/121 130/154/205 129/153/206
f 159/147/198 160/156/137 181/155/136
f 161/137/122 129/153/206 128/157/202
f 128/157/202 171/184/207 308/159/208
f 295/201/209 313/202/210 175/203/211
f 127/204/160 173/164/144 172/163/212
f 174/205/213 176/206/214 165/207/215
f 167/208/216 300/209/217 295/201/209
f 164/210/218 168/211/219 167/208/216
f 166/172/152 169/212/220 165/207/215
f 165/207/215 169/212/220 168/211/219
f 167/208/216 304/174/154 300/209/217
f 168/211/219 304/174/154 167/208/216
f 166/172/152 304/174/154 169/212/220
f 169/212/220 304/174/154 168/211/219
f 172/175/212 176/178/214 174/177/213
f 177/179/157 176/178/214 172/175/212
f 175/182/211 313/181/210 308/180/208
f 170/176/221 174/177/213 175/182/211
f 170/188/221 171/184/207 128/157/202
f 176/206/214 177/186/157 162/185/159
f 175/203/211 174/205/213 164/210/218
f 130/154/205 172/163/212 170/188/221
f 285/189/190 155/213/187 178/150/196
f 157/190/83 180/145/126 179/146/203
f 182/152/204 181/155/136 127/192/160
f 250/193/222 321/148/199 183/149/201
f 144/195/180 184/140/188 323/194/191
f 144/195/180 145/214/179 185/138/189
f 143/196/106 187/103/84 186/141/120
f 146/197/178 186/141/120 185/138/189
f 327/103/223 289/102/224 220/101/193
f 208/104/225 209/106/87 254/105/86
f 210/107/226 208/104/225 254/105/86
f 275/108/227 211/109/228 254/105/86
f 211/109/228 210/107/226 254/105/86
f 192/198/229 199/112/230 198/111/231
f 255/114/232 260/113/233 199/112/230
f 193/110/234 198/111/231 197/115/235
f 194/117/236 197/115/235 196/116/97
f 199/112/230 203/119/237 202/118/238
f 260/113/233 265/120/239 203/119/237
f 198/111/231 202/118/238 201/121/240
f 196/116/97 197/115/235 201/121/240
f 203/119/237 207/124/241 206/123/242
f 265/120/239 270/125/243 207/124/241
f 201/121/240 202/118/238 206/123/242
f 200/122/103 201/121/240 205/126/244
f 214/128/245 210/107/226 211/109/228
f 280/129/246 215/133/247 211/109/228
f 213/130/248 208/104/225 210/107/226
f 212/131/112 209/106/87 208/104/225
f 194/132/236 195/199/249 212/131/112
f 194/132/236 213/130/248 214/128/245
f 255/215/232 192/134/229 215/133/247
f 193/135/234 214/128/245 215/133/247
f 217/136/250 246/140/251 247/138/252
f 216/139/118 245/194/161 246/140/251
f 293/137/253 290/101/254 326/141/255
f 240/142/123 239/150/256 219/144/257
f 318/145/258 292/156/259 221/147/260
f 243/148/129 218/143/124 219/144/257
f 244/149/261 239/150/256 189/151/262
f 241/146/263 242/152/264 191/200/265
f 220/101/193 191/154/265 190/153/266
f 221/147/260 292/156/259 319/155/267
f 222/137/194 190/153/266 189/157/262
f 232/184/268 234/159/139 188/158/138
f 238/162/142 236/216/269 224/217/270
f 309/164/271 233/163/272 191/154/265
f 225/218/273 235/219/274 237/220/275
f 228/221/276 227/169/149 223/168/148
f 225/218/273 229/222/277 228/221/276
f 299/223/278 230/224/279 226/225/280
f 226/225/280 230/224/279 229/222/277
f 228/221/276 304/174/154 227/169/149
f 229/222/277 304/174/154 228/221/276
f 299/223/278 304/174/154 230/224/279
f 230/224/279 304/174/154 229/222/277
f 233/175/272 237/178/275 235/177/274
f 314/179/281 237/178/275 233/175/272
f 236/182/269 238/181/142 234/180/139
f 231/176/282 235/177/274 236/182/269
f 190/153/266 231/188/282 232/184/268
f 226/225/280 237/220/275 314/226/281
f 224/217/270 236/216/269 235/219/274
f 233/163/272 231/188/282 190/153/266
f 216/189/118 217/213/250 239/150/256
f 289/190/224 318/145/258 241/146/263
f 242/152/264 319/155/267 249/192/283
f 188/193/138 243/148/129 244/149/261
f 205/195/244 246/140/251 245/194/161
f 205/195/244 206/214/242 247/138/252
f 270/196/243 327/103/223 248/141/192
f 207/197/241 248/141/192 247/138/252
f 290/101/254 289/102/224 327/103/223
f 276/104/284 254/105/86 277/106/164
f 278/107/285 254/105/86 276/104/284
f 275/108/227 254/105/86 279/109/286
f 279/109/286 254/105/86 278/107/285
f 263/111/287 264/112/288 256/198/289
f 264/112/288 260/113/233 255/114/232
f 262/115/290 263/111/287 257/110/291
f 261/116/173 262/115/290 258/117/292
f 268/118/293 269/119/294 264/112/288
f 269/119/294 265/120/239 260/113/233
f 262/115/290 267/121/295 268/118/293
f 261/116/173 266/122/177 267/121/295
f 273/123/296 274/124/297 269/119/294
f 274/124/297 270/125/243 265/120/239
f 272/126/298 273/123/296 268/118/293
f 271/127/181 272/126/298 267/121/295
f 279/109/286 278/107/285 283/128/299
f 275/108/227 279/109/286 284/133/300
f 278/107/285 276/104/284 282/130/301
f 276/104/284 277/106/164 281/131/185
f 258/132/292 282/130/301 281/131/185
f 283/128/299 282/130/301 258/132/292
f 280/129/246 284/133/300 256/134/289
f 256/134/289 284/133/300 283/128/299
f 286/136/302 293/137/253 325/138/303
f 285/139/190 286/136/302 324/140/304
f 316/142/195 287/143/200 288/144/305
f 318/145/258 317/146/306 291/147/307
f 321/148/199 322/149/308 288/144/305
f 315/150/309 322/149/308 251/151/310
f 320/152/311 291/147/307 317/146/306
f 252/153/312 253/154/313 290/101/254
f 319/155/267 292/156/259 291/147/307
f 251/157/310 252/153/312 293/137/253
f 250/158/222 308/159/208 306/184/314
f 295/201/209 296/227/315 311/228/316
f 249/204/283 253/154/313 307/163/317
f 298/229/318 312/230/319 310/231/320
f 295/201/209 300/209/217 301/232/321
f 297/233/322 296/227/315 301/232/321
f 298/229/318 303/234/323 299/223/278
f 298/229/318 297/233/322 302/235/324
f 301/232/321 300/209/217 304/174/154
f 302/235/324 301/232/321 304/174/154
f 299/223/278 303/234/323 304/174/154
f 303/234/323 302/235/324 304/174/154
f 307/175/317 305/176/325 310/177/320
f 307/175/317 312/178/319 314/179/281
f 308/180/208 313/181/210 311/182/316
f 305/176/325 306/183/314 311/182/316
f 251/157/310 306/184/314 305/188/325
f 294/236/326 314/226/281 312/230/319
f 296/227/315 297/233/322 310/231/320
f 253/154/313 252/153/312 305/188/325
f 285/189/190 316/142/195 315/150/309
f 289/190/224 290/191/254 317/146/306
f 249/192/283 319/155/267 320/152/311
f 250/193/222 251/151/310 322/149/308
f 271/237/181 323/194/191 324/140/304
f 324/140/304 325/138/303 273/214/296
f 326/141/255 327/103/223 270/196/243
f 325/138/303 326/141/255 274/197/297
f 107/137/116 105/101/82 126/141/162
f 126/141/162 105/101/82 187/103/84
f 85/198/114 86/110/91 90/112/93
f 85/198/114 90/112/93 131/114/95
f 87/117/98 88/115/96 86/110/91
f 195/238/249 196/116/97 87/117/98
f 89/111/92 92/118/99 90/112/93
f 90/112/93 93/119/100 135/113/94
f 88/115/96 91/121/102 89/111/92
f 196/116/97 200/122/103 88/115/96
f 92/118/99 95/123/104 93/119/100
f 93/119/100 96/124/105 139/120/101
f 92/118/99 91/121/102 95/123/104
f 91/121/102 200/122/103 94/126/107
f 102/133/113 99/109/90 101/128/109
f 102/133/113 151/129/110 99/109/90
f 101/128/109 98/107/88 100/130/111
f 100/130/111 97/104/85 212/131/112
f 195/199/249 87/132/98 212/131/112
f 86/135/91 101/128/109 87/132/98
f 131/215/95 151/129/110 85/134/114
f 85/134/114 102/133/113 86/135/91
f 124/140/119 103/136/115 125/138/117
f 245/194/161 216/139/118 124/140/119
f 185/138/189 186/141/120 161/137/122
f 120/150/131 240/142/123 104/144/125
f 160/156/137 180/145/126 106/147/128
f 218/143/124 243/148/129 104/144/125
f 123/149/130 120/150/131 104/144/125
f 103/213/115 120/150/131 82/151/132
f 121/146/127 105/191/82 84/200/135
f 84/200/135 122/152/133 121/146/127
f 107/137/116 83/153/134 105/101/82
f 122/152/133 181/155/136 106/147/128
f 103/136/115 82/157/132 107/137/116
f 115/184/158 82/157/132 234/159/139
f 223/168/148 108/160/140 238/162/142
f 127/204/160 84/154/135 173/164/144
f 117/187/156 109/165/145 119/167/147
f 108/160/140 223/168/148 111/170/150
f 112/173/153 109/165/145 111/170/150
f 162/185/159 110/166/146 166/172/152
f 113/171/151 110/166/146 112/173/153
f 119/178/147 116/175/143 117/177/156
f 173/239/144 116/175/143 177/179/157
f 115/183/158 234/180/139 118/182/141
f 117/177/156 114/176/155 118/182/141
f 114/188/155 83/153/134 115/184/158
f 119/167/147 110/166/146 177/186/157
f 118/161/141 108/160/140 117/187/156
f 84/154/135 83/153/134 116/163/143
f 103/213/115 216/189/118 120/150/131
f 180/145/126 157/190/83 121/146/127
f 84/200/135 127/192/160 122/152/133
f 243/148/129 188/193/138 123/149/130
f 204/237/108 245/194/161 94/195/107
f 95/214/104 94/195/107 125/138/117
f 96/197/105 126/141/162 143/196/106
f 95/214/104 125/138/117 96/197/105
f 186/141/120 187/103/84 158/101/121
f 137/111/170 133/110/167 138/112/169
f 132/198/168 131/114/95 138/112/169
f 134/117/172 133/110/167 136/115/171
f 259/238/186 134/117/172 261/116/173
f 137/111/170 138/112/169 141/118/175
f 138/112/169 135/113/94 142/119/174
f 140/121/176 136/115/171 141/118/175
f 261/116/173 136/115/171 266/122/177
f 141/118/175 142/119/174 145/123/179
f 142/119/174 139/120/101 146/124/178
f 140/121/176 141/118/175 144/126/180
f 266/122/177 140/121/176 271/127/181
f 154/133/183 153/128/182 150/109/166
f 151/129/110 154/133/183 147/108/89
f 153/128/182 152/130/184 149/107/165
f 152/130/184 281/131/185 148/104/163
f 152/130/184 134/132/172 281/131/185
f 133/135/167 134/132/172 153/128/182
f 131/215/95 132/134/168 151/129/110
f 154/133/183 132/134/168 153/128/182
f 161/137/122 155/136/187 185/138/189
f 155/136/187 285/139/190 184/140/188
f 247/138/252 248/141/192 222/137/194
f 287/143/200 316/142/195 156/144/197
f 179/146/203 180/145/126 159/147/198
f 183/149/201 321/148/199 156/144/197
f 155/213/187 128/151/202 178/150/196
f 183/149/201 156/144/197 178/150/196
f 130/200/205 158/191/121 179/146/203
f 179/146/203 159/147/198 182/152/204
f 161/137/122 158/101/121 129/153/206
f 182/152/204 159/147/198 181/155/136
f 155/136/187 161/137/122 128/157/202
f 250/158/222 128/157/202 308/159/208
f 163/240/327 295/201/209 175/203/211
f 130/154/205 127/204/160 172/163/212
f 164/210/218 174/205/213 165/207/215
f 163/240/327 167/208/216 295/201/209
f 163/240/327 164/210/218 167/208/216
f 162/185/159 166/172/152 165/207/215
f 164/210/218 165/207/215 168/211/219
f 170/176/221 172/175/212 174/177/213
f 173/239/144 177/179/157 172/175/212
f 171/183/207 175/182/211 308/180/208
f 171/183/207 170/176/221 175/182/211
f 129/153/206 170/188/221 128/157/202
f 165/207/215 176/206/214 162/185/159
f 163/240/327 175/203/211 164/210/218
f 129/153/206 130/154/205 170/188/221
f 316/142/195 285/189/190 178/150/196
f 158/191/121 157/190/83 179/146/203
f 130/200/205 182/152/204 127/192/160
f 128/151/202 250/193/222 183/149/201
f 271/237/181 144/195/180 323/194/191
f 184/140/188 144/195/180 185/138/189
f 146/197/178 143/196/106 186/141/120
f 145/214/179 146/197/178 185/138/189
f 248/141/192 327/103/223 220/101/193
f 193/110/234 192/198/229 198/111/231
f 192/198/229 255/114/232 199/112/230
f 194/117/236 193/110/234 197/115/235
f 195/238/249 194/117/236 196/116/97
f 198/111/231 199/112/230 202/118/238
f 199/112/230 260/113/233 203/119/237
f 197/115/235 198/111/231 201/121/240
f 200/122/103 196/116/97 201/121/240
f 202/118/238 203/119/237 206/123/242
f 203/119/237 265/120/239 207/124/241
f 205/126/244 201/121/240 206/123/242
f 204/127/108 200/122/103 205/126/244
f 215/133/247 214/128/245 211/109/228
f 275/108/227 280/129/246 211/109/228
f 214/128/245 213/130/248 210/107/226
f 213/130/248 212/131/112 208/104/225
f 213/130/248 194/132/236 212/131/112
f 193/135/234 194/132/236 214/128/245
f 280/129/246 255/215/232 215/133/247
f 192/134/229 193/135/234 215/133/247
f 222/137/194 217/136/250 247/138/252
f 217/136/250 216/139/118 246/140/251
f 325/138/303 293/137/253 326/141/255
f 218/143/124 240/142/123 219/144/257
f 241/146/263 318/145/258 221/147/260
f 244/149/261 243/148/129 219/144/257
f 217/213/250 189/151/262 239/150/256
f 244/149/261 219/144/257 239/150/256
f 191/200/265 220/191/193 241/146/263
f 241/146/263 221/147/260 242/152/264
f 222/137/194 220/101/193 190/153/266
f 242/152/264 221/147/260 319/155/267
f 217/136/250 222/137/194 189/157/262
f 189/157/262 232/184/268 188/158/138
f 223/168/148 238/162/142 224/217/270
f 249/204/283 309/164/271 191/154/265
f 226/225/280 225/218/273 237/220/275
f 224/217/270 228/221/276 223/168/148
f 224/217/270 225/218/273 228/221/276
f 294/236/326 299/223/278 226/225/280
f 225/218/273 226/225/280 229/222/277
f 231/176/282 233/175/272 235/177/274
f 309/239/271 314/179/281 233/175/272
f 232/183/268 236/182/269 234/180/139
f 232/183/268 231/176/282 236/182/269
f 189/157/262 190/153/266 232/184/268
f 294/236/326 226/225/280 314/226/281
f 225/218/273 224/217/270 235/219/274
f 191/154/265 233/163/272 190/153/266
f 240/142/123 216/189/118 239/150/256
f 220/191/193 289/190/224 241/146/263
f 191/200/265 242/152/264 249/192/283
f 189/151/262 188/193/138 244/149/261
f 204/237/108 205/195/244 245/194/161
f 246/140/251 205/195/244 247/138/252
f 207/197/241 270/196/243 248/141/192
f 206/214/242 207/197/241 247/138/252
f 326/141/255 290/101/254 327/103/223
f 257/110/291 263/111/287 256/198/289
f 256/198/289 264/112/288 255/114/232
f 258/117/292 262/115/290 257/110/291
f 259/238/186 261/116/173 258/117/292
f 263/111/287 268/118/293 264/112/288
f 264/112/288 269/119/294 260/113/233
f 263/111/287 262/115/290 268/118/293
f 262/115/290 261/116/173 267/121/295
f 268/118/293 273/123/296 269/119/294
f 269/119/294 274/124/297 265/120/239
f 267/121/295 272/126/298 268/118/293
f 266/122/177 271/127/181 267/121/295
f 284/133/300 279/109/286 283/128/299
f 280/129/246 275/108/227 284/133/300
f 283/128/299 278/107/285 282/130/301
f 282/130/301 276/104/284 281/131/185
f 259/199/186 258/132/292 281/131/185
f 257/135/291 283/128/299 258/132/292
f 255/215/232 280/129/246 256/134/289
f 257/135/291 256/134/289 283/128/299
f 324/140/304 286/136/302 325/138/303
f 323/194/191 285/139/190 324/140/304
f 315/150/309 316/142/195 288/144/305
f 292/156/259 318/145/258 291/147/307
f 287/143/200 321/148/199 288/144/305
f 322/149/308 315/150/309 288/144/305
f 286/213/302 315/150/309 251/151/310
f 317/146/306 290/191/254 253/200/313
f 253/200/313 320/152/311 317/146/306
f 293/137/253 252/153/312 290/101/254
f 320/152/311 319/155/267 291/147/307
f 286/136/302 251/157/310 293/137/253
f 251/157/310 250/158/222 306/184/314
f 313/202/210 295/201/209 311/228/316
f 309/164/271 249/204/283 307/163/317
f 297/233/322 298/229/318 310/231/320
f 296/227/315 295/201/209 301/232/321
f 302/235/324 297/233/322 301/232/321
f 294/236/326 298/229/318 299/223/278
f 303/234/323 298/229/318 302/235/324
f 312/178/319 307/175/317 310/177/320
f 309/239/271 307/175/317 314/179/281
f 306/183/314 308/180/208 311/182/316
f 310/177/320 305/176/325 311/182/316
f 252/153/312 251/157/310 305/188/325
f 298/229/318 294/236/326 312/230/319
f 311/228/316 296/227/315 310/231/320
f 307/163/317 253/154/313 305/188/325
f 286/213/302 285/189/190 315/150/309
f 318/145/258 289/190/224 317/146/306
f 253/200/313 249/192/283 320/152/311
f 321/148/199 250/193/222 322/149/308
f 272/195/298 271/237/181 324/140/304
f 272/195/298 324/140/304 273/214/296
f 274/197/297 326/141/255 270/196/243
f 273/214/296 325/138/303 274/197/297
f 125/138/117 107/137/116 126/141/162
